<?xml version="1.0" encoding="UTF-8" standalone="no"?>
<svg
   xmlns:dc="http://purl.org/dc/elements/1.1/"
   xmlns:cc="http://creativecommons.org/ns#"
   xmlns:rdf="http://www.w3.org/1999/02/22-rdf-syntax-ns#"
   xmlns:svg="http://www.w3.org/2000/svg"
   xmlns="http://www.w3.org/2000/svg"
   viewBox="0 0 2388.1729 1365.8503"
   height="1365.8503"
   width="2388.1729"
   id="svg138"
   version="1.1">
  <metadata
     id="metadata144">
    <rdf:RDF>
      <cc:Work
         rdf:about="">
        <dc:format>image/svg+xml</dc:format>
        <dc:type
           rdf:resource="http://purl.org/dc/dcmitype/StillImage" />
        <dc:title></dc:title>
      </cc:Work>
    </rdf:RDF>
  </metadata>
  <defs
     id="defs142" />
  <path
     id="path210"
     d="m 1649.2767,1364.6479 c -12.9672,-2.0915 -35.8194,-6.8739 -52,-10.8824 -19.7725,-4.8982 -32.2509,-9.3268 -82.5,-29.279 -3.575,-1.4195 -7.175,-2.559 -8,-2.5322 -1.7069,0.055 -21.9744,-6.6504 -23.5,-7.7754 -0.55,-0.4056 -4.375,-0.9802 -8.5,-1.277 -4.125,-0.2968 -8.85,-1.1058 -10.5,-1.7977 -9.4421,-3.9595 -20.0287,-9.2075 -25.0383,-12.4121 -7.4644,-4.775 -18.1179,-9.6314 -27.3845,-12.4833 -10.1687,-3.1295 -22.0273,-9.2588 -31.5772,-16.321 -12.3826,-9.1569 -12.3507,-9.1456 -26.5,-9.395 -22.7299,-0.4006 -26.7057,-1.4228 -50.836,-13.0697 -16.6658,-8.044 -16.8255,-8.0617 -52.6859,-5.8405 -14.2879,0.8849 -35.6531,2.0507 -47.4781,2.5904 -11.825,0.5398 -25.55,1.2453 -30.5,1.5678 -25.6804,1.6733 -37.0024,2.1181 -58,2.2782 -42.0371,0.3207 -82.4356,2.1122 -105.5,4.6785 -6.919,0.7699 -55.98402,6.4297 -60.50002,6.9789 -36.8238,4.4783 -46.9285,5.5445 -57.5,6.0671 -13.4629,0.6654 -26.124,-0.4877 -30.7628,-2.8019 -2.0358,-1.0156 -3.6048,-1.1668 -5.3131,-0.5122 -1.3332,0.511 -7.8241,2.8705 -14.4241,5.2434 -6.6,2.373 -17.175,6.1754 -23.5,8.4499 -31.7657,11.4233 -64.899,15.3238 -101.5,11.9486 -4.95,-0.4564 -14.625,-1.3195 -21.5,-1.918 -31.8032,-2.7684 -60.7806,-9.8634 -85.4194,-20.9145 -2.2443,-1.0067 -7.4556,-3.2852 -11.5806,-5.0635 -4.125,-1.7783 -9.87584,-4.3062 -12.77964,-5.6176 -2.90379,-1.3114 -5.52542,-2.3843 -5.82584,-2.3843 -0.55554,0 -12.16546,-5.781 -29.49375,-14.686 -5.27958,-2.7132 -11.08601,-6.0966 -12.90318,-7.5188 l -3.30395,-2.5857 -6.59682,4.1842 c -11.54525,7.3228 -26.21873,12.9332 -43.09682,16.478 -13.7996,2.8983 -32.14879,2.3611 -44.42108,-1.3004 -24.78401,-7.3945 -44.46173,-23.3081 -55.18267,-44.6268 -3.0959,-6.1563 -3.82192,-8.7769 -4.19555,-15.1439 -0.45013,-7.6708 -0.44181,-7.702 2.23339,-8.3734 1.81548,-0.4557 2.50255,-1.1499 2.12129,-2.1435 -2.51795,-6.5617 -1.08356,-9.9815 7.1028,-16.9345 3.14019,-2.6671 7.53922,-6.8707 9.77563,-9.3415 2.2364,-2.4708 6.64364,-7.2235 9.79385,-10.5617 l 5.72766,-6.0693 -3.96517,-4.4384 c -2.18085,-2.441 -4.95514,-5.847 -6.1651,-7.5688 l -2.19992,-3.1304 -5.71677,4.7575 c -7.76919,6.4656 -18.78292,12.3345 -28.40836,15.1379 -6.86852,2.0005 -10.12152,2.3208 -23,2.2644 -13.2801,-0.058 -16.00538,-0.3715 -23.76834,-2.7332 -18.6892,-5.6857 -37.56727,-16.8811 -47.59774,-28.227 -9.0903,-10.2825 -16.98776,-24.3732 -20.71689,-36.9633 -2.58766,-8.7363 -2.47758,-21.7543 0.23023,-27.2272 l 2.10182,-4.2482 -10.12454,-0.02 c -13.23087,-0.026 -21.17632,-1.2403 -32.69343,-4.9971 -22.71645,-7.4099 -41.46299,-20.1118 -54.87422,-37.18059 -3.65248,-4.6486 -7.02799,-13.2326 -7.68851,-19.5521 -0.60891,-5.8258 -0.76453,-6.1029 -3.75182,-6.6819 -6.60534,-1.2803 -20.06755,-7.6935 -27.8267,-13.2564 -18.06151,-12.9489 -30.619381,-29.4584 -36.234151,-47.636 l -2.10779,-6.824 -8.9898,-4.7169 c -14.32888,-7.5183 -20.31913,-11.994 -30.9643,-23.1352 -19.49822,-20.4068 -31.9294399,-41.4635 -37.6496599,-63.773 -4.05149999,-15.8013 -4.79641,-35.7783 -1.76101,-47.227 4.67361,-17.6275 17.7545399,-37.6899 30.4379899,-46.6832 7.53337,-5.3416 21.19039,-12.3626 24.47886,-12.5844 1.375,-0.093 3.2615,-1.1209 4.19222,-2.2848 0.93073,-1.1639 4.67112,-3.5827 8.31198,-5.3751 5.3464,-2.632 7.909,-3.2787 13.32208,-3.3621 8.74313,-0.1348 10.23798,0.7066 37.673721,21.2048 34.38045,25.6868 35.26593,26.2804 37.4527,25.1101 3.80523,-2.0365 23.80181,-8.0365 33.0473,-9.9159 24.625,-5.0057 42.42478,-5.2161 58.38119,-0.6901 l 8.8812,2.5192 21.1188,-1.9303 c 11.61535,-1.0617 25.13395,-2.1361 30.04135,-2.3877 11.94732,-0.6124 42.45245,2.3664 59.17923,5.7788 4.22493,0.8619 15.19528,4.4942 27.39823,9.0715 l 12.5,4.6887 13.5,-2.0429 c 15.2403,-2.3063 35.82407,-4.7643 47,-5.6124 4.125,-0.313 9.3,-0.7775 11.5,-1.0322 2.2,-0.2547 9.85,-0.903 17,-1.4406 7.15,-0.5377 15.475,-1.2219 18.5,-1.5204 3.025,-0.2985 12.475,-1.213 21,-2.0322 31.07462,-2.9861 54.27467,-5.4783 69.2202,-7.4357 8.4039,-1.1007 22.2548,-2.8959 30.7798,-3.9893 31.9271,-4.0951 64.2698,-9.3212 89.5,-14.4622 49.4248,-10.0708 71.5,-15.3838 71.5,-17.2082 0,-2.4924 5.1281,-7.2102 10.734,-9.8753 8.0644,-3.8338 30.6631,-12.5986 50.766,-19.6894 26.44,-9.326 42.5872,-15.1391 60.5,-21.7803 9.075,-3.3645 21.2483,-7.8738 27.0518,-10.0207 28.7334,-10.629 66.01782,-18.1788 116.37952,-23.566 31.1416,-3.3313 77.1849,-11.9623 80.747,-15.1364 0.9638,-0.8588 2.509,-1.2319 3.6294,-0.8763 1.073,0.3405 3.9178,-0.038 6.3217,-0.8407 2.4038,-0.8029 7.1639,-2.1734 10.5778,-3.0454 11.8662,-3.0309 45.456,-16.1969 72.7928,-28.53206 13.6197,-6.14559 27.6602,-13.33116 47,-24.05345 12.1,-6.70841 24.475,-13.55049 27.5,-15.20461 3.025,-1.65412 6.9774,-3.89832 8.783,-4.98712 16.5966,-10.00746 38.3649,-20.44271 51.7626,-24.81389 15.7226,-5.12967 26.4988,-10.39925 36.4544,-17.82637 13.4494,-10.03354 39.5356,-37.20225 63.4058,-66.03706 6.1018,-7.37092 14.9304,-17.94592 19.6192,-23.5 14.6896,-17.40066 21.9407,-26.91038 43.9186,-57.59834 4.9236,-6.875 9.3318,-12.95 9.7959,-13.5 0.464,-0.55 2.5232,-3.475 4.576,-6.5 22.2682,-32.81465 53.5574,-75.82773 60.5577,-83.24842 7.9351,-8.41166 17.8109,-15.06426 27.2677,-18.36827 5.6412,-1.97094 7.7435,-2.3014 9.5126,-1.49534 2.1009,0.95723 2.6739,0.41974 7.651,-7.17662 2.9591,-4.51624 10.0958,-15.41135 15.8595,-24.21135 5.7637,-8.8 16.054,-23.425 22.8674,-32.5 11.0426,-14.708 28.1686,-40.248235 40.9686,-61.096875 2.475,-4.03128 11.6837,-17.69615 20.4638,-30.36637 8.7801,-12.67022 19.4919,-28.32426 23.8039,-34.78676 4.312,-6.4624996 8.3783,-11.80331965 9.0361,-11.86847965 3.6647,-0.363 5.6502,1.08662005 5.6809,4.14750005 0.01,0.84096 -7.6215,12.5409596 -16.9554,25.9999996 -9.334,13.45904 -23.1715,34.05711 -30.75,45.77349 -28.9983,44.830875 -45.5261,68.967365 -55.6165,81.220155 -1.8468,2.24262 -20.516,30.35465 -25.5528,38.47734 -2.3873,3.85 -9.5762,14.3439 -15.9753,23.31978 -6.3991,8.97589 -12.2478,17.18193 -12.9971,18.23566 -2.2611,3.17949 5.9503,15.15426 20.2938,29.59471 14.5891,14.68771 27.1923,24.60924 42.7,33.61444 32.232,18.71691 51.4618,24.70957 128.8686,40.1599 32.3056,6.44817 67.3627,13.81556 91,19.12403 11.275,2.53214 26.575,5.86971 34,7.41684 7.425,1.54712 23.175,4.85273 35,7.3458 11.825,2.49308 29.2107,5.91321 38.6349,7.60031 30.3548,5.43404 99.2805,20.57019 118.3651,25.99309 5.775,1.64097 16.575,4.98038 24,7.42092 7.425,2.44054 18.225,5.90141 24,7.69081 5.775,1.7894 13.2453,4.48408 16.6007,5.98818 l 6.1007,2.73472 11.1412,-9.23929 c 8.9473,-7.42002 21.2884,-18.20824 29.7424,-25.9999 4.8566,-4.47616 36.6129,-31.04109 79.0674,-66.14187 11.9347,-9.86743 17.0423,-14.38361 33.4861,-29.60813 13.3798,-12.38782 16.5764,-14.01976 18.9122,-9.65525 1.0052,1.87817 0.2075,2.99603 -7.7148,10.81212 -11.8507,11.69178 -29.2212,26.90525 -56.3359,49.34048 -49.67,41.09787 -57.5887,47.82653 -78.6655,66.84386 -4.0177,3.62516 -10.3491,8.98685 -14.0697,11.91486 l -6.7648,5.32366 v 7.08514 c 0,8.85385 -3.5582,16.83941 -9.8186,22.03548 -2.2998,1.90878 -7.0834,5.86182 -10.6304,8.78453 -5.6356,4.64381 -18.5356,19.37308 -45.774,52.26512 -4.0992,4.95 -8.4493,10.125 -9.6669,11.5 -6.0566,6.83948 -16.6671,21.63736 -29.7628,41.5087 -7.971,12.0952 -17.3053,25.4741 -20.7429,29.731 -7.267,8.9989 -20.4158,20.6093 -27.6349,24.4018 -4.661,2.4486 -7.767,6.0833 -12.9695,15.1772 -3.4969,6.1125 -20.3653,30.651 -28.2433,41.0858 -5.1508,6.8224 -10.0793,13.7974 -10.9523,15.5 -2.1857,4.2628 -4.2639,6.8103 -12.9559,15.8814 -8.1807,8.5375 -11.2309,14.1535 -14.5091,26.7141 -1.6336,6.259 -1.8463,9.2871 -1.2859,18.3002 0.6691,10.7591 0.6593,10.8252 -2.5744,17.3938 -3.6443,7.4026 -14.1599,18.6773 -22.7033,24.342 -5.0081,3.3207 -5.2253,3.6513 -5.25,7.9902 -0.094,16.4596 -4.4565,33.2399 -10.2162,39.2946 -2.0974,2.2048 -3.7,4.1147 -3.5615,4.2443 0.1385,0.1296 2.5877,1.9849 5.4425,4.123 10.2184,7.6528 14.6989,16.5057 14.5818,28.8119 -0.1113,11.6969 -9.5107,31.4513 -21.4171,45.012 -2.3884,2.7203 -2.932,4.1325 -2.5852,6.7163 0.2415,1.7994 0.098,5.7467 -0.3177,8.7717 -0.7003,5.0899 -0.5121,5.9189 2.5246,11.1188 7.9146,13.5528 7.3397,18.041 -4.7864,37.36439 -3.0863,4.9181 -6.7262,12.8483 -9.417,20.5168 -2.4124,6.875 -5.3712,14.4738 -6.5752,16.8861 -2.1048,4.2176 -13.9155,16.1139 -15.998,16.1139 -0.5557,0 -0.1531,0.9499 0.8946,2.1108 1.7555,1.9452 1.8985,3.8088 1.8218,23.75 -0.096,24.8665 -1.4775,34.3539 -7.0013,48.0656 -4.4186,10.9686 -13.351,26.9117 -24.5959,43.9007 -4.8816,7.3752 -10.7331,17.2937 -13.0035,22.0412 -3.5135,7.3471 -11.7947,29.5292 -16.3107,43.6897 -2.5658,8.0455 -11.4259,26.6935 -16.6609,35.0666 -7.221,11.5496 -18.4751,25.0095 -32.6026,38.9925 -31.8053,31.4801 -51.1897,43.5421 -82.0489,51.055 -9.7117,2.3644 -12.8954,2.6332 -34.693,2.9287 -17.5425,0.2378 -26.4216,-0.065 -33,-1.1263 z m 59.4572,-9.0646 c 15.8861,-2.4862 33.1783,-9.1607 46.7883,-18.0596 9.9271,-6.4907 20.2768,-15.2468 34.6121,-29.2824 29.5062,-28.8892 40.0229,-44.936 52.1707,-79.6039 5.9741,-17.0491 5.9212,-16.8598 4.4634,-15.9589 -2.2792,1.4086 -33.0755,-6.3035 -35.8445,-8.9763 -1.7267,-1.6668 -0.5967,-5.4877 1.6702,-5.6472 2.0536,-0.1446 1.8379,-0.193 11.6826,2.6236 4.4,1.2588 11.4875,3.0408 15.75,3.96 4.2625,0.9192 7.75,2.0905 7.75,2.603 0,2.2639 1.7121,0.6065 2.9112,-2.8182 2.5286,-7.2222 10.9412,-23.8196 15.9455,-31.4593 l 5.0498,-7.7094 -12.7032,0.01 c -6.9868,0 -15.1783,-0.2762 -18.2033,-0.6243 -8.2083,-0.9448 -27.0553,-4.3384 -30.6445,-5.5178 -3.4971,-1.1492 -4.9038,-4.2479 -2.7427,-6.0415 1.4869,-1.234 3.7176,-1.0226 16.3174,1.5469 10.0986,2.0595 25.0572,3.4352 40.0584,3.6843 l 12.4886,0.2073 4.8299,-7.9224 c 8.817,-14.4626 15.3261,-29.0247 17.0124,-38.0604 l 0.5856,-3.1378 -4.7025,1.4168 c -5.7921,1.7451 -27.0749,5.9043 -37.2026,7.2703 -20.7713,2.8017 -42.9024,3.5457 -45.768,1.5386 -2.5533,-1.7885 -1.878,-5.293 1.1375,-5.9026 1.1718,-0.237 9.5555,-0.6687 18.6305,-0.9594 20.9351,-0.6706 50.4021,-5.2904 63.7234,-9.9904 2.2527,-0.7948 4.3615,-1.1794 4.6862,-0.8547 0.3247,0.3247 0.6248,-0.4971 0.6669,-1.8262 0.042,-1.3292 0.2561,-3.3167 0.4756,-4.4167 0.7623,-3.8197 0.8756,-31.0171 0.1417,-34 l -0.7381,-3 -11.7279,5.6521 c -15.3505,7.398 -37.2633,14.7828 -67.7278,22.8249 -1.65,0.4356 -12.675,3.3437 -24.5,6.4625 -22.4505,5.9213 -46.0219,13.5557 -59.291,19.2036 -13.2001,5.6185 -23.709,10.647 -23.709,11.3448 0,0.6683 -11.8916,17.401 -17.5,24.6243 -1.65,2.1251 -8.3741,10.8442 -14.9424,19.3758 -6.5683,8.5316 -17.8963,22.262 -25.1732,30.512 -22.0172,24.9612 -37.5495,39.204 -65.3844,59.9561 -10.175,7.5859 -19.625,14.8028 -21,16.0375 -3.6819,3.3062 -17.3432,12.3999 -26.5,17.6397 -10.8444,6.2055 -22.2448,11.2209 -34.4998,15.1776 l -10.2311,3.3033 4.3655,1.369 c 2.4009,0.7529 5.1886,1.2553 6.1947,1.1165 1.0062,-0.1387 3.2562,0.4022 5,1.202 1.7439,0.7999 6.9957,2.9001 11.6707,4.6672 4.675,1.7671 9.85,3.807 11.5,4.5331 1.65,0.7261 6.15,2.5089 10,3.9617 3.85,1.4529 7.9,3.0432 9,3.534 3.2723,1.4603 27.4495,9.7062 35,11.9372 19.2544,5.6892 60.2091,13.5031 75.5,14.4049 10.219,0.6027 33.441,-0.4406 42.9572,-1.9299 z m -207.8929,-54.928 c 16.2386,-4.5656 34.1778,-13.1056 49.9357,-23.7717 6.5417,-4.4278 22.5863,-16.2753 24,-17.7218 0.275,-0.2813 6.8,-5.2208 14.5,-10.9766 23.1146,-17.2783 47.6503,-40.5095 65.5,-62.0175 2.475,-2.9823 5.8708,-7.0135 7.5462,-8.9583 3.9727,-4.6114 11.1026,-13.8155 26.182,-33.7986 8.9796,-11.8998 12.2718,-17.0225 12.2718,-19.095 0,-1.5629 0.8969,-3.6441 2.0009,-4.6432 1.7052,-1.5432 15.4648,-24.0133 28.3623,-46.3169 5.2386,-9.0591 13.8173,-27.0585 18.4364,-38.6823 3.5156,-8.8469 5.871,-15.8271 15.6906,-46.49999 9.4573,-29.5411 18.35,-70.0097 21.5348,-98 1.7475,-15.3582 1.5505,-13.0894 3.9058,-45 0.4262,-5.775 0.786,-22.425 0.7996,-37 0.024,-25.929 -1.4705,-44.8508 -4.6463,-58.8243 -3.004,-13.2172 -8.6107,-35.6635 -10.7847,-43.1757 -1.3529,-4.675 -3.0682,-10.75 -3.8117,-13.5 -4.1106,-15.2042 -20.8507,-61.9912 -27.6199,-77.1951 -1.0273,-2.3074 -1.8678,-4.4737 -1.8678,-4.8141 0,-0.3404 -1.1755,-3.1776 -2.6122,-6.3049 -2.3404,-5.0943 -9.8326,-22.1807 -15.6477,-35.6859 -1.1842,-2.75 -7.8884,-16.475 -14.8984,-30.5 -18.8713,-37.75598 -24.4617,-51.21531 -38.0048,-91.5 -5.7831,-17.20228 -16.3647,-58.80784 -19.4562,-76.5 -0.2403,-1.375 -1.7616,-9.025 -3.3808,-17 -2.8249,-13.91392 -7.2892,-39.11649 -8.414,-47.5 -1.8717,-13.95088 -3.361,-43.05827 -2.2593,-44.15989 0.3468,-0.34681 -0.8893,-2.70271 -2.747,-5.23534 -4.7969,-6.54003 -9.5796,-15.54488 -9.5796,-18.03649 0,-1.16716 2.6107,-5.5975 5.8016,-9.8452 3.1909,-4.24769 6.5506,-8.84808 7.4659,-10.22308 0.9154,-1.375 2.6297,-3.75468 3.8097,-5.28819 l 2.1452,-2.78818 -5.1061,1.94017 c -11.5029,4.37075 -19.7304,10.92222 -29.5186,23.5052 l -6.3251,8.131 -0.7196,11.5 c -0.3959,6.325 -0.9159,12.85 -1.1556,14.5 -1.5424,10.61504 0.01,76.1425 2.1868,92.5 3.895,29.22545 11.152,58.01156 19.916,79 2.4114,5.775 6.3914,15.45 8.8445,21.5 8.4326,20.79762 11.9327,28.70026 21.7524,49.11312 4.4216,9.1914 4.7914,11.38688 1.9179,11.38688 -1.5694,0 -3.4541,-3.05935 -9,-14.60894 -3.8583,-8.03492 -7.015,-14.77158 -7.015,-14.97036 0,-0.19879 -1.0828,-2.73727 -2.4062,-5.64106 -5.8665,-12.87245 -20.2047,-48.25513 -23.6169,-58.27964 -2.0592,-6.05 -5.1863,-16.625 -6.949,-23.5 -1.7627,-6.875 -3.2776,-12.78263 -3.3664,-13.12807 -0.3498,-1.36043 -23.5876,25.81694 -43.8123,51.23979 -11.8024,14.83589 -14.8917,18.62458 -19.4412,23.84219 -1.7006,1.95035 -3.9506,4.61719 -5,5.92631 -1.0494,1.30912 -3.483,4.04974 -5.408,6.09027 -1.925,2.04053 -8,8.54303 -13.5,14.45001 -5.5,5.90698 -10.1042,10.84552 -10.2315,10.97454 -0.1273,0.12901 0.6335,2.60084 1.6906,5.49295 3.1612,8.64877 -0.087,11.61176 -3.9591,3.61201 -2.0576,-4.25038 -3.4116,-5.4649 -4.1667,-3.73733 -0.7329,1.67699 -23.8615,21.23583 -31.8333,26.9201 -12.8152,9.13778 -24.0914,16.31723 -25.6283,16.31723 -3.545,0 -0.5608,-3.25262 7.8783,-8.58695 5.0875,-3.21578 9.7,-6.19353 10.25,-6.61722 13.3334,-10.27141 21.4815,-16.69374 23.4121,-18.45327 1.3266,-1.20914 5.461,-4.81836 9.1874,-8.0205 3.7265,-3.20213 6.8036,-6.34598 6.838,-6.98633 0.034,-0.64034 -2.1224,-7.16534 -4.7928,-14.5 -2.6704,-7.33465 -6.9814,-19.74435 -9.58,-27.57711 -3.8525,-11.61219 -4.9663,-14.0122 -6.0332,-13 -0.7196,0.68276 -2.371,2.09762 -3.6699,3.14412 -1.2989,1.04651 -4.3879,3.74651 -6.8646,6 -4.9262,4.48235 -9.8777,8.60588 -20.3486,16.94576 -6.6847,5.32427 -11.6484,7.55506 -11.6484,5.23507 0,-1.17239 3.4957,-4.58357 4.6971,-4.58357 1.7943,0 37.3029,-30.91533 37.3029,-32.47756 0,-1.38214 -6.8022,-23.65799 -7.4098,-24.26558 -0.1826,-0.18263 -7.3046,7.44736 -15.8267,16.95554 -24.8713,27.74938 -38.6821,40.30183 -55.0262,50.01262 l -6.7628,4.01804 5.457,5.62847 c 11.7514,12.12055 24.6316,31.97702 35.8591,55.28133 13.9853,29.02834 16.2127,35.84714 11.7094,35.84714 -1.1,0 -2,-0.4299 -2,-0.9553 0,-1.7828 -9.1097,-22.48614 -15.6042,-35.46326 -11.641,-23.26064 -21.6568,-38.46033 -33.8855,-51.4234 l -6.5519,-6.94532 -7.075,2.39364 c -3.8912,1.3165 -7.5046,2.39364 -8.0298,2.39364 -0.5251,0 -4.6445,1.45553 -9.1542,3.23451 -8.0184,3.16309 -12.0796,5.23332 -33.9134,17.28766 l -10.7141,5.91515 -1.0359,4.83056 c -1.6001,7.46109 -1.5024,7.77255 2.214,7.0519 8.5242,-1.65295 43.711,-14.67654 60.6193,-22.43684 4.3392,-1.99153 7.1307,-1.93802 7.1307,0.1367 0,0.59533 -1.6875,1.75462 -3.75,2.57621 -2.0625,0.82159 -4.65,1.91709 -5.75,2.43445 -11.3655,5.34546 -46.5278,18.28577 -55.6502,20.48022 -8.4933,2.04309 -7.6151,0.86268 -9.2922,12.48948 -1.6054,11.12932 -4.1073,45.7836 -3.3594,46.5315 0.7333,0.7334 32.8159,-7.7881 58.7202,-15.5967 3.5301,-1.0642 7.0176,-1.9348 7.75,-1.9348 1.7037,0 1.683,-1.4123 -0.078,-5.3489 -0.7755,-1.7331 -2.8832,-7.2011 -4.6839,-12.1511 -1.8006,-4.95 -4.97,-12.28075 -7.0431,-16.29056 -3.7158,-7.18727 -4.0821,-10.59412 -1.0761,-10.00853 2.1061,0.41028 5.2585,6.21616 10.7501,19.79909 2.5572,6.325 5.2825,12.9778 6.0562,14.7839 0.7737,1.8062 1.4067,4.199 1.4067,5.3174 0,1.6337 0.4423,1.9063 2.25,1.3867 1.2375,-0.3557 2.9996,-0.8543 3.9158,-1.108 0.9163,-0.2538 1.9329,-0.029 2.2592,0.4987 0.8468,1.3702 -2.1997,4.1213 -4.5638,4.1213 -1.4258,0 -1.8524,0.4999 -1.4933,1.75 0.2765,0.9625 1.4696,5.0753 2.6513,9.1395 2.7162,9.3417 6.2893,24.8858 9.5944,41.7381 l 2.5746,13.1276 2.6559,-0.845 c 1.4607,-0.4648 10.9809,-3.4929 21.1559,-6.7292 19.739,-6.2783 38.2698,-13.8114 57.175,-23.2425 9.3795,-4.6792 11.8897,-5.5655 12.7674,-4.5079 0.8286,0.9984 0.5448,1.6627 -1.1749,2.7495 -4.2473,2.6842 -28.093,13.9028 -38.1956,17.9699 -5.5396,2.23 -10.9719,4.4594 -12.0719,4.9541 -3.2222,1.449 -34.6937,11.631 -38.25,12.3749 -1.7875,0.374 -3.25,1.0971 -3.25,1.607 0,0.51 0.6569,5.3117 1.4597,10.6706 2.0883,13.939 3.3574,28.4791 4.1318,47.337 0.5735,13.9675 0.4493,16.6276 -0.8255,17.6857 -2.8002,2.3239 -3.4836,-0.9083 -4.1822,-19.7793 -0.3767,-10.175 -0.8831,-20.075 -1.1254,-22 -0.2423,-1.925 -1.1443,-9.125 -2.0044,-16 -2.1019,-16.801 -2.2462,-17.2984 -4.8354,-16.6632 -15.5588,3.8171 -44.0266,10.3251 -49.1186,11.229 -1.65,0.2928 -7.275,1.3765 -12.5,2.4081 -8.4054,1.6596 -11.3969,2.2065 -19.5,3.5652 -25.1134,4.2109 -50.8611,6.3869 -53.5,4.5213 -2.4161,-1.708 0.5928,-3.0244 7,-3.0624 7.826,-0.047 25.6901,-1.934 38,-4.0152 3.025,-0.5114 7.075,-1.1232 9,-1.3596 2.9348,-0.3603 13.7238,-2.3926 21.5,-4.0498 5.053,-1.0769 23.3096,-4.7501 26,-5.2311 5.7619,-1.0303 33.6124,-8.1214 34.1983,-8.7073 1.4369,-1.4369 -12.2527,-61.4031 -14.582,-63.8758 -0.3839,-0.4075 -10.5796,2.139 -22.6571,5.6588 -12.0776,3.5198 -27.6935,7.9031 -34.7022,9.7408 -9.8795,2.5904 -12.7445,3.7157 -12.75,5.0079 -0.01,1.8199 -1.7858,2.8039 -3.757,2.079 -0.6875,-0.2528 -1.25,-1.0754 -1.25,-1.8279 0,-1.0024 -0.6016,-1.1426 -2.25,-0.5241 -1.9009,0.7133 -6.3127,1.6882 -21.25,4.6957 -2.033,0.4093 -12.0926,2.2059 -16.3252,2.9156 -18.3115,3.0702 -17.0811,2.6663 -18.0858,5.9377 -1.7346,5.6485 -3.8555,13.988 -6.1182,24.0573 -2.5365,11.2874 -3.5637,13.3357 -5.6444,11.255 -1.1272,-1.1272 -1.0097,-2.9599 0.7247,-11.3002 1.1386,-5.4751 2.9408,-13.2943 4.005,-17.376 1.0642,-4.0816 1.756,-7.6001 1.5373,-7.8187 -0.6596,-0.6596 -10.2469,1.4527 -26.0934,5.7491 -8.25,2.2367 -18.375,4.981 -22.5,6.0983 -4.125,1.1173 -7.9994,2.5627 -8.6098,3.212 -0.6103,0.6493 -2.3598,5.0055 -3.8877,9.6805 -1.528,4.675 -3.3715,10.3 -4.0968,12.5 -0.7253,2.2 -2.2797,7.6 -3.4543,12 -1.1745,4.4 -2.7259,8.6157 -3.4475,9.3683 -1.4282,1.4895 -3.5039,0.761 -3.5039,-1.2297 0,-1.7318 6.2088,-23.4882 9.4448,-33.0957 1.4741,-4.3765 2.462,-8.7915 2.1953,-9.8112 -0.2747,-1.0505 0.1316,-2.0906 0.9375,-2.3999 0.7823,-0.3002 1.4224,-0.9847 1.4224,-1.5212 0,-0.5364 1.35,-4.0512 3,-7.8106 3.9123,-8.9139 3.871,-9.3939 -0.75,-8.7014 -15.4194,2.3106 -25.8973,3.649 -32.8098,4.1908 -4.4329,0.3475 -8.9329,0.7951 -10,0.9947 -1.0671,0.1996 -2.1964,0.3973 -2.5095,0.4394 -0.3131,0.042 -2.0455,3.564 -3.8499,7.8265 -1.8043,4.2625 -3.6766,8.65 -4.1606,9.75 -2.0698,4.7041 -12.2003,35.758 -17.4751,53.5682 -0.4115,1.3894 2.016,1.5737 21.2952,1.6163 11.9678,0.026 25.9915,-0.2293 31.1636,-0.5682 6.2832,-0.4118 9.9105,-0.2452 10.9302,0.5021 4.118,3.0173 -3.7815,3.7013 -43.4264,3.7602 l -21.0922,0.031 -1.1055,5.545 c -0.608,3.0498 -1.6343,9.2817 -2.2806,13.8486 -1.0754,7.5991 -1.3555,8.2777 -3.3023,8 -1.86,-0.2654 -2.0916,-0.8687 -1.8448,-4.8035 0.1553,-2.475 0.9428,-8.4377 1.75,-13.2504 1.8128,-10.8077 1.8263,-10.311 -0.2823,-10.3699 -3.3175,-0.093 -17.7669,-1.5148 -24.75,-2.4358 -3.85,-0.5079 -9.5069,-1.2087 -12.571,-1.5574 l -5.571,-0.634 -6.1486,25.3738 c -6.4191,26.4897 -10.6004,44.8074 -11.652,51.0464 l -0.619,3.6727 5.2808,1.0626 c 2.9044,0.5844 8.6558,1.5403 12.7808,2.1242 23.3534,3.306 36.1078,4.4016 64,5.4979 8.525,0.335 17.6813,0.7256 20.3473,0.8679 4.9698,0.2652 5.2618,0.052 6.0219,-4.398 1.6545,-9.6863 1.8289,-10.1137 4.0022,-9.8032 2.2698,0.3243 2.2822,0.4168 1.2077,9.0163 l -0.6759,5.4101 6.2984,0.076 c 22.7731,0.2734 21.9652,0.1968 21.6071,2.0512 -0.3045,1.5765 -1.7495,1.7368 -14.5733,1.617 l -14.2354,-0.133 -0.015,3.133 c -0.02,4.0074 -1.3476,6.0915 -3.3838,5.3101 -1.1015,-0.4227 -1.6009,-1.8718 -1.6009,-4.6457 v -4.0314 l -8.75,-0.08 c -8.9247,-0.082 -13.716,-0.2899 -32.25,-1.4026 -13.7572,-0.826 -32.9905,-2.4793 -35,-3.0087 -0.275,-0.072 -3.875,-0.4905 -8,-0.9291 -4.125,-0.4386 -11.0692,-1.4168 -15.4315,-2.1738 -4.3623,-0.757 -8.1277,-1.1802 -8.3675,-0.9404 -0.2397,0.2398 -1.2528,5.0706 -2.2511,10.7352 -6.0758,34.4741 -10.3717,74.1123 -10.4355,96.2884 l -0.014,4.9893 16.5,2.7006 c 9.075,1.4854 18.525,2.9781 21,3.3171 2.475,0.339 6.9387,1.0398 9.9193,1.5574 2.9806,0.5176 5.5353,0.8252 5.677,0.6835 0.1416,-0.1417 0.5476,-3.853 0.9022,-8.2474 0.3545,-4.3943 0.8199,-9.07 1.0341,-10.3904 0.2143,-1.3203 0.6467,-5.8203 0.9611,-10 0.3143,-4.1796 0.7677,-8.7243 1.0076,-10.0993 0.24,-1.375 0.6593,-4.3 0.932,-6.5 0.2726,-2.2 0.9423,-7.6 1.4883,-12 0.5459,-4.4 1.2541,-10.475 1.5737,-13.5 0.3197,-3.025 0.7718,-6.625 1.0047,-8 0.2329,-1.375 0.7096,-4.975 1.0593,-8 0.3497,-3.025 0.8435,-5.8375 1.0973,-6.25 0.6469,-1.0514 3.1106,-0.9358 3.7991,0.1783 0.3156,0.5106 -0.7736,11.8731 -2.4204,25.25 -3.5564,28.8895 -3.6276,29.5116 -5.8879,51.4868 l -1.7655,17.1651 4.559,0.7145 c 2.5075,0.3931 5.7166,0.8632 7.1314,1.0447 1.4147,0.1816 7.9397,1.2528 14.5,2.3805 34.3175,5.8991 45.5193,7.7607 51.4277,8.5469 2.475,0.3294 5.625,0.7621 7,0.9617 1.375,0.1996 4.8207,0.6601 7.6571,1.0233 l 5.1571,0.6603 0.6463,-7.831 c 0.5898,-7.1467 4.0392,-38.936 5.1358,-47.3311 1.083,-8.2915 2.791,-18.7048 5.9868,-36.5 4.3308,-24.1157 4.0139,-22.416 7.3628,-39.5 1.5633,-7.975 3.3806,-17.875 4.0385,-22 1.7587,-11.0273 2.004,-11.7637 4.1003,-12.3119 2.4125,-0.6309 2.5077,2.28 0.4679,14.3119 -0.7926,4.675 -1.6773,10.075 -1.966,12 -0.2887,1.925 -2.1235,11.375 -4.0773,21 -5.1398,25.3205 -9.0322,48.6908 -11.9086,71.5 -2.718,21.5539 -5.0818,46.3554 -4.4751,46.9539 0.4435,0.4374 19.8071,2.2677 31.8744,3.0128 20.5631,1.2696 26.1833,1.5831 37.25,2.0778 l 11.75,0.5253 0.01,-2.7849 c 0.01,-2.5168 1.9146,-28.2891 3.6119,-48.7849 0.3644,-4.4 1.0239,-8.1416 1.4656,-8.3146 0.4417,-0.173 0.5269,-1.0344 0.1893,-1.9141 -0.4049,-1.0552 -0.2196,-1.3558 0.5447,-0.8834 0.7467,0.4615 0.9551,0.186 0.5863,-0.7752 -0.3148,-0.8202 -0.098,-2.3061 0.481,-3.302 0.9457,-1.6258 1.0659,-1.5554 1.1771,0.6893 0.3677,7.4243 -0.3379,25.6192 -1.6092,41.5 -2.1352,26.6699 -2.6154,24.1573 4.7962,25.0908 3.4375,0.433 6.55,0.8147 6.9167,0.8482 2.2774,0.2084 1.6467,1.5717 -0.75,1.6212 -3.6156,0.075 -12.7658,0.9555 -13.0682,1.258 -0.1227,0.1227 -0.4761,3.3638 -0.7853,7.2024 -0.3092,3.8387 -0.7858,9.2294 -1.0592,11.9794 -0.2733,2.75 -1.1824,12.2 -2.0202,21 -1.6337,17.1604 -1.8746,19.4411 -3.4332,32.5 -0.558,4.675 -1.2694,10.74999 -1.5811,13.49999 -0.3116,2.75 -0.7271,6.125 -0.9232,7.5 -1.52,10.6557 -3.1757,21.3447 -4.9568,32 -1.9155,11.4589 -2.2769,12.5266 -4.3395,12.8196 -2.8828,0.4094 -2.8881,0.5736 0.6767,-20.8196 3.889,-23.3385 7.1846,-50.65009 10.6789,-88.49999 0.3046,-3.3 0.7106,-7.35 0.9022,-9 0.1916,-1.65 0.6586,-7.05 1.0378,-12 l 0.6894,-9 -5.3675,-0.1138 c -10.1599,-0.2154 -36.374,-1.4518 -40.3675,-1.9039 -2.2,-0.2491 -10.2544,-0.9243 -17.8987,-1.5005 -7.6442,-0.5761 -14.1907,-1.228 -14.5477,-1.4487 -2.5879,-1.5994 -2.992,1.4202 -4.545,33.9669 -1.2971,27.1818 -1.586,33.8754 -2.5039,57.99999 -0.5441,14.3 -1.2732,30.8375 -1.6202,36.75 -0.5193,8.8464 -0.3832,10.75 0.7685,10.75 1.5247,0 17.0233,1.86 20.4953,2.4596 1.1816,0.2041 4.6394,0.6823 7.6841,1.0627 3.208,0.4008 5.7553,1.264 6.058,2.0527 0.8716,2.2713 -1.0811,2.6075 -8.6526,1.4893 -3.9808,-0.5878 -9.0378,-1.2846 -11.2378,-1.5483 -8.2037,-0.9836 -34.1075,-4.5562 -37,-5.103 -1.65,-0.312 -5.7,-0.9626 -9,-1.4459 -13.7898,-2.0197 -19.2931,-2.9505 -20.7505,-3.5097 -1.5464,-0.5934 -1.7425,0.1468 -3.1897,12.0426 -1.6715,13.7381 -3.8435,27.1616 -4.634,28.6387 -1.1641,2.175 -3.9258,1.3687 -3.9258,-1.1462 0,-0.9865 0.8677,-7.8008 1.9281,-15.143 1.0605,-7.3422 2.2223,-16.098 2.5817,-19.4574 l 0.6536,-6.1078 -9.8317,-2.1627 c -19.9209,-4.3822 -70.9796,-17.5054 -83.3317,-21.4182 l -7.5,-2.3758 -0.6573,6.5862 c -0.3616,3.6224 -1.1954,14.2362 -1.8529,23.5862 -1.3468,19.1499 -1.3726,19.4276 -4.0424,43.5 -1.0675,9.625 -2.5847,21.0952 -3.3715,25.4893 -0.7868,4.3942 -1.2357,8.1843 -0.9975,8.4224 0.6079,0.6079 15.8146,3.0775 22.4216,3.6414 3.025,0.2582 7.3,0.6718 9.5,0.9192 2.2,0.2473 8.7778,0.7433 14.6174,1.1022 l 10.6175,0.6524 0.6005,-3.3635 c 0.3303,-1.8499 0.8898,-5.6134 1.2434,-8.3634 0.3536,-2.75 0.8022,-5.8392 0.9968,-6.8649 1.0231,-5.3925 3.2264,-30.9437 3.9782,-46.1351 0.6381,-12.8933 1.6487,-16.6975 3.8507,-14.4955 2.4505,2.4505 0.2833,38.6254 -4.0311,67.2867 -0.8934,5.9351 -1.3756,11.0399 -1.0716,11.344 2.2339,2.2338 94.0694,2.6224 114.1982,0.4832 15.5064,-1.648 15.8101,-1.6785 26,-2.6159 4.4,-0.4047 13.175,-1.3666 19.5,-2.1374 13.1403,-1.6015 16.3826,-1.7876 50.1941,-2.882 l 24.6942,-0.7992 1.0039,-2.5919 c 0.5521,-1.4256 1.4434,-4.167 1.9805,-6.092 0.5372,-1.925 2.3864,-8.225 4.1094,-14 1.7229,-5.775 3.3489,-11.625 3.6133,-13 0.2644,-1.375 1.6231,-7.225 3.0193,-13 1.3963,-5.775 2.7373,-11.625 2.9801,-13 0.2428,-1.375 0.8954,-4.716 1.4502,-7.4244 1.0362,-5.0588 0.3939,-6.5227 -2.8783,-6.5603 -2.2022,-0.025 -0.7022,-2.4167 1.9013,-3.0314 3.0945,-0.7305 3.3767,-2.5682 5.894,-38.3825 0.6637,-9.4413 1.3263,-13.31829 2.4723,-14.46429 1.4209,-1.4209 1.5803,-1.2916 1.7232,1.3986 0.087,1.6304 0.1569,3.41429 0.1562,3.96429 0,2.8419 -1.4153,25.4157 -1.7505,28 -0.2141,1.65 -0.7048,6.6 -1.0906,11 -0.3858,4.4 -0.9015,8.3375 -1.146,8.75 -0.2446,0.4125 1.2694,0.771 3.3644,0.7967 2.0949,0.026 10.334,0.3335 18.309,0.6839 7.975,0.3504 19.6622,0.6668 25.9716,0.7032 l 11.4716,0.066 1.6406,-7.5 c 3.6889,-16.8629 5.5519,-32.9009 6.3887,-54.99999 0.3437,-9.075 0.8121,-20.4375 1.0409,-25.25 l 0.4161,-8.75 -8.2148,-0.017 c -13.4738,-0.028 -32.1526,-1.1661 -33.0776,-2.016 -0.4745,-0.4361 -0.5448,-1.3075 -0.1562,-1.9363 0.5101,-0.8254 5.4787,-0.9723 17.8629,-0.5283 9.4359,0.3383 18.0599,0.7949 19.1645,1.0146 4.5238,0.9 4.5415,0.7582 4.4299,-35.5898 -0.058,-18.9351 -0.046,-36.3733 0.028,-38.7515 l 0.1337,-4.3242 -11.2999,0.5448 c -27.4205,1.322 -71.5586,1.803 -72.1868,0.7865 -1.5695,-2.5396 3.1323,-2.9506 41.8869,-3.6615 17.05,-0.3128 33.341,-0.8322 36.2022,-1.1543 l 5.2021,-0.5857 -0.4319,-6.1407 c -0.2376,-3.3775 -0.6497,-13.4114 -0.9158,-22.2978 -0.3805,-12.7103 -0.2055,-16.2637 0.8205,-16.6575 3.2373,-1.2422 3.6567,0.9443 4.39,22.8841 l 0.7329,21.9304 4.5,-0.071 c 2.475,-0.039 10.4068,-0.4234 17.6263,-0.8546 9.9382,-0.5936 13.3089,-0.4886 13.8781,0.4324 1.3035,2.1092 -1.421,2.7634 -14.8957,3.577 -7.2098,0.4354 -13.8962,0.8758 -14.8587,0.9787 -0.9625,0.103 -2.773,0.2435 -4.0233,0.3122 -2.0154,0.1108 -2.2553,0.6074 -2.114,4.375 0.088,2.3375 0.2106,20.118 0.2733,39.5123 l 0.114,35.2622 4.75,-0.1923 c 8.7529,-0.3543 12.25,0.091 12.25,1.5608 0,1.9392 -1.4438,2.2374 -9.75,2.014 -3.9875,-0.1072 -7.2875,0.095 -7.3333,0.449 -0.4577,3.5373 -0.8039,10.7258 -1.3456,27.9402 -0.5595,17.77519 -1.058,24.42539 -3.0137,40.20379 -0.6989,5.6384 -2.5041,16.0215 -3.9395,22.6586 l -1.3318,6.1586 8.1069,0.7122 c 4.4589,0.3918 9.232,0.8667 10.607,1.0554 1.375,0.1887 7.5294,0.6429 13.6764,1.0094 l 11.1764,0.6663 1.013,-3.8803 c 1.1963,-4.5817 4.1753,-16.2372 4.6979,-18.3802 1.1362,-4.6595 3.923,-17.4187 6.8291,-31.2675 1.8198,-8.67209 3.5815,-16.04019 3.9149,-16.37349 0.3333,-0.3333 1.3508,-0.3203 2.261,0.029 1.6045,0.6157 1.5927,3.2521 -0.051,11.4525 -3.0948,15.43889 -6.1993,29.30829 -9.1011,40.65949 -1.9685,7.7 -3.8074,14.9468 -4.0865,16.104 -0.471,1.9529 0.02,2.1507 6.8312,2.7534 4.0363,0.3572 11.8387,0.8972 17.3387,1.2 5.5,0.3028 11.0125,0.7598 12.25,1.0156 3.5115,0.7259 2.8042,3.9437 -0.7944,3.614 -0.2994,-0.027 -4.5744,-0.2865 -9.5,-0.5756 -4.9256,-0.2891 -13.2447,-0.8141 -18.4869,-1.1667 l -9.5314,-0.641 -1.8062,6.3481 c -2.3179,8.147 -2.5607,8.8702 -8.1732,24.3482 -9.2939,25.6304 -17.2243,42.605 -21.1099,45.1849 -1.874,1.2443 -2.1493,1.1829 -2.611,-0.5828 -0.2839,-1.0856 0.157,-3.2402 0.9798,-4.7879 4.7361,-8.9094 8.399,-16.4665 10.3307,-21.3142 1.2054,-3.025 2.7469,-6.85 3.4256,-8.5 4.798,-11.6655 14.2017,-40.1639 13.4846,-40.8662 -0.2517,-0.2465 -4.9577,-0.7492 -10.4577,-1.117 -5.5,-0.3678 -14.05,-1.0768 -19,-1.5755 -14.3359,-1.4442 -12.9682,-2.0776 -15.9125,7.3693 -3.0624,9.8263 -4.8601,12.7738 -6.6901,10.9694 -1.2802,-1.2622 -1.213,-1.6133 2.7199,-14.2081 0.7605,-2.4355 1.3827,-4.7483 1.3827,-5.1395 0,-0.3913 -5.5125,-1.0446 -12.25,-1.4518 -11.4694,-0.6932 -16.1488,-0.8825 -37.75,-1.5273 l -8.5,-0.2537 -1.6448,9.5628 c -2.182,12.6862 -8.9579,39.7411 -13.3362,53.2494 -1.9354,5.9714 -3.519,10.9672 -3.519,11.1019 0,0.1347 6.4125,0.2859 14.25,0.3361 17.4086,0.1115 27.9348,0.835 29.0999,2.0001 2.0267,2.0267 -0.6453,3.069 -6.6686,2.6013 -5.7035,-0.443 -29.8195,-0.8823 -35.7346,-0.651 -2.2346,0.087 -2.9706,1.1296 -5.897,8.3498 -4.5934,11.3333 -11.8722,25.75 -13.0007,25.75 -2.2379,0 -1.8555,-2.3412 1.5003,-9.1849 4.0997,-8.3607 8.2213,-17.9832 9.5065,-22.1942 l 0.8787,-2.8792 -21.2173,0.6082 c -11.6694,0.3345 -24.8912,0.9043 -29.3816,1.2662 l -8.1644,0.658 -0.6192,3.3005 c -2.7967,14.9074 -16.0705,46.1377 -25.1717,59.2233 -2.4092,3.4639 -4.3802,6.3889 -4.38,6.5 10e-5,0.1112 6.6376,0.2242 14.75,0.2513 13.4777,0.045 24.9678,0.7148 32.7497,1.9093 9.1241,1.4004 25.5638,3.7971 29.2315,4.2616 l 4.2314,0.5358 13.2952,-13.3779 c 12.7183,-12.7975 27.1987,-30.7138 33.4428,-41.378 1.8659,-3.1867 3.7203,-5.1159 5.1134,-5.3196 3.4955,-0.511 2.705,2.5044 -2.9677,11.3196 -8.7096,13.5347 -15.3941,21.6873 -31.4957,38.4135 l -11.1491,11.5816 10.1491,2.1941 c 21.8478,4.7232 29.863,6.6971 48.8798,12.0371 l 19.7306,5.5406 3.7694,-2.8735 c 14.5343,-11.0802 51.9227,-47.9444 57.4391,-56.6339 0.4398,-0.6927 0.8065,-0.8702 0.8149,-0.3945 0.01,0.4758 1.1659,0.1111 2.5722,-0.8103 l 2.5568,-1.6753 -1.6833,3.3103 c -5.1843,10.1948 -29.4827,35.5284 -53.9354,56.2331 -6.8856,5.8302 -25.3384,18.2635 -32.816,22.1111 l -3.821,1.9661 2.821,0.2792 c 5.3158,0.5262 11.8252,3.5687 18.821,8.7969 9.3255,6.9693 17.2981,11.5596 18.0275,10.3794 0.3248,-0.5255 1.2586,-0.9555 2.0752,-0.9555 3.8803,0 30.7387,-11.4915 43.9083,-18.7863 19.7462,-10.9377 28.5591,-17.3384 41.4396,-30.0974 13.414,-13.2874 20.5033,-21.0861 31.1327,-34.2475 4.6057,-5.7029 9.5896,-11.7188 11.0755,-13.3688 3.4781,-3.8624 9.0103,-11.5 8.3298,-11.5 -0.2882,0 -7.3785,-1.7498 -15.7563,-3.8885 -8.3777,-2.1386 -22.6573,-5.3422 -31.7323,-7.119 -16.4521,-3.2211 -21.8963,-5.2893 -16.9061,-6.4224 1.3234,-0.3005 8.6117,0.7016 16.1964,2.2267 l 13.7903,2.7731 6.1915,-9.535 c 3.4053,-5.2442 6.7606,-10.6599 7.4564,-12.0349 0.6957,-1.375 2.2257,-4.075 3.4001,-6 1.1743,-1.925 4.82,-8.8186 8.1015,-15.3191 5.8119,-11.5133 7.8617,-13.9891 9.8967,-11.9541 1.6398,1.6398 -11.7507,27.8533 -23.6974,46.3906 l -6.1981,9.6174 16.0167,4.1452 c 12.5115,3.238 16.3259,3.8886 17.4294,2.9728 0.7769,-0.6448 5.0424,-6.2754 9.479,-12.5126 4.4366,-6.2371 8.3539,-11.3333 8.7051,-11.3249 1.5579,0.037 2.833,1.6287 2.5864,3.2278 -0.1479,0.9587 -1.6592,3.4985 -3.3584,5.6439 -1.6992,2.1454 -3.0895,4.3611 -3.0895,4.9236 0,0.5625 -0.3401,1.1727 -0.7558,1.3561 -0.4157,0.1833 -2.7107,2.8083 -5.1002,5.8333 l -4.3444,5.5 14.8502,4.8075 c 8.1676,2.6441 15.3002,4.9127 15.8502,5.0414 2.3267,0.5445 16.4773,6.1518 22.1948,8.7949 3.4071,1.575 7.3446,3.3009 8.75,3.8352 1.4053,0.5343 2.5552,1.4468 2.5552,2.0276 0,2.0417 -2.8453,2.113 -6.6598,0.1669 -3.7569,-1.9166 -25.3486,-10.6022 -30.3402,-12.2048 -1.375,-0.4414 -8.575,-2.656 -16,-4.9212 l -13.5,-4.1186 -2.3524,2.7856 c -3.0005,3.5531 -3.0952,3.6683 -19.1334,23.2881 -13.8799,16.9795 -36.4881,40.7413 -44.806,47.0923 -14.2992,10.9179 -45.9544,28.0875 -63.6033,34.4981 -5.0077,1.8189 -8.8527,3.3296 -8.5445,3.3571 3.4314,0.3057 24.9281,8.9354 30.8959,12.4029 l 7.7371,4.4956 7.9033,-2.8097 c 11.3279,-4.027 12.8616,-4.6725 21.8329,-9.1884 19.0764,-9.6026 44.4731,-28.7664 65.3313,-49.2976 7.2934,-7.1791 13.7057,-13.2028 14.2494,-13.3861 1.512,-0.5095 2.2676,2.4488 1.1506,4.5051 -1.0712,1.972 -17.5761,18.4504 -25.5455,25.5045 -23.3829,20.6974 -52.7675,39.1457 -73.1154,45.9034 -2.2,0.7307 -4.3631,1.6222 -4.8069,1.9812 -1.2204,0.9873 16.1646,8.2373 21.3069,8.8856 6.5057,0.8202 17.7709,-0.5706 28.0643,-3.4647 z m 125.1857,-167.154 c -2.2062,-0.8729 -1.3589,-3.3175 3.5,-10.0989 2.6125,-3.6462 7.2638,-10.4613 10.3363,-15.1445 l 5.5863,-8.5151 -13.0863,-5.3114 c -15.5066,-6.2937 -25.1108,-9.5878 -36.0464,-12.3633 -8.5536,-2.1709 -10.5699,-3.2647 -8.9693,-4.8653 0.8714,-0.8714 6.9266,0.3267 19.9294,3.9431 6.6646,1.8537 16.6118,5.4868 27.7337,10.1294 6.4535,2.694 12.0785,4.8976 12.5,4.8971 0.4215,-6e-4 2.0145,-2.1381 3.5402,-4.75 1.5256,-2.612 5.4474,-8.9093 8.7151,-13.9942 3.2677,-5.0848 7.1624,-11.3848 8.6547,-14 1.4924,-2.6151 5.7951,-10.1548 9.5616,-16.7548 8.7777,-15.3808 37.8469,-73.93929 43.6845,-87.99999 2.9076,-7.0035 10.0136,-27.9299 9.6184,-28.3251 -0.1799,-0.1799 -12.9828,-0.5062 -28.4509,-0.7251 l -28.1238,-0.398 -0.8727,2.2241 c -0.48,1.2233 -2.298,6.2741 -4.0401,11.2241 -3.6923,10.4915 -3.1521,9.1161 -10.5097,26.7594 -5.7906,13.8858 -8.9042,19.2336 -10.5911,18.1911 -1.6676,-1.0306 -0.9667,-4.2031 2.666,-12.0676 4.0809,-8.835 9.0517,-20.9838 10.9993,-26.8829 0.7263,-2.2 2.0671,-6.025 2.9796,-8.5 0.9124,-2.475 2.0321,-5.7548 2.4883,-7.2884 l 0.8293,-2.7884 -11.1912,0.5566 c -6.1552,0.3061 -12.9912,0.7613 -15.1912,1.0115 -2.2,0.2503 -12.1,0.7161 -22,1.0352 -25.0034,0.806 -25.4544,0.9312 -25.4847,7.0743 -0.01,1.7054 -0.4267,4.4054 -0.9296,6 -0.5028,1.5945 -2.3258,8.9742 -4.0511,16.3992 -4.284,18.4376 -13.4062,47.65869 -17.7076,56.72329 -0.9464,1.9944 -2.293,3.2767 -3.4409,3.2767 -2.3753,0 -2.3753,-1.6843 0,-7.713 6.1147,-15.51909 16.5127,-50.57619 18.771,-63.28699 0.2443,-1.375 1.0964,-5.3404 1.8936,-8.8121 0.7971,-3.4716 1.4493,-6.7063 1.4493,-7.1881 0,-0.4819 -5.0625,-0.6712 -11.25,-0.4208 -21.347,0.864 -76.2819,1.0985 -87.75,0.3745 -6.325,-0.3992 -18.1375,-1.0489 -26.25,-1.4437 -13.8889,-0.6758 -14.75,-0.8355 -14.75,-2.7352 0,-1.9047 0.4433,-1.9836 7.9227,-1.4111 20.032,1.5333 41.2235,2.1306 73.0773,2.0598 43.3187,-0.096 59.9716,-0.6295 60.0739,-1.9233 0.043,-0.55 0.227,-1.675 0.4077,-2.5 0.8691,-3.9676 4.6716,-27.8148 6.139,-38.5 2.2252,-16.2032 2.7628,-68.2949 0.8721,-84.5 -1.8794,-16.1083 -3.2797,-24.187 -4.3839,-25.2912 -0.5207,-0.5207 -2.8788,-0.9201 -5.2401,-0.8876 -2.8435,0.039 -3.8157,-0.2359 -2.8788,-0.815 0.778,-0.4808 1.7425,-0.6716 2.1433,-0.4239 0.4007,0.2477 0.9991,0.013 1.3297,-0.5223 0.3306,-0.535 1.2579,-0.7206 2.0607,-0.4126 2.4538,0.9416 2.7465,-2.2038 1.0115,-10.8694 -3.5758,-17.8594 -15.1721,-55.778 -17.0581,-55.778 -0.6371,0 -5.3926,0.8692 -10.5677,1.9314 -5.1751,1.0623 -10.9843,2.1695 -12.9093,2.4603 -4.546,0.6869 -11.097,1.7572 -13,2.1241 -0.825,0.159 -3.975,0.597 -7,0.9733 -3.025,0.3763 -6.625,0.8614 -8,1.078 -1.375,0.2166 -6.1,0.8968 -10.5,1.5114 -4.4,0.6147 -8.9,1.2651 -10,1.4453 -1.1,0.1801 -2.5625,0.361 -3.25,0.4019 -1.7328,0.103 -1.5686,2.9784 0.7103,12.4376 2.3221,9.6385 4.6043,21.9839 6.1721,33.3867 l 1.1342,8.25 9.6167,0.056 c 10.1794,0.059 29.0895,0.5086 32.8667,0.7817 1.3066,0.095 2.25,0.8196 2.25,1.7292 0,1.3804 -2.5565,1.5402 -21.5115,1.3449 -11.8314,-0.1219 -21.745,0.012 -22.0303,0.297 -0.2853,0.2853 -0.078,3.6176 0.4601,7.4052 1.9431,13.6715 3.5206,36.6608 3.559,51.8665 0.019,7.6946 -0.2227,9.0282 -1.6916,9.3164 -2.2543,0.4424 -2.5416,-1.1941 -3.2995,-18.7965 -0.3434,-7.975 -0.7602,-15.85 -0.9262,-17.5 -0.166,-1.65 -0.6197,-6.825 -1.0082,-11.5 -0.8109,-9.7585 -2.2672,-21.0488 -2.7813,-21.5629 -0.1927,-0.1926 -4.1574,-0.4279 -8.8104,-0.5228 -8.576,-0.1748 -12.9601,-1.1161 -12.9601,-2.7826 0,-1.5906 2.2306,-1.8151 12.0727,-1.2152 l 9.5727,0.5835 -1.2942,-8 c -0.7118,-4.4 -2.7011,-14.975 -4.4206,-23.5 -1.7196,-8.525 -3.3585,-16.7375 -3.642,-18.25 -0.5858,-3.1244 -1.5022,-3.2766 -10.68,-1.7736 -3.2402,0.5306 -6.4823,0.634 -7.2046,0.2298 -2.5492,-1.4266 0.309,-3.3164 5.6884,-3.7612 7.6539,-0.6328 9.9076,-1.2834 9.9076,-2.86 0,-1.8143 -6.426,-24.4471 -10.5293,-37.085 -2.3089,-7.1113 -2.9488,-10.3684 -2.2154,-11.2752 1.8076,-2.2349 4.1985,1.1731 7.0283,10.0181 3.8689,12.0932 7.4224,24.3205 9.3303,32.1046 l 1.6782,6.8475 4.604,-0.5532 c 4.0231,-0.4835 27.0805,-3.5955 38.6039,-5.2102 9.0297,-1.2654 21.404,-3.5919 27.7105,-5.2099 l 6.7104,-1.7217 -2.6122,-6 c -11.8731,-27.2717 -21.6103,-47.1258 -40.4607,-82.5 -3.0774,-5.775 -5.3896,-11.0625 -5.1383,-11.75 1.8919,-5.1751 7.2072,3.4055 29.141,47.0427 10.3418,20.5749 23.1493,49.1304 23.1493,51.6134 0,0.6568 0.9445,0.9201 2.25,0.6272 1.2375,-0.2776 11.7,-2.7795 23.25,-5.5597 20.5951,-4.9575 25.4849,-6.337 48.3147,-13.6298 8.442,-2.6967 11.603,-3.3261 12.45,-2.4791 0.7126,0.7126 0.7816,1.4657 0.1853,2.0228 -2.2286,2.0819 -43.601,14.1257 -68.599,19.9697 l -15.649,3.6584 2.9367,8.9922 c 6.4912,19.8763 10.9009,36.1595 13.4907,49.815 l 1.6732,8.8228 6.5987,-0.543 c 3.6293,-0.2987 14.6987,-0.8118 24.5987,-1.1404 9.9,-0.3285 19.8,-0.7752 22,-0.9925 2.2,-0.2173 8.5,-0.6597 14,-0.9831 5.5,-0.3234 10.9,-0.7558 12,-0.9608 1.1,-0.205 2.5829,-0.4072 3.2953,-0.4493 1.5792,-0.093 1.2989,-1.935 -3.5628,-23.4087 -2.9836,-13.1781 -3.3511,-15.9765 -2.1921,-16.6928 3.1065,-1.9199 4.146,0.955 9.0491,25.025 1.0644,5.225 2.1772,10.5684 2.4731,11.8742 0.5134,2.2663 0.8195,2.3481 6.7376,1.8005 3.4099,-0.3155 11.7536,-1.5302 18.5415,-2.6992 6.7879,-1.169 12.581,-1.8861 12.8735,-1.5936 1.5044,1.5044 -1.1128,3.3001 -6.4019,4.3925 -5.2832,1.0912 -27.2491,4.2256 -29.6133,4.2256 -0.516,0 -0.6671,1.8845 -0.3408,4.25 0.3224,2.3375 0.8386,6.725 1.147,9.75 0.3084,3.025 0.9668,9.325 1.4631,14 1.2762,12.0219 0.483,42.4136 -1.4604,55.954 -2.9307,20.4202 -7.9436,42.7545 -14.008,62.4108 -0.8255,2.6757 -1.5009,5.1938 -1.5009,5.5959 0,0.402 6.6375,0.7497 14.75,0.7726 52.4157,0.148 60.2555,0.6027 56.25,3.2629 -0.825,0.5479 -2.175,0.9461 -3,0.8848 -5.5373,-0.411 -8,0.1995 -8,1.9833 0,2.659 -5.9533,19.8898 -10.9303,31.6357 -6.7607,15.9557 -32.9257,68.50719 -43.0721,86.50899 -9.2933,16.488 -11.0442,19.3911 -22.7437,37.7106 -3.4354,5.3792 -6.2304,10.0054 -6.2112,10.2804 0.019,0.275 2.2789,1.5926 5.0215,2.9281 5.8767,2.8615 7.715,4.6927 6.2158,6.1919 -0.7136,0.7136 -2.7292,0.079 -6.4885,-2.0424 -2.9993,-1.6927 -5.8994,-3.0776 -6.4447,-3.0776 -0.5454,0 -2.1113,1.6875 -3.4799,3.75 -14.0614,21.1908 -19.6713,28.3476 -21.6169,27.5779 z m 1.25,-204.86449 c 8.25,-0.3234 20.5778,-1.01 27.3952,-1.5257 6.8174,-0.5157 13.016,-0.9377 13.7748,-0.9377 1.6303,0 2.6373,-2.4395 5.9858,-14.5 14.427,-51.9637 17.1682,-83.6261 11.1988,-129.3534 l -1.0905,-8.3533 -5.6321,0.642 c -3.0976,0.3531 -9.457,0.8595 -14.132,1.1252 -4.675,0.2657 -10.2061,0.6755 -12.2912,0.9107 -2.0852,0.2351 -13.3352,0.7298 -25,1.0993 -11.6649,0.3695 -22.3338,0.7368 -23.7088,0.8164 -2.9092,0.1682 -2.909,-0.8766 0,23.1131 1.4745,12.1747 1.755,20.6506 1.4894,45 -0.18,16.5 -0.7783,32.925 -1.3296,36.5 -0.5512,3.575 -1.2482,9.0792 -1.5489,12.2315 -0.5696,5.972 -4.1342,28.0356 -5.2433,32.4548 l -0.6384,2.5437 7.8872,-0.5893 c 4.338,-0.324 14.6373,-0.8538 22.8873,-1.1773 z m -133.0004,120.53589 c -0.7412,-1.1993 0.1504,-7.4683 1.3978,-9.8283 2.2817,-4.317 10.1937,-43.75409 12.672,-63.16279 1.472,-11.5281 2.5581,-14.6655 4.6329,-13.3832 2.6669,1.6483 -2.4833,38.71189 -8.8759,63.87499 -0.8384,3.3 -1.6918,6.675 -1.8965,7.5 -0.2047,0.825 -0.8665,3.3 -1.4706,5.5 -0.6042,2.2 -1.3472,5.0261 -1.6512,6.2803 -0.6383,2.6327 -3.8444,4.779 -4.8085,3.219 z M 1273.1668,839.02371 c 1.097,-16.9519 2.3786,-30.6567 4.1474,-44.3503 1.0108,-7.8254 7.1716,-43.7324 7.9782,-46.5 0.2405,-0.825 0.7157,-3.3 1.056,-5.5 0.3403,-2.2 1.0337,-4.5055 1.5408,-5.1233 0.5071,-0.6177 0.6128,-1.9291 0.2348,-2.914 -0.4718,-1.2295 -0.3205,-1.5642 0.4828,-1.0677 0.7091,0.4382 1.1699,0.086 1.1699,-0.895 0,-0.8899 0.4168,-1.3604 0.9263,-1.0455 0.5397,0.3335 0.5778,1.7876 0.091,3.4837 -0.4592,1.6012 -0.647,3.0992 -0.4173,3.3288 0.2296,0.2297 -0.281,4.1 -1.1348,8.6007 -0.8537,4.5006 -1.2812,8.6216 -0.9499,9.1577 0.3313,0.536 0.077,0.9746 -0.5661,0.9746 -0.7419,0 -1.0223,1.2519 -0.768,3.4299 0.2202,1.8864 0.095,3.241 -0.2786,3.0102 -0.3734,-0.2308 -1.0279,1.7132 -1.4544,4.3201 -0.4265,2.6069 -0.8982,5.4148 -1.0481,6.2398 -0.15,0.825 -0.6,3.525 -1,6 -0.4001,2.475 -0.8246,4.95 -0.9434,5.5 -0.9344,4.3245 -2.4837,16.5638 -3.0381,24 -0.3691,4.95 -0.8426,9.2998 -1.0522,9.6662 -0.3567,0.6233 -1.438,16.4104 -1.7342,25.3206 -0.1016,3.0531 -0.5751,4.0718 -2.0225,4.3502 -1.7888,0.3441 -1.854,-0.1896 -1.22,-9.9867 z m 473.5926,-30.5307 c -0.016,-1.6766 -1.1905,-13.747 -2.5124,-25.8196 -3.497,-31.9383 -11.2236,-65.3303 -23.3704,-101 -7.0961,-20.8382 -18.2833,-50.5852 -22.3805,-59.5101 -2.6371,-5.7445 -10.3379,-24.211 -11.7992,-28.2945 -1.1747,-3.2826 -1.1597,-3.9294 0.1092,-4.7139 2.1354,-1.3202 3.1891,0.207 7.9473,11.5185 2.3135,5.5 4.801,11.35 5.5276,13 3.4235,7.774 6.8478,16.171 12.0299,29.5 3.1007,7.975 6.0376,15.4 6.5266,16.5 1.1622,2.6145 12.9779,38.1116 13.9802,42 0.4253,1.65 1.7505,6.6 2.9448,11 5.7622,21.2286 8.0746,32.6305 11.9657,59 1.9467,13.1932 3.1872,25.3438 3.42,33.5 0.1128,3.9517 -0.1457,4.5389 -2.1215,4.8196 -1.6215,0.2302 -2.2548,-0.1887 -2.2673,-1.5 z m -412.8395,-26.1248 c -2.8758,-2.0026 1.6129,-2.697 18.3568,-2.8399 9.35,-0.08 25.8786,-0.3886 36.7303,-0.6863 19.1237,-0.5247 22.6016,-0.1005 20.055,2.4461 -1.2789,1.2789 -73.3685,2.3151 -75.1421,1.0801 z m -116.6221,-56.5557 c -1.8215,-1.332 -1.8114,-1.4134 0.3193,-2.5537 1.2105,-0.6478 2.5973,-0.933 3.0816,-0.6336 1.2575,0.7772 88.7605,0.714 112.4299,-0.081 19.1451,-0.6431 19.8388,-0.5993 19.4869,1.2313 -0.4697,2.4426 0.5277,2.4026 -73.8874,2.9639 -49.4918,0.3733 -59.8664,0.2168 -61.4303,-0.9267 z m 420.5561,-88.8891 c -3.1477,-8.11 -5.4972,-13.7746 -7.5432,-18.1863 -1.2915,-2.785 -5.3624,-11.8137 -9.0463,-20.0637 -3.6838,-8.25 -9.2576,-20.4382 -12.386,-27.085 l -5.6881,-12.08497 -5.9568,3.61539 c -10.9802,6.66418 -19.2685,11.05458 -20.8693,11.05458 -2.5775,0 -1.8139,-2.5766 1.1625,-3.9226 1.5125,-0.684 7.5855,-4.1861 13.4955,-7.78235 l 10.7456,-6.53866 -1.8995,-3.6282 c -4.8391,-9.24323 -6.0221,-12.50705 -4.9856,-13.75589 1.7605,-2.12135 3.3034,-0.61296 6.8632,6.70984 1.8829,3.87338 3.6816,7.20205 3.9971,7.39704 1.0063,0.62192 16.3264,-11.24702 26.1113,-20.22918 5.8794,-5.39704 10.6257,-5.97688 6.1391,-0.75 -2.3528,2.74104 -15.7308,14.2275 -21.5465,18.5 -9.9278,7.2935 -9.3325,5.28952 -4.6044,15.5003 8.0497,17.3841 9.9342,21.5536 9.9342,21.9798 0,0.2366 1.2992,3.2628 2.887,6.725 1.5879,3.4622 3.5727,7.8699 4.4107,9.7949 0.8381,1.925 3.2014,7.1 5.2518,11.5 5.2862,11.3435 8.6342,20.5789 8.0305,22.1521 -0.814,2.1213 -3.5414,1.575 -4.5028,-0.9021 z M 775.77668,1278.1427 c 15.3945,-2.2359 33.8882,-8.0645 77.1964,-24.3299 13.8579,-5.2046 32.1854,-29.4776 41.256,-54.6394 4.6435,-12.881 8.82,-34.7472 12.0331,-63 0.344,-3.025 1.0242,-7.75 1.5116,-10.5 0.4873,-2.75 1.1311,-7.25 1.4305,-10 0.6402,-5.8804 2.3947,-20.2986 3.1637,-26 1.1332,-8.4011 1.4501,-10.5439 4.4369,-30 1.6886,-11 3.7195,-24.5 4.5129,-30 0.7935,-5.5 1.6504,-11.125 1.9043,-12.5 0.412,-2.2318 1.6676,-10.459 7.1531,-46.86919 0.8593,-5.7031 1.7451,-11.3189 1.9687,-12.4796 0.4606,-2.392 3.3073,-21.9202 6.436,-44.1512 1.1611,-8.25 2.341,-16.35 2.622,-18 0.2811,-1.65 0.7154,-4.575 0.9651,-6.5 4.6486,-35.8291 8.4766,-61.3172 12.0567,-80.2784 1.4744,-7.809 1.4911,-8.9134 0.151,-10 -0.8286,-0.6719 -2.9645,-5.7044 -4.7464,-11.1834 -7.7794,-23.9202 -17.7942,-37.8487 -37.7404,-52.4892 -22.8556,-16.7759 -62.4059,-31.8981 -90.3432,-34.5431 -7.8349,-0.7417 -9.2488,-1.4834 -8.8055,-4.619 0.3289,-2.3259 0.5676,-2.3834 9.3375,-2.2519 9.4915,0.1425 20.5315,2.0862 31.4382,5.5352 12.4197,3.9274 33.7622,12.7608 43.6921,18.0836 l 9.9491,5.3331 2.5685,-3.6076 c 3.6234,-5.0894 15.1491,-13.4437 23.0207,-16.6864 3.6678,-1.5109 6.4641,-3.0782 6.214,-3.4829 -1.2918,-2.0902 -28.8311,-16.81 -31.4498,-16.81 -0.5568,0 -2.8069,0.9154 -5.0001,2.0343 -2.7492,1.4026 -4.4958,1.7499 -5.6241,1.1185 -1.4432,-0.8076 -1.323,-1.2293 1.0173,-3.5696 1.7333,-1.7333 2.2237,-2.7981 1.4139,-3.07 -8.009,-2.6887 -14.3892,-4.5132 -15.7825,-4.5132 -2.197,0 -4.3445,-2.5645 -3.4115,-4.074 1.0532,-1.7043 8.4518,-0.4402 18.5627,3.1714 l 8.6084,3.075 11.475,-4.9961 c 6.3113,-2.7478 15.694,-6.4095 20.8505,-8.1371 5.1565,-1.7276 9.9564,-3.6232 10.6665,-4.2126 0.7101,-0.5893 1.2911,-0.8505 1.2911,-0.5803 0,0.2701 2.5875,-0.1178 5.75,-0.862 7.9235,-1.8645 9.25,-1.7688 9.25,0.6677 0,1.3805 -0.9808,2.3939 -2.9971,3.0968 l -2.9972,1.0449 8.5006,4.3375 c 4.6753,2.3856 9.806,5.267 11.4015,6.4031 3.471,2.4716 4.0922,2.5513 4.0922,0.5248 0,-0.8475 0.8701,-4.335 1.9336,-7.75 1.0635,-3.415 3.1481,-10.2591 4.6323,-15.2091 4.4567,-14.863 8.3819,-23.4488 11.02332,-24.1117 4.8421,-1.2153 5.7068,2.0893 2.3316,8.91 -1.1435,2.3109 -3.4158,8.4767 -5.04942,13.7017 -1.6336,5.225 -3.3633,10.4576 -3.8438,11.628 -1.0151,2.4729 -16.7445,66.1126 -19.9885,80.872 -1.2089,5.5 -3.0323,13.6 -4.0521,18 -3.5589,15.3553 -13.4208,67.6227 -14.5285,77 -0.3248,2.75 -0.7766,5.675 -1.0039,6.5 -0.4919,1.7856 -5.0687,34.3205 -5.8458,41.5567 -0.2987,2.7811 -1.2071,9.3061 -2.0186,14.5 -1.8134,11.6061 -1.7578,11.2332 -6.7014,44.9433 -2.2181,15.125 -4.2443,28.85 -4.5028,30.5 -0.2584,1.65 -0.8849,6.0075 -1.3921,9.6833 -0.5073,3.6758 -1.1503,7.7258 -1.4289,9 -0.2786,1.2742 -0.7214,3.8917 -0.9839,5.8167 -0.2625,1.92499 -1.5921,10.69999 -2.9546,19.49999 -1.3625,8.8 -2.8212,18.475 -3.2416,21.5 -0.4203,3.025 -0.8185,5.725 -0.8849,6 -0.1413,0.5854 -1.4803,9.4773 -1.964,13.0417 -0.1834,1.3521 -1.4908,10.3333 -2.9053,19.9583 -2.0997,14.2882 -6.7815,49.2544 -9.1717,68.5 -1.7417,14.0235 -4.7637,31.6342 -7.1179,41.479 -5.0196,20.9912 -16.4662,42.1317 -31.7572,58.6518 l -7.5259,8.1308 3.096,0.6192 c 1.7028,0.3406 6.659,0.6192 11.0137,0.6192 7.6194,0 8.1139,-0.1452 13.125,-3.8531 5.7683,-4.2683 17.6947,-16.7163 17.7295,-18.5051 0.012,-0.628 0.9113,-2.2668 1.9978,-3.6418 5.5341,-7.0034 14.1594,-29.7472 18.1996,-47.9904 1.7726,-8.0037 2.7338,-10.5695 4.0549,-10.8239 0.9523,-0.1835 2.0096,0.3911 2.3495,1.2768 1.059,2.7598 -6.8615,32.7249 -11.1115,42.0375 -0.753,1.65 -1.4297,3.3221 -1.5037,3.7158 -0.074,0.3937 -2.4002,4.8937 -5.1692,10 -5.4347,10.0223 -9.6434,15.6448 -17.0932,22.8353 l -4.7536,4.5882 11.2536,-1.2188 c 6.1895,-0.6703 17.9268,-2.0268 26.0829,-3.0145 l 14.8293,-1.7957 6.0983,-7.0552 c 6.2975,-7.2855 18.869,-23.9096 20.0815,-26.5551 0.3781,-0.825 1.8677,-3.525 3.3101,-6 4.2232,-7.246 13.3515,-25.9239 13.3515,-27.3189 0,-0.7046 0.3592,-1.7086 0.7982,-2.2311 1.3538,-1.6111 7.21112,-20.5349 9.15902,-29.5906 0.5158,-2.3977 1.6206,-7.2844 2.4551,-10.8594 2.0435,-8.7536 2.0438,-8.7522 -1.6623,-9.4746 -18.89102,-3.6822 -46.93942,-11.5922 -47.54442,-13.4081 -0.6078,-1.8241 5.1089,-0.9777 20.6651,3.0595 10.9421,2.8398 28.55112,6.8232 30.16242,6.8232 1.0589,0 2.6062,-6.9469 4.3433,-19.5 2.1484,-15.5246 2.5049,-18.5739 3.6224,-30.9857 2.6557,-29.495 4.4216,-56.4272 3.7444,-57.1045 -0.3004,-0.3003 -8.4173,-3.1913 -18.0377,-6.4243 -20.14272,-6.7691 -33.79292,-11.8574 -35.14542,-13.101 -1.2265,-1.12789 -1.6201,-3.88449 -0.5545,-3.88449 0.4557,0 3.0034,0.9659 5.6615,2.1464 2.6581,1.18049 14.5079,5.41919 26.3329,9.41939 15.07362,5.0992 21.69052,6.9236 22.13742,6.1037 0.3506,-0.6432 0.9591,-9.0445 1.3523,-18.66949 0.3932,-9.625 0.8418,-18.625 0.9969,-20 0.1551,-1.375 0.6134,-8.6875 1.0183,-16.25 0.7347,-13.7201 0.7416,-13.75 3.1834,-13.75 h 2.4471 l -0.5963,11.25 c -0.3279,6.1875 -0.8233,15.075 -1.1008,19.75 -1.4526,24.47239 -2.2903,40.47389 -2.1244,40.57879 0.2047,0.1295 20.25,5.7563 28.1861,7.9119 12.8715,3.4963 37.3578,9.8721 40.5,10.5455 1.925,0.4126 9.5107,2.1482 16.8572,3.857 7.3465,1.7087 13.9209,3.1068 14.6098,3.1068 0.8893,0 1.5964,-4.1322 2.4383,-14.25 0.6522,-7.8375 1.3785,-16.275 1.614,-18.75 0.2355,-2.475 1.1152,-14.62499 1.9548,-26.99999 0.8395,-12.375 1.7441,-25.65 2.01,-29.5 0.266,-3.85 0.753,-14.4214 1.0823,-23.492 0.5806,-15.9954 1.1526,-18.5614 3.9336,-17.6465 2.2191,0.73 -0.5184,57.8 -5.5228,115.13849 -0.5281,6.05 -0.9639,12.3644 -0.9686,14.032 l -0.01,3.0321 20.75,3.2894 c 11.4125,1.8093 21.9875,3.4888 23.5,3.7323 2.6223,0.4222 2.7567,0.2447 2.8952,-3.8215 0.08,-2.3454 0.2413,-6.0643 0.3586,-8.2643 0.1174,-2.2 0.5098,-10.975 0.872,-19.5 0.3622,-8.525 0.8656,-18.65 1.1187,-22.49999 0.253,-3.85 0.7057,-14.2 1.006,-23 0.7687,-22.5304 2.442,-55.4904 2.9805,-58.7108 0.5222,-3.1228 1.3354,-2.8807 -17.8012,-5.2999 -6.5011,-0.8219 -19.3261,-2.819 -28.5,-4.4381 -30.6929,-5.4169 -50.0775,-8.4868 -50.5577,-8.0067 -0.2617,0.2618 -0.757,4.9713 -1.1006,10.4657 -0.6502,10.3957 -1.2912,12.1759 -4.0087,11.1331 -1.4184,-0.5443 -1.5352,-1.9877 -0.9318,-11.5224 0.6415,-10.1382 0.5579,-10.9403 -1.1957,-11.4741 -1.0369,-0.3156 -8.4103,-1.5161 -16.3853,-2.6676 -7.975,-1.1516 -19,-2.9666 -24.5,-4.0334 -5.5,-1.0669 -10.1125,-1.9411 -10.25,-1.9428 -0.1375,0 -0.25,1.6016 -0.25,3.5627 0,1.9612 -0.4814,4.4653 -1.0697,5.5646 -1.7618,3.2919 -3.9303,0.4581 -3.9303,-5.1361 0,-4.0827 -0.3205,-4.8513 -2.25,-5.3951 l -2.25,-0.6341 2.2783,-1.9157 c 1.9102,-1.6062 2.3589,-3.1785 2.7775,-9.7325 1.7751,-27.7892 4.5512,-55.1228 7.3957,-72.8168 1.7394,-10.8199 4.1108,-24.9488 4.6361,-27.6226 0.5108,-2.5994 0.4284,-2.6382 -9.2861,-4.3716 -5.3908,-0.9619 -10.7015,-1.9174 -11.8015,-2.1234 -4.3608,-0.8165 -13.1658,-2.3047 -16.08012,-2.7178 l -3.0801,-0.4366 -4.747,21.136 c -8.6628,38.5716 -10.5213,47.1004 -11.1429,51.136 -0.3389,2.2 -1.2722,7.375 -2.0741,11.5 -3.5032,18.0225 -10.0802,63.3754 -11.819,81.5 -0.3166,3.3 -0.782,8.025 -1.0342,10.5 -0.2523,2.475 -0.7104,7.2 -1.0182,10.5 -0.3077,3.3 -0.7639,7.125 -1.0138,8.5 -0.2498,1.375 -1.1283,12.85 -1.9522,25.5 -2.1148,32.47189 -2.4004,37.28289 -3.1275,52.69449 -0.3554,7.5319 -0.774,15.1819 -0.9303,17 -0.1563,1.818 -0.605,10.7305 -0.9971,19.8055 -0.3922,9.075 -1.1443,17.0358 -1.6714,17.6906 -0.5271,0.6548 -1.6458,0.9267 -2.4861,0.6043 -1.3176,-0.5057 -1.4384,-2.6641 -0.8782,-15.6906 0.3573,-8.3074 0.8331,-18.0293 1.0574,-21.6043 0.6851,-10.9206 1.4353,-23.974 2.0114,-35 1.7389,-33.27669 3.2034,-52.53479 6.0456,-79.49999 2.3382,-22.1824 4.9735,-44.4983 5.9637,-50.5 0.2269,-1.375 0.8793,-5.875 1.45,-10 0.5706,-4.125 1.4657,-9.75 1.9891,-12.5 0.5233,-2.75 1.1805,-6.575 1.4603,-8.5 1.9229,-13.2295 10.5916,-55.098 17.0277,-82.2418 3.0678,-12.9381 3.1004,-13.8007 0.547,-14.4685 -2.8257,-0.7389 -2.4822,-1.926 0.8984,-3.1044 2.4591,-0.8573 3.0736,-1.8194 4.0546,-6.3479 1.3415,-6.1929 8.50972,-42.5533 9.48012,-48.0874 0.4962,-2.8301 1.137,-3.75 2.6122,-3.75 1.5142,0 1.9547,0.6903 1.9547,3.0636 0,3.2046 -4.5934,27.9515 -8.52662,45.9364 -1.2629,5.775 -2.2236,10.5743 -2.1348,10.6652 0.089,0.091 2.1864,0.4518 4.66142,0.802 2.475,0.3503 7.2,1.0852 10.5,1.6331 17.0242,2.8264 24.8347,3.8983 25.2656,3.4675 0.2627,-0.2628 1.7268,-6.4605 3.2536,-13.7728 5.6117,-26.8768 8.9509,-40.9638 14.3517,-60.545 1.0561,-3.8288 1.1342,-5.2701 0.2886,-5.3243 -0.6377,-0.041 -2.2845,-0.2577 -3.6595,-0.4818 -1.375,-0.2241 -6.9657,-1.1315 -12.4237,-2.0165 -12.0873,-1.9598 -15.3489,-3.0548 -13.7779,-4.6258 1.0226,-1.0226 9.9167,-0.2754 18.7367,1.574 1.1192,0.2347 4.5318,0.7387 7.5834,1.12 l 5.5483,0.6932 4.695,-14.1945 c 7.1486,-21.6125 7.389,-22.0714 10.5232,-20.0866 1.3958,0.884 0.7582,3.1027 -7.8498,27.3173 -1.1194,3.1488 -2.0352,6.1204 -2.0352,6.6036 0,0.9088 15.9656,3.7121 26.5,4.6529 15.9186,1.4217 18.1666,1.4506 18.1905,0.2339 0.057,-2.8992 15.7327,-51.3668 18.8285,-58.2154 2.1866,-4.8373 4.481,-10.6895 4.481,-11.4292 0,-0.3767 -3.2625,-0.5145 -7.25,-0.3061 -3.9875,0.2084 -25.025,0.6073 -46.75,0.8866 -37.7001,0.4845 -40.343,0.6433 -58,3.4842 -38.65212,6.2188 -46.96512,8.604 -104.00002,29.84 -9.075,3.3789 -20.775,7.6483 -26,9.4874 -52.685,18.5445 -76.5572,27.8278 -81.4434,31.6712 -1.3325,1.0482 -2.5653,2.9051 -2.7397,4.1265 -0.1743,1.2213 -1.4681,2.7706 -2.8751,3.4426 -3.2781,1.566 -30.743,8.4654 -46.9418,11.7923 -33.9938,6.9815 -45.797,9.3486 -49,9.8266 -1.925,0.2874 -13.3913,2.131 -25.4807,4.0971 -44.7056,7.2704 -130.6648,17.3472 -179.5193,21.0446 -25.12721,1.9017 -51.5098,4.435 -62.5,6.0014 -1.65,0.2352 -5.025,0.6985 -7.5,1.0296 -2.475,0.3312 -8.74108,1.1823 -13.92461,1.8914 -9.41307,1.2877 -9.43451,1.2856 -17.5,-1.6563 -25.77528,-9.4018 -34.40611,-11.856 -46.57539,-13.244 -3.025,-0.345 -10.675,-1.2422 -17,-1.9936 -10.4818,-1.2453 -38.91986,-1.2799 -46,-0.056 -1.375,0.2377 -10.68028,1.1948 -20.67841,2.1268 -18.13924,1.691 -18.18407,1.6902 -20.81076,-0.3759 -8.51846,-6.7006 -41.78915,-5.4334 -68.51083,2.6094 -8.83514,2.6593 -9.47792,3.0289 -9.18446,5.2814 1.59775,12.2639 -0.42437,20.386 -6.61166,26.5565 -6.36798,6.3506 -18.82598,10.0203 -30.05059,8.8518 -24.10163,-2.5089 -44.404661,-6.5731 -52.749501,-10.5592 -6.37802,-3.0466 -7.9162,-8.4814 -4.82595,-17.0514 2.56032,-7.1004 3.04428,-22.4896 0.91967,-29.2443 -2.07129,-6.5852 -7.23877,-11.9137 -13.13148,-13.5408 -3.5386,-0.977 -4.37455,-0.7211 -13.32078,4.0786 -14.85345,7.9688 -21.8652,14.0292 -29.66337,25.6384 -10.3545,15.4148 -14.0121899,30.3728 -12.1513499,49.6924 1.8771999,19.4894 7.8968299,36.8993 17.8777299,51.7057 14.19117,21.0524 29.31908,36.3605 44.02948,44.5542 l 9.36226,5.2148 0.30633,-5.7028 c 0.16848,-3.1365 0.74501,-6.2313 1.28117,-6.8773 0.65932,-0.7945 0.2637,-2.3799 -1.22236,-4.8986 -2.12462,-3.601 -2.1402,-3.8298 -0.47174,-6.9279 2.19327,-4.0727 16.22117,-12.8762 34.920161,-21.915 12.27317,-5.9326 13.74067,-6.9069 13.15987,-8.7368 -1.22475,-3.8589 2.80966,-6.622 28.02657,-19.1949 22.57638,-11.2564 26.24371,-12.1876 59.98206,-15.2297 23.32894,-2.1035 45.99577,-5.7992 58.51794,-9.5409 16.09337,-4.8089 23.8525,-6.6152 31.5,-7.3332 13.08289,-1.2282 35.62798,2.2505 58.05452,8.9578 l 12.14151,3.6312 6.90199,-4.2439 c 12.52705,-7.7027 12.20842,-7.5593 14.13283,-6.3618 0.97303,0.6054 1.90606,2.2362 2.0734,3.6239 0.2586,2.1444 -0.74949,3.2172 -6.71774,7.1491 -3.86209,2.5443 -7.3571,4.6261 -7.76669,4.6261 -0.40958,0 -1.67944,1.1723 -2.82191,2.6051 -1.8795,2.3571 -2.40659,2.5093 -5.53757,1.5994 -1.90319,-0.5531 -9.08534,-2.6592 -15.96034,-4.6801 -15.37629,-4.5201 -35.08838,-8.1516 -45.78189,-8.4342 -9.8854,-0.2613 -17.47979,1.0426 -31.71811,5.4461 -19.24886,5.9531 -39.34619,9.3421 -71,11.9728 -10.45,0.8685 -22.51223,2.4438 -26.80495,3.5007 -6.82025,1.6793 -31.61652,13.0623 -46.09419,21.1601 l -3.89913,2.181 5.98205,1.6375 c 21.5315,5.8939 33.82038,33.3137 21.05296,46.9748 -3.33532,3.5688 -14.96782,11.3834 -26.15567,17.5712 -11.32958,6.2661 -18.43292,5.2092 -24.37183,-3.6263 -3.4198,-5.0878 -11.94435,-13.5427 -17.130031,-16.9901 l -4.57921,-3.0442 -0.89781,5.1061 c -1.81441,10.3192 3.40449,27.7791 12.152731,40.6573 4.43645,6.5308 16.37619,18.2929 23.64792,23.296 5.35311,3.683 17.24869,9.3606 22.74747,10.8571 l 3.65032,0.9934 1.26323,-4.6418 c 3.33595,-12.2584 9.20849,-20.7019 12.82667,-18.4423 1.70799,1.0666 1.70387,0.9292 -0.0761,-2.5359 -2.01158,-3.9161 -1.7304,-7.474 0.81383,-10.2981 1.95715,-2.1724 10.32451,-5.1499 24.61266,-8.7584 15.91173,-4.0186 15.45011,-3.8209 16.07845,-6.8868 0.59774,-2.9167 11.37782,-14.1705 18.30649,-19.1111 8.08737,-5.7668 18.73992,-9.8237 31.37415,-11.9485 66.18763,-11.1312 100.61773,-13.4836 134.5,-9.1897 8.8,1.1152 18.15965,2.4779 20.79922,3.0283 7.02024,1.4637 6.97328,1.4783 14.38377,-4.4867 3.74936,-3.0181 7.15451,-5.4931 7.56701,-5.5 1.06499,-0.018 4.75,3.8023 4.75,4.9243 0,0.5154 -1.66971,2.5123 -3.71047,4.4377 l -3.71047,3.5006 5.24681,0.696 c 3.65439,0.4848 5.55611,1.2739 6.26587,2.6001 1.2257,2.2903 0.39294,5.4286 -1.64831,6.2119 -0.81423,0.3125 -13.08555,-1.2066 -27.2696,-3.3756 -34.2333,-5.2351 -46.90921,-6.3621 -62.67383,-5.5724 -24.37168,1.2209 -45.7928,3.6263 -77.5,8.7026 -24.27769,3.8869 -32.61733,6.1795 -40.27482,11.0718 -5.87672,3.7545 -17.72518,14.404 -17.72518,15.9314 0,0.3871 1.6875,1.2402 3.75,1.8957 14.24371,4.5273 23.27462,16.9445 23.13543,31.8107 l -0.0651,6.9561 -6.26273,5.5325 c -16.10471,14.2271 -20.83057,15.2006 -36.55758,7.531 -11.92274,-5.8143 -20.57236,-12.1816 -26.15746,-19.2554 -2.3884,-3.025 -4.58428,-5.5252 -4.87974,-5.5559 -0.29545,-0.031 -0.60878,0.8946 -0.69628,2.0561 -0.0875,1.1615 -0.85458,2.8804 -1.70464,3.8197 -3.59369,3.971 -5.89072,13.2197 -5.9777,24.0684 -0.0809,10.0899 0.0423,10.7188 3.1537,16.1006 4.25845,7.3658 17.82703,20.27979 27.42517,26.10219 20.74017,12.5813 39.80185,17.4058 63.08695,15.9671 1.5945,-0.099 2.75,-0.7518 2.75,-1.5549 0,-2.2171 4.29557,-4.4505 16.79921,-8.7346 23.97744,-8.2152 27.99143,-9.965 27.46635,-11.9729 -0.51623,-1.9741 0.42596,-3.0071 12.68425,-13.90749 8.8863,-7.9019 17.70233,-14.2259 25.05019,-17.9691 7.22135,-3.6789 28.10262,-10.3116 40.57645,-12.8887 17.31553,-3.5775 57.01941,-8.1397 70.85255,-8.1414 3.81095,-4e-4 8.31095,-0.4213 10,-0.9352 1.68905,-0.5138 5.86337,-1.6351 9.27626,-2.4917 3.41289,-0.8566 8.72143,-2.7488 11.79676,-4.2049 4.52691,-2.1434 6.03501,-2.4453 7.92095,-1.5861 4.3546,1.9841 0.95709,8.0508 -5.92297,10.5762 -2.47832,0.9097 1.19571,1.5598 18,3.1847 9.9,0.9574 18.5625,2.1818 19.25,2.7209 1.61865,1.2693 1.6095,5.1921 -0.0153,6.5405 -1.51606,1.2582 -16.803,0.1337 -39.73474,-2.9228 -22.02794,-2.936 -35.20984,-2.9094 -62,0.1255 -24.20083,2.7415 -39.35575,5.441 -53.84662,9.5914 -19.40757,5.5588 -28.93457,10.3782 -39.90175,20.1851 -3.5155,3.14359 -8.27278,7.38149 -10.57173,9.41759 -4.12052,3.6493 -4.15022,3.7231 -2.09028,5.1943 3.25847,2.3272 14.44681,17.4202 18.10715,24.4264 5.87132,11.2382 4.71108,15.9594 -6.70283,27.2751 -9.48969,9.408 -15.69176,13.0518 -25.49394,14.978 -11.99221,2.3566 -18.10012,-1.6988 -30.51659,-20.2616 -5.54342,-8.2875 -5.97499,-8.6959 -6.59169,-6.2388 -0.91891,3.6612 0.28915,15.2686 2.13302,20.4947 5.97444,16.9334 17.79478,32.8615 31.26366,42.1283 10.26466,7.0623 26.22999,13.8099 37.52218,15.8584 7.85286,1.4246 23.68185,1.407 30.18942,-0.034 14.93812,-3.3067 23.27468,-8.3013 43.5,-26.0613 11.5222,-10.1178 15.2216,-12.7211 23.3254,-16.4141 7.82056,-3.5639 16.1268,-5.5479 23.22727,-5.5479 6.49513,0 21.5102,2.8758 25.94733,4.9696 8.25655,3.8961 11.75636,4.2619 20.21711,2.1131 7.65663,-1.9445 29.596,-6.412 46.28289,-9.4245 4.675,-0.8439 15.925,-2.9744 25,-4.7344 9.075,-1.7599 18.975,-3.2503 22,-3.3119 5.16531,-0.1051 5.51581,0.04 5.75901,2.3881 0.4767,4.6 -0.067,4.8895 -13.25901,7.0646 -3.3,0.544 -12.75,2.3026 -21,3.9078 -8.25,1.6053 -23.775,4.5477 -34.5,6.5387 -31.12876,5.7788 -44.49797,9.7768 -62.12566,18.5786 -11.05749,5.5211 -26.39104,14.4891 -33.85361,19.7996 -10.84702,7.7189 -24.58439,21.4154 -19.53634,19.4783 6.34909,-2.4364 16.63066,5.8044 22.45892,18.001 4.02991,8.4332 10.05669,25.1852 10.05669,27.9534 0,1.5861 -1.0679,2.5108 -8.4512,7.3181 -3.51016,2.2855 -4.59645,2.4997 -9.73179,1.9187 -12.40896,-1.4039 -24.04031,-6.9748 -33.81509,-16.1958 -7.67326,-7.2386 -8.26244,-6.9706 -5.45564,2.4809 4.98419,16.7836 23.97244,35.7376 43.45372,43.3755 12.51218,4.9055 19.77972,6.0958 33.74113,5.526 13.4399,-0.5484 24.4169,-2.7104 36.71493,-7.2313 12.05468,-4.4314 20.87131,-9.8106 38.54394,-23.5165 9.27682,-7.1946 21.97886,-13.3182 40.82516,-19.6817 13.69005,-4.6225 16.79035,-5.3565 18.78545,-4.4475 2.3504,1.0709 3.0679,3.5927 1.6241,5.7079 -0.4041,0.592 -3.8847,2.1265 -7.7347,3.4102 -27.26887,9.0918 -37.3738,13.5996 -47.62209,21.2442 -6.55748,4.8916 -6.79161,5.2072 -5.18188,6.9859 3.34341,3.6945 15.66788,8.8908 23.385,9.8598 8.17887,1.027 13.76893,0.6196 24.77922,-1.8057 7.94145,-1.7494 10.39325,-1.2071 10.93805,2.4189 0.4711,3.1362 -2.2813,4.5762 -13.01499,6.809 l -10.01018,2.0824 11.36343,4.6583 c 6.24994,2.5621 16.98844,7.0966 23.86344,10.0766 29.7026,12.8749 50.1042,17.4896 93.2313,21.0882 8.3978,0.7007 20.2072,1.3724 26.2432,1.4928 6.0359,0.1203 11.0676,0.3119 11.1815,0.4258 0.4693,0.4692 25.3978,-1.3446 32.344,-2.3534 z m 582.21862,-28.5335 c -0.1933,-1.418 0.5894,-2.4959 2.5,-3.4431 4.5818,-2.2715 19.3238,-11.2523 19.839,-12.0859 1.1289,-1.8266 -46.3967,-14.4523 -69.0576,-18.3459 -1.65,-0.2835 -4.2628,-0.792 -5.8063,-1.13 -2.3951,-0.5245 -3.5956,0.1319 -8.1937,4.4806 -4.4766,4.2339 -8.9327,7.0885 -11.0651,7.0885 -0.2392,0 -0.4349,-0.8595 -0.4349,-1.91 0,-1.0626 2.3252,-3.9132 5.2412,-6.4255 2.8826,-2.4835 5.0201,-4.7185 4.75,-4.9666 -0.6941,-0.6376 -28.5361,-4.5515 -40.4912,-5.6922 -5.5,-0.5248 -16.1492,-0.9657 -23.665,-0.9799 l -13.665,-0.026 -12.335,12.3627 c -12.3345,12.3622 -16.2975,15.125 -17.9229,12.4951 -0.5987,-0.9687 2.35,-4.4205 10.3188,-12.0797 6.1364,-5.898 10.8736,-11.0069 10.5273,-11.3533 -0.3464,-0.3463 -4.5962,-0.1164 -9.444,0.5109 -4.8478,0.6274 -10.8392,1.3805 -13.3142,1.6737 -2.475,0.2932 -5.5835,0.7091 -6.9077,0.9242 -3.4251,0.5564 -9.9942,1.4483 -14.1251,1.9178 -6.3364,0.7201 -8.6997,1.666 -9.7117,3.8872 -1.9149,4.2028 -15.6774,19.6614 -17.5041,19.6614 -2.6577,0 -3.3084,-2.8254 -1.1299,-4.9059 2.871,-2.7418 7.6161,-8.1787 10.7734,-12.3441 3.2227,-4.2516 3.4947,-4.1551 -7.9211,-2.8116 -12.0344,1.4162 -18.0395,1.9572 -28.4738,2.5651 -16.5865,0.9663 -17.125,1.1172 -20.7088,5.802 -10.0673,13.1596 -11.458,14.6945 -13.3145,14.6945 -3.1671,0 -2.3428,-2.3814 3.5233,-10.1792 3.025,-4.0211 5.5,-7.6452 5.5,-8.0536 0,-0.4085 -3.2625,-0.5421 -7.25,-0.297 -3.9875,0.2451 -13.325,0.6942 -20.75,0.9981 -11.2349,0.4598 -13.7206,0.8444 -14.8146,2.2921 -0.723,0.9568 -4.0398,5.5103 -7.3706,10.119 l -6.0561,8.3794 6.3706,-0.6059 c 10.7295,-1.0204 27.8494,-1.6039 63.8707,-2.1766 30.5266,-0.4854 57.4131,-1.4645 81,-2.9498 4.125,-0.2597 12.675,-0.7202 19,-1.0232 15.546,-0.7448 23.9222,-1.2173 55.329,-3.1213 31.9301,-1.9356 32.8915,-1.811 50.0011,6.4817 23.2716,11.2794 29.6418,13.0608 45.6699,12.7716 6.9658,-0.1257 7.48,-0.2823 7.2186,-2.1995 z m -373.71862,-2.9008 c 11.55,-1.3488 24.92402,-2.7568 29.72002,-3.1288 l 8.7201,-0.6764 6.8889,-9.1149 c 3.7889,-5.0132 7.1351,-9.5649 7.4359,-10.1149 0.3537,-0.6465 -2.983,-0.8776 -9.4393,-0.6538 -11.4227,0.396 -18.2724,-0.457 -15.6144,-1.9445 2.2695,-1.2701 6.5572,-1.7232 18.4153,-1.9463 l 10.1264,-0.1905 5.562,-9.6325 c 9.5147,-16.4777 15.456,-31.9121 19.6829,-51.1324 1.1491,-5.225 2.5399,-11.4672 3.0907,-13.8716 0.5509,-2.4044 0.8256,-4.5477 0.6105,-4.7627 -0.4061,-0.4061 -5.2377,-0.861 -19.699,-1.8547 -4.675,-0.3212 -9.85,-0.7425 -11.5,-0.9362 -1.65,-0.1937 -6.15,-0.6631 -10,-1.0431 -3.85,-0.38 -8.9722,-1.1204 -11.3827,-1.6453 -2.4105,-0.5249 -4.5371,-0.8 -4.7257,-0.6113 -0.1887,0.1887 -1.4597,5.2665 -2.8245,11.284 -6.1666,27.189 -9.70202,37.8986 -18.13692,54.9409 -9.5911,19.3785 -19.1775,33.6853 -31.3772,46.8274 l -3.553,3.8275 3.5,-0.5838 c 1.925,-0.3211 12.95,-1.6873 24.5,-3.0361 z m 100.00002,-30.0909 c 2.2,-0.1445 4.3476,-0.3035 4.7724,-0.3534 0.9342,-0.1097 10.2855,-14.4511 14.4042,-22.0907 3.0499,-5.6572 5.5973,-7.0817 6.1204,-3.4224 0.2931,2.0511 -5.3475,12.9227 -10.9782,21.1589 l -2.8963,4.2364 7.2888,-0.544 c 14.993,-1.1191 30.3545,-2.472 32.2887,-2.8437 1.1,-0.2114 5.4773,-0.7118 9.7273,-1.1119 l 7.7274,-0.7276 2.9489,-4.6228 c 7.6281,-11.9579 16.8059,-36.5411 18.3935,-49.2676 0.5499,-4.4077 1.3563,-5.8553 3.2619,-5.8553 2.2372,0 1.8116,8.183 -0.9834,18.9116 -2.6974,10.3536 -4.9087,16.0054 -11.6844,29.8644 l -4.6088,9.4268 6.6088,-0.7074 c 3.6348,-0.389 7.2838,-0.8311 8.1088,-0.9823 8.1195,-1.4882 21.058,-3.2124 31.33,-4.1751 6.826,-0.6397 6.8323,-0.6431 10.5217,-5.739 8.2212,-11.3555 13.0435,-20.3314 19.1253,-35.599 5.3311,-13.3831 9.023,-24.7272 9.023,-27.7251 0,-0.5379 -2.5856,-0.6101 -6.25,-0.1745 -3.4375,0.4086 -10.075,1.0407 -14.75,1.4048 -4.675,0.364 -9.625,0.7973 -11,0.9628 -1.375,0.1655 -5.875,0.6302 -10,1.0327 -4.125,0.4024 -8.4,0.9033 -9.5,1.113 -9.668,1.843 -72.7025,2.5421 -103.1262,1.1437 l -15.1262,-0.6953 -2.2071,10.719 c -1.214,5.8954 -2.6951,12.5189 -3.2915,14.7189 -0.5964,2.2 -1.2215,4.725 -1.3892,5.6111 -1.7115,9.0451 -13.9443,36.8617 -20.1335,45.7821 l -1.6604,2.3932 16.9671,-0.7898 c 9.3318,-0.4344 18.767,-0.908 20.967,-1.0525 z m -648.87708,-24.4699 c -0.2658,-1.3893 -1.44685,-5.1013 -2.62454,-8.2489 -1.71702,-4.5892 -2.67195,-5.8458 -4.81983,-6.3428 -4.48491,-1.0377 -14.97577,-7.2682 -19.45124,-11.5521 l -4.22733,-4.0464 -5.3722,2.858 c -2.9547,1.5719 -6.04855,3.8775 -6.87521,5.1236 -1.3908,2.0964 -1.29279,2.5689 1.31263,6.3285 6.70825,9.68 17.14792,16.6536 29.70463,19.8424 6.52196,1.6563 7.26104,1.6694 9.94108,0.1764 2.29793,-1.2801 2.79558,-2.134 2.41201,-4.1387 z m -10.44692,-25.7242 c -2.56142,-3.5935 -4.94462,-5.604 -8.91712,-7.5225 -7.56111,-3.6517 -2.66114,2.9111 5.7411,7.6893 2.475,1.4075 4.64314,2.5645 4.81809,2.5712 0.17496,0.01 -0.56398,-1.2255 -1.64207,-2.738 z m 4.11689,-43.1336 c 2.8639,-2.136 6.55709,-4.6167 8.20709,-5.5127 1.65,-0.896 3.88295,-2.1859 4.96212,-2.8664 7.80969,-4.9247 24.22573,-13.5275 30.00951,-15.7265 2.60844,-0.9917 2.72977,-1.238 1.3097,-2.658 -3.97839,-3.9784 -22.62008,-5.5877 -33.10173,-2.8576 -7.95397,2.0718 -12.84879,4.7333 -22.44852,12.2061 l -8.26893,6.4368 2.22418,3.181 c 4.43138,6.3376 9.26576,11.6809 10.56834,11.6809 0.73213,0 3.67434,-1.7476 6.53824,-3.8836 z m 1307.70711,-19.8256 c 15.6042,-6.4023 30.2406,-11.0405 59,-18.6971 48.0747,-12.7989 55.7388,-15.0417 71.7071,-20.984 23.4408,-8.7232 41.4307,-19.8487 46.701,-28.8812 1.357,-2.3257 4.5004,-10.005 6.9854,-17.0652 4.3991,-12.4986 7.5527,-18.99859 12.2224,-25.19169 3.2045,-4.25 6.3361,-11.4732 6.3621,-14.6745 0.026,-3.1504 -1.8894,-7.7971 -3.2134,-7.7971 -0.5029,0 -4.049,2.0278 -7.8801,4.5061 -3.8312,2.4784 -9.6784,5.8755 -12.9938,7.5491 -5.8697,2.963 -6.0095,3.127 -5.3224,6.2439 1.3535,6.1393 0.6536,16.41089 -1.4408,21.14569 -1.1501,2.5998 -5.8875,8.6087 -11.1056,14.0861 -9.3604,9.8257 -13.8572,16.09 -18.0907,25.2014 -2.3118,4.9753 -4.1066,6.411 -5.3994,4.3192 -0.7165,-1.1594 2.8153,-8.6033 7.6772,-16.1809 1.9865,-3.0962 7.9073,-10.1743 13.1573,-15.7291 10.7308,-11.354 11.8492,-13.8021 11.8534,-25.94709 0,-4.018 -0.1889,-7.4969 -0.4229,-7.7309 -0.2339,-0.234 -3.6575,0.9326 -7.608,2.5924 -5.5378,2.3268 -7.6214,2.783 -9.0988,1.9922 -1.9513,-1.0442 -2.1735,-2.5237 -0.727,-4.84 0.4438,-0.7106 3.9544,-2.6993 7.8014,-4.4194 l 6.9946,-3.1276 -0.7486,-3.5805 c -1.221,-5.8395 -1.1604,-12.298 0.1578,-16.8306 1.1822,-4.0649 1.1423,-4.2507 -0.9161,-4.2653 -3.8114,-0.027 -5.185,-1.5196 -3.9312,-4.2715 0.807,-1.7712 2.1935,-2.6038 5.1135,-3.0707 3.3111,-0.5295 4.1208,-1.118 4.6661,-3.3916 0.8622,-3.595 5.7483,-13.1089 12.0472,-23.4578 2.7762,-4.5612 5.8587,-10.3181 6.8501,-12.7931 3.3663,-8.4045 1.9245,-19.1353 -3.3198,-24.7082 -2.4313,-2.5836 -2.6768,-4.2918 -0.617,-4.2918 3.7924,0 8.4897,8.1886 9.2536,16.1316 0.821,8.5357 -1.1937,14.74 -8.9865,27.6743 -8.2383,13.6735 -12.0793,21.5616 -10.7236,22.0225 0.5312,0.1806 4.685,-1.0903 9.2307,-2.8242 6.5912,-2.5142 9.1224,-4.0994 12.5001,-7.8284 9.7641,-10.7795 20.4049,-29.9875 21.7751,-39.3065 0.9138,-6.2145 -1.0203,-14.9202 -4.2263,-19.0238 -1.4375,-1.84 -5.8868,-5.6793 -9.8873,-8.5316 l -7.2735,-5.1862 -9.6344,1.1275 c -8.1688,0.9559 -9.7731,0.9081 -10.5463,-0.3139 -2.2899,-3.6191 0.4027,-5.8195 8.0574,-6.5844 7.374,-0.7369 18.1291,-5.2836 20.5205,-8.675 1.9075,-2.7052 5.6604,-14.5802 4.964,-15.707 -0.2813,-0.4552 -1.7429,-0.4976 -3.248,-0.094 -1.5051,0.4033 -5.2017,0.7076 -8.2147,0.6763 -4.3914,-0.046 -5.5466,-0.404 -5.8233,-1.8069 -0.2896,-1.4686 0.4304,-1.7561 4.4782,-1.7878 5.999,-0.047 12.6188,-0.9354 13.4529,-1.8055 0.3463,-0.3612 0.8817,-4.6051 1.1898,-9.4309 l 0.5602,-8.7743 -7.6898,0.2173 c -8.924,0.252 -12.1898,-0.5822 -12.1898,-3.1137 0,-3.113 2.1533,-3.7736 14.1291,-4.3343 7.4725,-0.3498 12.6777,-1.0867 14.5627,-2.0614 4.9312,-2.5501 12.9818,-10.4185 17.3453,-16.9528 l 4.1415,-6.2019 -0.4824,-11.2599 c -0.8998,-21.0038 5.299,-37.434 19.8035,-52.4901 12.6287,-13.109 12.7606,-12.3291 -2.2215,-13.13 -6.9473,-0.3714 -13.6136,-0.9218 -14.814,-1.223 -1.9458,-0.4884 -2.65,0.5172 -6.4958,9.2753 -10.0223,22.8239 -17.5022,46.5749 -18.5252,58.823 -0.3215,3.85 -1.0634,8.2519 -1.6485,9.7821 -0.5852,1.5301 -0.8032,3.0427 -0.4846,3.3613 0.3186,0.3186 4.4015,0.8765 9.073,1.2397 9.0584,0.7044 10.2035,1.1458 9.2718,3.5738 -0.3961,1.0323 -1.9065,1.5431 -4.5632,1.5431 -4.4708,0 -39.2613,-2.8326 -43.0399,-3.5043 -1.3465,-0.2393 -5.1715,-0.7027 -8.5,-1.0297 -3.3285,-0.3271 -8.9768,-1.0068 -12.5518,-1.5105 -9.6739,-1.3631 -10.8608,-1.2072 -13.6604,1.7945 -3.2432,3.4771 -6.0689,9.8459 -11.7633,26.5122 -9.9257,29.0507 -10.109,42.4178 -1.0608,77.3628 2.2763,8.7914 2.3542,13.8316 0.2029,13.1145 -1.4154,-0.4718 -6.5045,-20.596 -8.9605,-35.4331 l -1.1908,-7.1936 -6.0336,-0.5371 c -3.3184,-0.2954 -11.4335,-1.0087 -18.0335,-1.585 -13.2912,-1.1606 -27.3551,-3.2515 -37.7058,-5.6057 -5.3814,-1.224 -6.7942,-1.9293 -6.7942,-3.3918 0,-2.4423 2.4403,-2.8173 8.3897,-1.2895 9.8868,2.539 47.3285,7.2707 57.7083,7.2929 1.3191,0 1.7092,-1.7861 2.2345,-10.2466 0.6144,-9.8943 2.5159,-18.6291 6.8032,-31.25 5.2607,-15.4866 8.4587,-23.3415 11.0944,-27.25 1.5763,-2.3375 2.7319,-4.2834 2.5679,-4.3243 -0.4212,-0.105 -4.8359,-0.8628 -7.798,-1.3384 -1.375,-0.2209 -5.65,-0.9103 -9.5,-1.5321 -3.85,-0.6218 -12.3643,-2.2533 -18.9208,-3.6255 -13.3826,-2.8011 -12.6332,-3.055 -14.9669,5.0703 -2.8203,9.8191 -3.5114,13.1566 -5.1764,25 -1.7411,12.3846 -3.0251,15.9855 -4.6589,13.0661 -0.5112,-0.9136 -0.4001,-4.9812 0.2681,-9.8132 0.6277,-4.5391 1.3089,-9.5373 1.5138,-11.1071 0.2048,-1.5698 0.6318,-3.6713 0.9488,-4.6701 0.317,-0.9988 0.7749,-2.8644 1.0175,-4.1458 1.1393,-6.0178 1.857,-8.5556 3.5102,-12.4124 l 1.7841,-4.1623 -8.6597,-2.216 c -7.665,-1.9615 -26.7757,-7.8034 -31.6648,-9.6795 -1.6429,-0.6304 -1.7343,-0.2268 -1.0699,4.7255 2.7396,20.4193 3.3466,30.6951 3.0076,50.9148 -0.1798,10.725 -0.5647,23.1 -0.8553,27.5 -0.2906,4.4 -0.7846,12.5 -1.0978,18 -0.7251,12.7341 -2.2195,28.2978 -3.4566,36 -0.53,3.3 -1.1819,7.8 -1.4485,10 -0.6056,4.9974 -0.8554,6.4008 -4.6007,25.8479 -4.2309,21.9681 -9.1585,40.7246 -19.4538,74.04919 l -1.5129,4.8971 11.2465,-0.6616 c 10.9748,-0.6457 15.1278,-1.0788 21.2464,-2.2158 1.65,-0.3066 4.7984,-0.784 6.9965,-1.0608 2.8886,-0.3638 4.8608,-1.447 7.1144,-3.9073 3.6576,-3.99329 9.4661,-14.84329 11.75,-21.94869 2.3754,-7.3901 5.419,-23.8448 6.1502,-33.25 0.7603,-9.7789 3.2622,-8.9878 -20.8501,-6.5927 -14.4259,1.433 -16.9636,1.4711 -17.7084,0.2661 -0.513,-0.8302 -0.4592,-1.8199 0.1315,-2.415 0.5504,-0.5546 9.4192,-1.9145 19.7083,-3.022 l 18.7076,-2.0137 -0.061,-5.9863 c -0.053,-5.2346 -1.6117,-23.7895 -3.034,-36.1158 -0.3544,-3.0714 -0.091,-4.2772 1.027,-4.7063 2.0838,-0.7997 2.2832,-0.2295 3.0899,8.837 0.3914,4.3993 0.8423,8.7038 1.002,9.5656 0.6813,3.6781 1.8041,16.8798 1.8864,22.1805 0.049,3.161 0.5392,5.7467 1.0892,5.7458 1.7748,0 38.8044,-4.8992 44.9794,-5.9477 4.5418,-0.7712 6.2761,-0.7184 7.2138,0.2196 2.0401,2.0409 -0.037,3.7514 -5.313,4.3763 l -4.9691,0.5885 -1.6791,9.8396 c -2.7566,16.1543 -8.2683,26.9152 -25.4009,49.5918 -9.8746,13.07009 -11.715,16.09499 -12.7674,20.98509 -0.7363,3.4216 1.2563,9.373 4.299,12.84 7.832,8.924 7.0557,24.0085 -1.9098,37.1077 -4.7053,6.8747 -5.8426,7.9162 -7.1821,6.5767 -0.8008,-0.8008 -0.1354,-2.5542 2.4427,-6.4371 10.7774,-16.2319 11.219,-22.7585 2.4856,-36.7337 -7.2199,-11.5533 -5.8438,-16.1883 11.667,-39.29749 9.6494,-12.7345 12.9947,-17.8909 16.5746,-25.5486 2.7765,-5.9389 6.0348,-17.1512 6.7575,-23.2536 l 0.5977,-5.0464 -3.398,0.5727 c -7.5006,1.2643 -9.582,1.5814 -13.8979,2.1173 -14.7119,1.8268 -20.5388,2.6615 -20.8665,2.9892 -0.3351,0.3351 -1.2643,10.8188 -1.2822,14.4669 0,0.825 -0.6656,5.325 -1.47,10 -2.1604,12.5546 -6.8723,26.6357 -11.3684,33.9732 -3.2722,5.34019 -3.708,6.61789 -2.4897,7.29969 3.6744,2.0563 -0.164,5.7271 -5.9887,5.7271 -3.1324,0 -15.7531,9.5616 -18.8326,14.2678 -2.0774,3.1748 -2.5702,5.457 -3.1308,14.5 -0.8254,13.3119 -1.6481,21.4887 -2.2662,22.5223 -0.4923,0.8231 0.6409,0.6018 12.1618,-2.3751 4.7967,-1.2394 7.348,-1.4838 8.1906,-0.7845 2.548,2.1147 -0.1176,3.7145 -10.7105,6.428 l -10.9321,2.8004 -3.9899,6.5705 c -4.9971,8.2292 -5.98,9.4537 -8.7896,10.9504 -3.5227,1.8765 -4.207,-1.3275 -0.8479,-3.9698 2.5982,-2.0438 8.2193,-10.6367 7.4568,-11.3993 -0.2195,-0.2194 -3.7616,0.4858 -7.8715,1.567 -8.3094,2.1861 -7.7694,2.0624 -20.9611,4.8013 -6.417,1.3323 -9.8777,1.647 -10.6906,0.9724 -2.605,-2.162 0.1396,-3.6864 10.4911,-5.8269 5.8784,-1.2156 13.613,-3.0207 17.188,-4.0113 3.575,-0.9907 8.3853,-2.3088 10.6896,-2.9292 5.399,-1.4537 5.7849,-2.6832 6.7755,-21.584 0.8308,-15.8517 1.8627,-18.9713 8.3921,-25.3709 3.0502,-2.9895 4.6292,-5.1178 3.5613,-4.8001 -1.0552,0.3139 -5.2935,0.8811 -9.4185,1.2604 -4.125,0.3794 -8.175,0.8175 -9,0.9737 -0.825,0.1561 -4.6511,0.3183 -8.5024,0.3604 l -7.0024,0.076 -4.1868,11.75 c -7.712,21.6433 -13.703,34.6977 -25.5853,55.75 -4.346,7.7 -9.0416,15.7608 -10.4345,17.913 -1.393,2.1521 -3.7922,6.0491 -5.3317,8.66 l -2.7989,4.7471 5.671,-2.5209 c 3.119,-1.3865 9.496,-4.0903 14.171,-6.0084 z m 182,-263.15839 c 0,-0.4773 1.8097,-3.9935 4.0216,-7.8139 2.2118,-3.8205 4.2179,-7.966 4.4579,-9.2123 0.8633,-4.4824 1.7101,-6.2096 2.8554,-5.8235 3.2269,1.0877 -0.033,11.9377 -6.153,20.4814 -2.146,2.9957 -5.1819,4.3832 -5.1819,2.3683 z M 305.30722,1067.7023 c 3.53532,-1.7297 8.43588,-5.5164 12.62398,-9.7547 5.82906,-5.8988 6.84548,-7.4455 6.84548,-10.4165 0,-5.0683 -1.41943,-7.1913 -4.42406,-6.617 -5.35904,1.0245 -18.89383,-8.2655 -21.6156,-14.8364 -1.51525,-3.6582 -0.8451,-3.7676 -20.07867,3.2792 -8.42466,3.0866 -13.88167,5.6138 -13.88167,6.4287 0,4.2173 19.24672,32.9746 23.28495,34.791 2.86855,1.2903 11.76365,-0.1923 17.24559,-2.8743 z m 11.84171,-35.7789 c -2.31835,-3.8858 -8.69656,-11.6605 -9.96553,-12.1474 -2.47647,-0.9503 -2.73422,2.1647 -0.42349,5.118 1.86413,2.3825 9.50375,8.2794 10.72627,8.2794 0.22469,0 0.0729,-0.5625 -0.33725,-1.25 z M 1919.7767,971.46631 c 12.6339,-7.6607 12.1355,-6.9898 12.4996,-16.8301 0.2853,-7.7108 0.1457,-8.5309 -1.3406,-7.8762 -0.9124,0.402 -6.2835,2.3189 -11.9356,4.2598 l -10.2767,3.5291 -1.5798,5.4342 c -1.046,3.5983 -1.387,7.3356 -1.0094,11.0623 0.3138,3.0954 0.5866,5.7893 0.6065,5.9864 0.1127,1.1211 6.5201,-1.6144 13.036,-5.5655 z m -1700.68428,-7.4291 c 2.0641,-1.0737 11.31231,-8.5613 14.70081,-11.9023 1.27523,-1.2573 1.37061,-2.2624 0.52191,-5.5 -0.99576,-3.7986 -1.2106,-3.9649 -5.22533,-4.0431 -6.06699,-0.1184 -16.07779,-5.3903 -21.74967,-11.454 l -4.72654,-5.0531 -10.16846,2.5928 c -12.91093,3.292 -18.66846,5.4443 -18.66846,6.9787 0,0.6662 0.95102,2.2925 2.11338,3.6142 1.16236,1.3216 3.21571,3.8327 4.56301,5.58 3.65408,4.7391 12.13042,10.9194 21.80053,15.8953 8.75948,4.5073 12.93318,5.3231 16.83882,3.2915 z m 10.81207,-29.625 c -1.43377,-2.679 -4.10828,-4.7505 -9.84457,-7.6248 -4.84021,-2.4253 -8.28324,-3.304 -8.28324,-2.114 0,1.8283 8.63018,8.1037 13.70696,9.967 5.06567,1.8591 5.52526,1.8354 4.42085,-0.2282 z m -92.00639,-37.5486 c 18.98615,-11.5429 20.27521,-12.718 21.02992,-19.1716 0.33674,-2.8796 0.17773,-3.0063 -4.65134,-3.706 -12.8682,-1.8647 -23.86426,-8.8245 -29.46256,-18.648 -0.58622,-1.0287 -3.37678,-0.031 -12.14923,4.3452 -13.840701,6.9038 -22.889481,12.3931 -22.884511,13.8823 0.002,0.6094 2.88706,2.5988 6.41117,4.421 7.023271,3.6314 17.303221,13.0044 22.414611,20.4369 4.4436,6.4615 6.35206,6.3072 19.29194,-1.5598 z m 17.99585,-32.4711 c -0.57463,-1.0737 -3.50546,-4.2011 -6.51297,-6.9498 -5.25349,-4.8014 -10.87993,-7.2693 -16.5728,-7.2693 -1.97323,0 -2.00445,0.1516 -0.5931,2.8809 1.6839,3.2563 6.28508,7.3958 10.93148,9.8347 3.01218,1.5811 12.77979,4.2855 13.46114,3.727 0.18206,-0.1492 -0.13913,-1.1498 -0.71375,-2.2235 z m 804.85953,-87.8216 c 1.0661,-5.4436 3.0335,-14.8475 4.3719,-20.8975 1.3384,-6.05 3.4272,-15.5 4.6416,-21 1.2144,-5.5 3.7379,-16.0381 5.6076,-23.418 1.8697,-7.3798 3.237,-13.5804 3.0384,-13.779 -0.1986,-0.1986 -6.215,0.6128 -13.3697,1.8031 -11.6408,1.9367 -12.9577,2.3591 -12.5242,4.0169 0.6677,2.5534 -1.7873,3.2539 -5.1995,1.4836 -2.5577,-1.3269 -3.3102,-1.2729 -7.9343,0.5694 -2.8097,1.1195 -5.7836,2.2893 -6.6086,2.5995 -5.5068,2.0711 -21,14.6918 -21,17.1066 0,0.3983 2.5875,2.5581 5.75,4.7995 16.0343,11.3643 27.5059,25.7527 34.9359,43.8184 2.262,5.5 4.3937,10.8519 4.737,11.8931 0.9658,2.9292 1.4667,1.6614 3.5539,-8.9956 z m 992.23012,-0.8975 c 0.4019,-2.2 0.9915,-6.7 1.3104,-10 1.1034,-11.4179 9.2936,-37.3899 17.6255,-55.8927 2.6978,-5.991 4.6523,-11.1455 4.3433,-11.4545 -0.3089,-0.309 -1.7822,-0.7036 -3.2739,-0.8769 -28.4757,-3.3089 -46.2122,-6.72 -46.2122,-8.8874 0,-2.2832 2.4889,-2.6842 9.2422,-1.4892 15.9568,2.8235 27.3142,4.5244 37.2578,5.5796 l 6,0.6368 6.7543,-13.8079 c 8.6787,-17.7417 14.6659,-28.3056 23.2993,-41.11 11.0133,-16.3338 21.3572,-32.4951 25.6093,-40.0116 3.9679,-7.0142 12.9756,-19.1198 28.5719,-38.39829 2.9866,-3.69165 5.1391,-7.18296 4.7834,-7.75846 -0.3557,-0.5755 0.2422,-1.38006 1.3286,-1.78791 1.0863,-0.40785 8.8414,-9.29154 17.2334,-19.74154 8.3921,-10.45 16.9675,-21.01715 19.0565,-23.48255 2.089,-2.4654 3.4754,-4.77157 3.0808,-5.12482 -0.3946,-0.35326 -5.6675,-1.39055 -11.7175,-2.30511 -6.05,-0.91455 -13.7,-2.08131 -17,-2.5928 -3.3,-0.51148 -7.808,-1.19144 -10.0178,-1.51102 l -4.0178,-0.58104 -2.8303,5.79867 c -4.7219,9.67395 -30.9405,52.19676 -32.9844,53.49588 -0.6033,0.38347 -1.4217,0.17175 -1.8186,-0.47049 -0.752,-1.21683 0.487,-3.54741 8.095,-15.22672 2.5079,-3.85 5.013,-7.78125 5.5669,-8.73612 0.5538,-0.95486 4.0364,-6.83884 7.739,-13.07551 3.7026,-6.23666 8.06,-13.82792 9.683,-16.86947 l 2.951,-5.53008 -9.683,-1.74412 c -11.3844,-2.05058 -29.0537,-5.66494 -41.6323,-8.51615 -4.9222,-1.1157 -9.1972,-2.02747 -9.5,-2.02615 -0.3029,10e-4 -2.5757,3.60024 -5.0507,7.9976 -4.1765,7.42042 -6.0956,9.27244 -7.4079,7.14906 -0.2892,-0.46801 1.4541,-4.15973 3.8741,-8.20381 4.4173,-7.38197 4.7425,-8.94525 1.8608,-8.94525 -0.8553,0 -6.2826,-1.16121 -12.0607,-2.58047 -5.7782,-1.41926 -11.2394,-2.743 -12.136,-2.94163 -4.1597,-0.9215 -26.3132,-7.67613 -32.1303,-9.79656 -6.7104,-2.44607 -8.5395,-4.94681 -4,-5.46882 1.375,-0.15812 5.2,0.66046 8.5,1.81907 7.7791,2.7312 19.1598,6.03726 33.5,9.73165 18.6337,4.8005 22.9917,5.64715 23.9574,4.65427 0.4908,-0.50463 4.2832,-7.59631 8.4276,-15.75929 7.4525,-14.67878 13.3441,-30.41227 11.8743,-31.7101 -0.7072,-0.62443 -19.67,-5.56833 -25.2593,-6.5855 -1.375,-0.25023 -3.85,-0.89402 -5.5,-1.43065 -1.65,-0.53663 -14.925,-3.90554 -29.5,-7.48646 -28.7906,-7.07355 -48.5247,-12.8674 -49.5661,-14.55245 -1.5949,-2.58059 1.7269,-2.49431 10.5661,0.27445 5.225,1.63667 10.175,3.12275 11,3.3024 0.825,0.17965 4.875,1.25984 9,2.40043 21.2203,5.86752 80.4961,20.02883 81.1152,19.37884 0.3924,-0.41205 1.9206,-7.27418 3.396,-15.24918 1.4754,-7.975 3.0892,-14.9965 3.5864,-15.60333 0.6317,-0.7712 -1.2788,-1.4521 -6.3469,-2.26194 -3.9879,-0.63723 -9.2757,-1.60317 -11.7507,-2.14653 -2.475,-0.54336 -15.525,-3.26712 -29,-6.05281 -13.475,-2.78569 -29.45,-6.14444 -35.5,-7.4639 -66.0419,-14.40322 -81.192,-17.59881 -125.7401,-26.52215 -53.579,-10.73232 -75.622,-16.40285 -95.7599,-24.63416 -26.2545,-10.73143 -50.8214,-26.39358 -69.1147,-44.06267 -5.8381,-5.63888 -10.9033,-10.25251 -11.256,-10.25251 -0.6576,0 -0.1074,12.41722 1.0633,24 0.3614,3.575 0.6018,6.76715 0.5343,7.09367 -0.1105,0.53476 2.9395,19.94673 4.3061,27.40633 5.1065,27.87407 5.9649,31.5 7.4567,31.5 0.459,0 3.9567,1.8 7.7725,4 3.8159,2.2 7.3961,4 7.9562,4 0.56,0 1.278,-1.6875 1.5955,-3.75 2.201,-14.29895 12.5669,-53.32338 14.7953,-55.7 0.5599,-0.59714 1.2979,-0.54289 1.9869,0.14606 0.7947,0.79474 0.2512,3.80498 -1.9772,10.95 -3.7695,12.08676 -6.5284,22.87629 -9.0399,35.35394 -3.5034,17.40539 -4.1217,15.06668 5.2307,19.78447 22.8418,11.52245 48.1217,23.17973 48.7752,22.49167 0.6826,-0.71868 8.0984,-21.61197 10.9236,-30.77614 1.5248,-4.94604 2.6319,-6.25962 4.0665,-4.82495 1.1233,1.12328 -3.2262,16.10502 -8.4962,29.26456 -1.4183,3.54179 -2.5788,6.99696 -2.5788,7.67815 0,0.6812 2.5875,2.19042 5.75,3.35383 3.1625,1.16342 7.1,2.70546 8.75,3.42676 1.65,0.7213 7.275,2.77032 12.5,4.55338 5.225,1.78305 10.4,3.60804 11.5,4.05554 3.494,1.42143 12.7101,4.11761 12.9861,3.79911 0.5815,-0.67108 7.4609,-17.18174 13.5636,-32.55318 4.8997,-12.34124 6.871,-16.24757 8.2003,-16.25 2.4291,-0.004 2.288,0.70413 -2.3378,11.74235 -2.2483,5.36495 -6.0071,14.71125 -8.3528,20.76957 -2.3458,6.05831 -5.0395,12.51263 -5.986,14.34293 -0.9465,1.83029 -1.5752,3.41723 -1.3971,3.52652 0.879,0.53959 16.4222,5.18209 25.5326,7.62617 6.8072,1.82622 10.317,2.37636 10.3676,1.62506 0.042,-0.62469 0.2257,-1.8108 0.4079,-2.6358 2.5196,-11.40333 4.6918,-20.84576 5.1185,-22.25 0.5393,-1.77432 2.8848,-2.38787 3.7538,-0.9819 0.2611,0.42246 -1.0128,6.83496 -2.8309,14.25 -3.1721,12.93687 -3.2293,13.51092 -1.4157,14.19968 2.9194,1.10875 2.4151,4.5857 -0.7202,4.9658 -2.4159,0.29288 -2.9667,1.39514 -7.4028,14.81642 -8.6716,26.23566 -16.1812,43.73689 -28.2059,65.73456 -4.2797,7.829 -7.7812,14.43936 -7.7812,14.68969 0,0.25033 3.7125,1.59109 8.25,2.97948 24.4727,7.48816 38.9372,11.76265 41.1803,12.16941 1.3846,0.25108 3.709,0.90951 5.1652,1.46318 3.8507,1.46401 3.0679,2.34615 16.8921,-19.03632 2.3114,-3.575 6.3613,-9.85361 9,-13.95247 2.9023,-4.5084 4.3392,-7.60527 3.6371,-7.83928 -0.6382,-0.21275 -1.8674,-1.09384 -2.7316,-1.95797 -1.4156,-1.41561 -1.4178,-1.65694 -0.023,-2.43765 0.8516,-0.47657 2.6889,-0.65967 4.0829,-0.40689 2.2134,0.40137 3.1479,-0.45053 7.3747,-6.72307 14.6428,-21.73004 27.8302,-40.68775 29.4918,-42.39651 0.737,-0.75797 1.7139,-0.88391 2.6012,-0.33534 1.2116,0.74907 1.18,1.22256 -0.2146,3.21384 -0.8995,1.28444 -4.3526,6.16034 -7.6736,10.83534 -8.2846,11.6625 -24.2996,35.63857 -24.4278,36.57088 -0.058,0.41935 1.0201,1.09493 2.3951,1.50129 7.7155,2.28021 28.1523,8.51938 39,11.90638 17.9188,5.59481 24.1242,7.39918 36.2978,10.55455 9.653,2.50201 10.7661,3.01972 10.499,4.88283 -0.2315,1.61469 -0.9416,2.03843 -3.153,1.88141 -3.1978,-0.22706 -22.443,-5.35709 -33.1438,-8.83486 -3.85,-1.25125 -12.4,-3.93394 -19,-5.96153 -6.6,-2.02759 -15.6,-4.80791 -20,-6.17848 -8.3895,-2.61329 -9.1578,-2.82155 -14,-3.79475 -2.879,-0.57864 -3.2187,-0.24865 -8.4242,8.18466 -2.9833,4.83319 -8.9245,14.06351 -13.2027,20.51181 l -7.7785,11.72419 4.1806,1.12573 c 6.7465,1.81663 36.7298,8.21338 46.3445,9.88728 2.8158,0.49024 6.906,1.37236 9.0894,1.96027 2.1833,0.58792 9.5545,2.225 16.3803,3.63794 6.8258,1.413 13.3106,2.7717 14.4106,3.0194 1.1,0.2477 5.6,1.0931 10,1.8787 28.4105,5.0724 39.5161,7.6791 39.4847,9.2675 -0.054,2.7321 -1.7854,3.4056 -5.9042,2.2965 -2.3134,-0.6229 -5.4154,-1.3125 -6.8933,-1.5324 -5.4192,-0.8061 -34.1522,-6.3983 -50.6872,-9.8649 -66.945,-14.0354 -77.0701,-16.24069 -78.433,-17.08299 -1.7532,-1.08353 -21.5869,42.65869 -22.289,49.15729 -0.2547,2.3578 0.308,2.7732 6.722,4.9617 3.85,1.3136 8.2144,2.6048 9.6986,2.8692 1.4842,0.2645 3.9592,0.9642 5.5,1.5549 3.2675,1.2528 29.172,7.5276 34.3014,8.3087 1.925,0.2932 8,1.4209 13.5,2.5061 10.8563,2.142 31.9986,5.6453 40,6.6281 l 5,0.614 4,-7.1699 c 9.7043,-17.3948 19.2111,-30.9715 21.6871,-30.9715 1.9018,0 0.4916,3.3848 -4.2544,10.2113 -5.0211,7.2222 -17.9327,27.6763 -17.9327,28.4083 0,0.2092 1.3179,0.3804 2.9286,0.3804 3.5985,0 6.9213,2.827 4.8953,4.1648 -0.7282,0.4808 -3.3489,0.7529 -5.8239,0.6047 l -4.5,-0.2695 -6.3515,12.5 c -8.2569,16.2501 -16.5627,38.5587 -18.6156,50 -0.148,0.825 -0.611,3.3 -1.029,5.5 -0.975,5.1323 -0.9597,18.0364 0.032,27 2.0921,18.9104 -0.1548,26.2737 -11.3513,37.198 -3.5689,3.4821 -6.3079,6.4986 -6.0867,6.7034 0.2211,0.2047 4.0015,0.6908 8.4008,1.0801 4.3992,0.3893 8.2308,0.8513 8.5145,1.0267 0.2838,0.1753 3.5913,0.6327 7.3501,1.0163 3.7588,0.3836 10.0522,1.0456 13.9854,1.4712 11.5385,1.2484 12.0154,1.1188 12.8582,-3.4957 z m -1807.06755,-2.5 c -0.19834,-1.375 -0.4585,-7.9883 -0.57812,-14.6962 l -0.2175,-12.1962 -25.42187,-19.0517 c -13.98204,-10.4785 -27.251461,-19.9527 -29.487601,-21.0538 -4.98387,-2.4542 -9.68575,-2.5104 -14.87913,-0.1779 l -3.94485,1.7718 3.55583,2.1977 c 10.34439,6.3931 15.28867,24.833 11.31683,42.2063 -3.15995,13.822 -3.18431,13.5065 1.17463,15.2145 10.4587,4.0982 36.982591,8.5095 50.342411,8.3726 8.47717,-0.087 8.49903,-0.094 8.13937,-2.5871 z m 15.48379,-8.7179 c 3.10307,-7.2523 0.63873,-12.0241 -6.12316,-11.8565 -2.87707,0.071 -3.01367,0.2793 -3.33364,5.0744 -0.1835,2.75 0.19609,7.4064 0.84353,10.3475 l 1.17717,5.3475 3.02963,-2.8475 c 1.6663,-1.5661 3.64921,-4.2955 4.40647,-6.0654 z m 1738.37296,5.9497 c 6.0783,-4.7494 10.9527,-10.4278 13.605,-15.8489 2.8654,-5.8566 2.9995,-7.9893 2.0682,-32.8829 -0.3243,-8.6692 -0.1177,-17.7434 0.4895,-21.5 2.2373,-13.8418 15.2531,-47.7027 23.5118,-61.1664 l 2.249,-3.6665 -6.7098,-1.1155 c -3.6904,-0.6135 -8.0598,-1.2976 -9.7098,-1.5201 -1.65,-0.2226 -5.475,-0.8983 -8.5,-1.5015 -3.025,-0.6033 -7.075,-1.3343 -9,-1.6245 -7.9308,-1.1958 -37.555,-7.1658 -46,-9.2701 -5.3977,-1.345 -14.5801,-4.0239 -24.762,-7.2242 -5.094,-1.6012 -9.4348,-2.9112 -9.6461,-2.9112 -0.9267,0 -3.6867,18.6685 -4.584,31.0068 -0.5397,7.4213 -1.2461,15.5696 -1.5697,18.1074 -0.4937,3.8705 -0.2943,4.7274 1.2366,5.3167 1.7293,0.6657 29.0954,6.5691 30.4519,6.5691 0.352,0 0.8753,0.8996 1.1628,1.999 1.0269,3.9269 0.3977,3.8821 -22.7895,-1.6228 -5.5,-1.3057 -10.5124,-2.3746 -11.1387,-2.3751 -0.6263,-6e-4 -1.4411,1.6864 -1.8107,3.7489 -1.9839,11.0716 -9.9305,29.2159 -16.0852,36.7269 -1.906,2.326 -3.4654,4.4692 -3.4654,4.7626 0,0.2934 1.2375,0.7485 2.75,1.0113 3.9282,0.6824 42.8778,8.4946 48.25,9.6776 2.475,0.545 8.1,1.4864 12.5,2.0921 4.4,0.6057 8.6751,1.2935 9.5003,1.5285 3.2953,0.9385 6.9619,-12.7909 8.4256,-31.549 0.4534,-5.8107 1.789,-16.0861 2.9897,-23 0.2388,-1.375 0.6795,-4.4107 0.9793,-6.746 0.6518,-5.0769 2.5214,-16.8526 3.1759,-20.004 0.257,-1.2375 1.1337,-2.25 1.9483,-2.25 1.8831,0 1.8882,2.9181 0.025,14.5 -2.351,14.614 -5.4202,37.5074 -5.9659,44.5 -0.6637,8.5029 -2.1376,16.0096 -4.0354,20.5516 -0.8413,2.0135 -1.3199,4.0002 -1.0636,4.4149 0.2563,0.4147 4.3342,1.0679 9.062,1.4515 10.2597,0.8325 11.4587,1.2185 11.4587,3.689 0,2.2437 -0.461,2.2695 -14.0939,0.7864 l -10.1723,-1.1067 -5.2542,5.3567 c -2.8899,2.9461 -8.3704,8.0566 -12.1791,11.3566 -3.8086,3.3 -8.3422,7.8 -10.0748,10 l -3.15,4 6.2122,1.3339 c 12.2983,2.6408 38.295,6.9874 42.2121,7.0578 2.9106,0.052 4.9522,-0.6721 7.4961,-2.6599 z m -54.0336,-14.3053 c 0.021,-0.3154 4.875,-4.8131 10.7875,-9.9947 5.9125,-5.1816 11.2793,-10.0986 11.9263,-10.9265 1.2231,-1.5653 0.1769,-1.9894 -8.1763,-3.3136 -9.5874,-1.5199 -45.5878,-8.5912 -56.5135,-11.1006 -3.5676,-0.8194 -7.6115,-1.7328 -8.9865,-2.0299 -1.375,-0.2971 -3.7003,-0.8153 -5.1674,-1.1515 -3.0271,-0.6937 -3.1084,-1.9057 0.945,14.0903 1.1149,4.4 2.336,10.0631 2.7135,12.5846 0.3775,2.5215 0.9839,5.0418 1.3476,5.6007 0.772,1.1863 15.3618,6.033 29.6613,9.8533 5.5,1.4695 11.125,3.023 12.5,3.4524 2.1021,0.6564 3.0113,0.202 5.7125,-2.8552 1.7668,-1.9997 3.2293,-3.8939 3.25,-4.2093 z m -47.6606,-47.1765 c 7.2407,-8.9568 11.8791,-18.8328 15.52,-33.045 l 1.9372,-7.5621 -2.6295,-0.9658 c -1.4463,-0.5311 -6.2296,-2.1988 -10.6296,-3.7059 -12.0037,-4.1117 -21.6359,-8.396 -31.8304,-14.1581 -3.2067,-1.8124 -5.6032,-2.7369 -5.3257,-2.0542 1.2928,3.1792 13.6439,40.8649 14.9911,45.7411 4.7581,17.2211 4.7119,17.1141 8.0118,18.5498 4.9157,2.1387 6.2708,1.7576 9.9551,-2.7998 z m -843.80192,-12.6603 c 2.2,-0.5662 8.1673,-1.6457 13.2608,-2.399 7.9709,-1.1789 9.4254,-1.1713 10.4427,0.054 0.9553,1.1511 1.5365,0.1295 3.0317,-5.3286 1.0174,-3.714 1.6422,-7.2937 1.3885,-7.9548 -0.4478,-1.167 -12.2962,-8.0668 -23.765,-13.8394 l -5.6413,-2.8395 -9.3587,3.1765 c -5.1473,1.7471 -10.2587,3.5465 -11.3587,3.9987 -12.3039,5.0582 -17.496,7.4133 -17.4758,7.9269 0.013,0.3383 2.7262,1.8931 6.0285,3.4551 5.7908,2.7391 10.8355,5.6608 21.4473,12.4211 2.75,1.7519 5.675,2.9991 6.5,2.7716 0.825,-0.2276 3.3,-0.877 5.5,-1.4431 z m 1066.61682,-10.5897 c 4.5831,-6.05 14.3172,-20 21.6313,-31 l 13.2985,-20 -6.4754,-0.5 c -7.1666,-0.5534 -8.9039,-1.6146 -8.4059,-5.1347 0.3286,-2.3221 0.5519,-2.3691 12.2178,-2.5705 11.0679,-0.1912 12.1656,-0.3913 16,-2.9167 14.2033,-9.3546 24.2942,-21.59 47.734,-57.8781 l 2.5837,-4 -4.6004,0.0943 c -6.7001,0.1374 -36.7308,-4.36407 -41.6132,-6.23764 -0.8254,-0.31672 -10.3138,10.34744 -15.2571,17.14764 -0.4016,0.5524 -3.3162,4.2392 -6.4771,8.1929 -5.2271,6.5384 -17.753,25.4528 -17.753,26.8076 0,0.5595 -11.5651,18.1193 -20.0845,30.4952 -2.461,3.575 -6.2613,9.5968 -8.445,13.3819 -2.1838,3.785 -4.8135,8.285 -5.8439,10 -3.0382,5.0568 -15.6266,30.3991 -15.6266,31.4586 0,0.535 4.3875,1.261 9.75,1.6132 13.281,0.8723 17.25,1.5244 17.25,2.8342 0,1.5013 0.4238,1.0075 10.1168,-11.7879 z m -204.0403,-23.75 c 0.042,-0.6875 0.2454,-2.15 0.4517,-3.25 0.2064,-1.1 0.8615,-8.075 1.4557,-15.5 0.5943,-7.425 1.277,-14.625 1.5171,-16 0.2401,-1.375 0.7002,-4.525 1.0224,-7 0.3222,-2.475 0.9991,-6.0497 1.5041,-7.9438 0.5051,-1.894 0.818,-3.4824 0.6954,-3.5297 -0.1226,-0.047 -2.2185,-0.7787 -4.6575,-1.6253 -7.8759,-2.7339 -8.3926,-7.2059 -0.5915,-5.1194 2.4252,0.6486 4.942,1.3006 5.5928,1.4488 0.6508,0.1482 1.6294,-1.0806 2.1747,-2.7306 2.4538,-7.4252 9.9885,-25.7404 13.6918,-33.2818 2.2367,-4.55495 4.0768,-8.60495 4.089,-8.99997 0.012,-0.39503 0.8811,-1.83597 1.9307,-3.2021 l 1.9085,-2.48386 -21.1807,-6.13999 c -17.7409,-5.14284 -30.4125,-8.93751 -36.3602,-10.8885 -0.6487,-0.21279 -2.1563,1.48718 -3.3502,3.77773 -1.1939,2.29054 -6.9704,12.05174 -12.8368,21.69156 -5.8663,9.63983 -12.219,20.90193 -14.1171,25.02693 -1.8982,4.125 -3.8544,8.0575 -4.3471,8.739 -1.3693,1.8936 -2.9053,0.3373 -2.2487,-2.2785 1.0128,-4.0356 7.294,-16.63 12.9473,-25.9605 12.5049,-20.63912 18.6321,-31.27954 18.6321,-32.35625 0,-0.62906 -0.5129,-1.14375 -1.1398,-1.14375 -1.2229,0 -19.2679,-6.27254 -32.3602,-11.24857 -16.3569,-6.21686 -21.2611,-8.01978 -32,-11.76418 -6.05,-2.10949 -12.7062,-4.55846 -14.7916,-5.44215 l -3.7916,-1.60671 1.3719,2.7808 c 0.7546,1.52945 6.8416,13.80581 13.5267,27.28081 13.4687,27.14856 32.7026,70.3058 41.7803,93.7465 4.2921,11.0834 6.3536,15.2475 7.5497,15.25 0.905,0 6.5997,2.4734 12.6549,5.4921 13.2811,6.6211 13.9465,6.9047 27.1997,11.5926 12.2901,4.3472 11.978,4.2783 12.0765,2.6688 z m -609.5765,-40.1158 c 9.35,-2.5456 21.4639,-5.6717 26.9199,-6.9471 l 9.9199,-2.3188 6.3628,-18.9342 c 3.4995,-10.4137 7.9903,-22.8793 9.9796,-27.7012 1.9893,-4.82196 3.4352,-8.94887 3.2131,-9.17094 -0.2221,-0.22207 -4.9019,1.803 -10.3995,4.50017 -5.4977,2.69717 -16.9708,7.88147 -25.4958,11.52077 -8.525,3.6392 -16.4846,7.239 -17.6881,7.9994 -2.6132,1.6513 -9.7114,14.4193 -16.8727,30.3502 -6.7908,15.1065 -7.217,16.5124 -4.8031,15.8451 1.0252,-0.2834 9.5139,-2.5979 18.8639,-5.1434 z m -80,-8.1874 c 2.2,-0.1808 4.4942,-0.3553 5.0981,-0.3878 1.1302,-0.061 5.0366,-7.7577 4.3073,-8.4869 -0.2241,-0.2241 -8.282,1.1588 -17.9064,3.0731 -9.6245,1.9144 -22.899,4.3413 -29.499,5.3931 l -12,1.9125 23,-0.5877 c 12.65,-0.3232 24.8,-0.7355 27,-0.9163 z m 24.5,-1.9358 c 11.8277,-0.9499 15.8628,-1.4558 25.8195,-3.2369 7.0286,-1.2573 9.4977,-1.3789 10.044,-0.495 0.4273,0.6914 3.2524,-3.8252 6.8882,-11.0124 5.928,-11.7183 6.768,-14.2308 4.0225,-12.0307 -2.3669,1.8967 -39.807,13.9081 -51.8078,16.6208 -1.7554,0.3968 -3.2143,1.9738 -4.75,5.1347 -2.7815,5.7252 -2.7764,6.6617 0.034,6.0842 1.2375,-0.2543 5.625,-0.7334 9.75,-1.0647 z m 106.7562,-1.5419 c 2.3409,-0.5401 5.9409,-1.2311 8,-1.5355 12.0982,-1.7889 38.7857,-7.6871 39.4399,-8.7166 0.4253,-0.6693 0.7802,-3.0461 0.7886,-5.2817 0.02,-5.1757 3.7358,-44.88074 4.6004,-49.15062 0.6029,-2.97747 0.4759,-3.18087 -1.717,-2.74967 -9.3178,1.83221 -19.7676,3.44538 -21.8681,3.37584 -2.3497,-0.0778 -2.3197,-0.13791 0.5,-1.0003 1.65,-0.50464 3.9,-1.0961 5,-1.31435 1.1,-0.21825 5.7743,-1.34167 10.3874,-2.49651 4.613,-1.15483 8.5057,-2.09969 8.6502,-2.09969 0.4555,0 2.7058,-10.09211 2.3251,-10.42746 -0.1995,-0.17573 -7.5627,3.67839 -16.3627,8.56472 -8.8,4.88634 -18.3488,10.0915 -21.2196,11.56703 -3.2636,1.6774 -5.5812,3.64083 -6.1845,5.23925 -0.5306,1.40605 -3.0548,7.50646 -5.6092,13.55646 -2.5545,6.05 -6.6635,17.3 -9.1312,25 -2.4677,7.7 -4.8975,15.0125 -5.3996,16.25 -0.7856,1.9359 -0.602,2.2466 1.3155,2.2256 1.2257,-0.014 4.1439,-0.4664 6.4848,-1.0065 z m 865.4691,-55.2532 c 3.0442,-4.58494 23.1347,-30.3343 24.7458,-31.7159 0.3206,-0.275 9.4066,-11.075 20.1911,-24 19.8014,-23.73171 26.7372,-30.96 37.2376,-38.80818 5.7885,-4.32641 8.5621,-8.69974 10.0613,-15.86454 0.5857,-2.79919 0.435,-3.11287 -1.2799,-2.66441 -1.1694,0.30581 -2.6883,-0.28659 -3.8125,-1.48704 -1.0278,-1.09745 -4.7937,-3.12539 -8.3687,-4.50653 -10.1469,-3.92008 -52.2526,-17.48054 -62.9046,-20.2589 -24.048,-6.27241 -105.8136,-24.05057 -106.6407,-23.18669 -0.1454,0.15196 -1.4327,6.57629 -2.8605,14.27629 -1.4278,7.7 -2.858,14.95486 -3.1782,16.12191 -0.5251,1.91359 0.089,2.28134 6.2509,3.74598 3.7582,0.89324 12.2331,2.55312 18.8331,3.68863 6.6,1.1355 13.125,2.26658 14.5,2.5135 5.4057,0.97073 32.0158,4.89616 47,6.93327 1.925,0.26171 6.875,0.95333 11,1.53694 4.125,0.58361 10.2,1.31674 13.5,1.62917 5.8397,0.55289 8.3005,1.93009 6.5596,3.67104 -0.4762,0.47621 -8.5686,-0.13092 -18.2084,-1.36608 -9.5432,-1.22278 -20.2762,-2.57909 -23.8512,-3.01401 -3.575,-0.43493 -7.625,-1.07019 -9,-1.4117 -2.3277,-0.57814 -2.7011,-0.11888 -5.4185,6.66521 -4.0913,10.2138 -6.0117,14.53226 -12.7877,28.75607 -3.2672,6.85846 -6.0199,12.90758 -6.1171,13.44249 -0.097,0.53491 1.8483,1.28641 4.3233,1.67001 9.4626,1.4666 11.6485,1.79437 16.5,2.47402 2.75,0.38526 5.9,0.87232 7,1.08236 1.1,0.21004 5.1309,0.87639 8.9577,1.48078 7.9695,1.2587 6.4034,2.30649 16.5423,-11.06763 7.1115,-9.38064 9.1206,-11.33138 10.3767,-10.07522 1.0819,1.08183 -2.3819,6.4431 -10.5982,16.40386 -2.6678,3.23434 -4.7219,5.99031 -4.5646,6.12439 0.3684,0.31387 10.8128,1.27647 22.2861,2.05396 9.4393,0.63965 11.1544,1.29331 10.1642,3.87383 -0.7407,1.93022 -3.5766,1.94829 -22.1642,0.14123 -7.7,-0.74858 -14.0157,-1.29647 -14.0348,-1.21753 -0.041,0.16948 -7.4645,9.59646 -8.9446,11.35882 -0.5613,0.66841 -1.4731,1.79341 -2.0262,2.5 -1.7384,2.22097 -10.9691,13.26091 -11.5257,13.7847 -0.8531,0.80298 -14.5055,18.3807 -15.3032,19.70333 -0.9709,1.60965 4.5684,3.05586 18.8345,4.91735 2.2,0.28706 6.7,0.93645 10,1.44307 3.3,0.50663 7.7016,0.92454 9.7814,0.9287 2.4334,0.005 3.9866,0.54228 4.357,1.50755 0.3166,0.825 0.6887,1.5 0.827,1.5 0.1383,0 1.8302,-2.37785 3.7599,-5.2841 z m -334.8775,-27.4659 c 0.3196,-0.9625 2.636,-5.35 5.1476,-9.75 6.9313,-12.14296 14.1727,-26.88624 18.6643,-38 9.2575,-22.90623 16.3498,-44.42687 15.0452,-45.6524 -0.3877,-0.36416 -7.9049,-2.7945 -16.7049,-5.40075 -8.8,-2.60626 -16.5535,-4.94268 -17.23,-5.19206 -0.7507,-0.27673 -2.578,2.50464 -4.6894,7.13777 -2.6221,5.75386 -3.8371,7.44623 -5.02,6.99232 -2.0109,-0.77165 -2.0659,-0.46978 1.4806,-8.13193 1.6727,-3.6138 2.6852,-6.90701 2.25,-7.31826 -0.4352,-0.41124 -9.0796,-3.54267 -19.2099,-6.95873 -10.1303,-3.41607 -21.2835,-7.49633 -24.7848,-9.06725 l -6.366,-2.85623 -0.8464,2.22376 c -2.6094,6.85587 -6.8734,16.27984 -12.513,27.65583 -7.2499,14.62393 -8.1913,17.06793 -6.5744,17.06793 0.6223,0 3.5713,1.116 6.5533,2.48 7.5644,3.46004 22.0258,8.92997 27.7404,10.49262 5.0487,1.38057 8.556,5.02738 4.835,5.02738 -3.2599,0 -19.3328,-5.60645 -31.0061,-10.81531 l -11.0402,-4.92634 -3.1849,7.62082 c -2.9699,7.10625 -6.8212,19.44654 -9.9667,31.93484 -1.0979,4.35912 -1.1044,5.45864 -0.036,6.11893 0.7163,0.4427 7.2213,2.93663 14.4554,5.54205 7.2342,2.60542 20.1281,7.33929 28.6531,10.51972 29.8134,11.12249 40.5127,14.92235 42.1334,14.96366 0.8983,0.0229 1.8948,-0.74587 2.2144,-1.70837 z m -277.6413,-32.08614 c 1.2136,-1.30554 5.4886,-5.81904 9.5,-10.03 4.0114,-4.21096 9.1667,-9.90125 11.4561,-12.64508 14.3191,-17.16096 25.5914,-30.90694 30.3326,-36.98878 3.0013,-3.85 5.6946,-7.225 5.985,-7.5 0.2904,-0.275 3.0585,-3.65 6.1513,-7.5 6.2778,-7.81473 8.1599,-9.99908 14.2168,-16.5 2.306,-2.475 6.5119,-7.2 9.3464,-10.5 l 5.1538,-6 -1.7957,-10 c -2.2172,-12.34684 -2.764,-17.03856 -3.6132,-31 -0.368,-6.05 -0.8232,-12.575 -1.0116,-14.5 -0.829,-8.47258 -0.3995,-56.60904 0.6011,-67.36066 0.6061,-6.51289 0.8799,-12.06363 0.6086,-12.33496 -0.2713,-0.27134 -1.6367,1.23668 -3.0341,3.35114 -1.3974,2.11446 -5.0378,7.21948 -8.0899,11.34448 -3.052,4.125 -10.1081,14.025 -15.6801,22 -12.3808,17.72001 -40.1805,57.04938 -43.8243,62 -4.9029,6.66137 -14.2941,18.72134 -21.5093,27.62185 -10.3589,12.77854 -11.6998,14.39993 -13.5,16.32479 -1.3481,1.44138 -13.9003,16.70755 -16.2829,19.80336 -0.6208,0.80671 -0.5986,1.69329 0.063,2.5 0.5636,0.6875 1.5532,3.275 2.1992,5.75 2.7194,10.41865 5.2711,18 6.0585,18 1.5029,0 23.8786,-22.09844 35.1858,-34.74982 l 11.0094,-12.31827 -0.6141,-9.21596 c -0.5342,-8.01766 -0.9828,-27.84156 -0.712,-31.46595 0.1472,-1.97041 4.0781,-1.50239 4.1995,0.5 0.2274,3.75273 0.598,13.17485 0.8752,22.25 0.1596,5.225 0.5034,10.06532 0.7639,10.75626 0.3021,0.80138 1.6108,-0.002 3.6142,-2.21778 7.2514,-8.02127 18.9511,-22.82529 27.0985,-34.28848 5.249,-7.38535 8.5421,-10.16288 8.5421,-7.20484 0,2.77153 -14.39,22.19732 -30.1494,40.70033 -9.8186,11.52794 -9.2109,8.96427 -6.2234,26.25451 1.7358,10.04534 3.8376,19.10098 6.4652,27.85534 1.0492,3.49543 1.9076,7.20793 1.9076,8.25 0,2.90474 -3.3375,2.29757 -4.7016,-0.85534 -1.918,-4.43335 -6.95,-24.91863 -8.7816,-35.75 -0.93,-5.5 -1.7643,-10.062 -1.8539,-10.13779 -0.09,-0.0758 -3.9879,4.11988 -8.6629,9.3237 -4.675,5.20381 -14.9193,15.73331 -22.7652,23.39888 l -14.2651,13.93741 3.9932,11.7389 c 8.2273,24.18627 10.2184,29.91391 12.7039,36.54527 2.5383,6.77213 2.5619,6.79738 4.6922,5.01879 1.1775,-0.98318 3.1339,-2.85576 4.3475,-4.1613 z m 192.7731,-26.33058 c 1.5119,-4.58331 3.5975,-10.1053 4.6347,-12.27111 1.0371,-2.16581 1.8841,-4.41581 1.8822,-5 0,-0.58419 -4.5019,-3.16289 -10,-5.73044 -8.9608,-4.18459 -12.3169,-6.84471 -10.6891,-8.4725 0.305,-0.30499 5.2517,1.73942 10.9927,4.54313 5.7409,2.8037 10.8451,5.09764 11.3426,5.09764 1.1924,0 5.2861,-8.10786 15.9045,-31.5 4.0452,-8.91133 5.3731,-13.43167 4.1724,-14.20272 -1.3127,-0.84293 -10.3864,-5.17911 -23.2196,-11.09624 -4.4,-2.02875 -13.1699,-6.24655 -19.4886,-9.37288 -6.3188,-3.12633 -11.6376,-5.53531 -11.8196,-5.35328 -0.4225,0.42247 -2.9333,10.122 -3.5993,13.90456 -1.867,10.60352 -2.9447,13.62056 -4.8651,13.62056 -2.2372,0 -2.2571,0.23088 1.3332,-15.5 3.3981,-14.88893 3.5509,-14.23866 -4.409,-18.75279 -3.7666,-2.13606 -7.0146,-3.71758 -7.2177,-3.51449 -0.5547,0.55476 4.1153,22.91591 8.1532,39.03912 6.2801,25.07641 13.7716,48.87365 23.2099,73.72816 7.0869,18.66237 6.1293,17.80005 8.6991,7.83328 1.229,-4.7667 3.4716,-12.4167 4.9835,-17 z m 365.7712,10.41672 c 2.5356,-5.3625 5.7665,-12.3375 7.1797,-15.5 1.4132,-3.1625 3.6306,-8.1125 4.9275,-11 3.2006,-7.12598 5.1177,-12.61244 4.5838,-13.11863 -0.243,-0.2304 -7.1918,-1.38241 -15.4418,-2.56004 -16.7947,-2.39732 -22.0994,-3.34631 -34.7848,-6.22279 -4.8317,-1.0956 -9.2447,-1.83872 -9.8067,-1.65137 -0.562,0.18734 -2.4166,4.38212 -4.1213,9.32173 -1.7046,4.9396 -6.4559,15.64184 -10.5583,23.78274 -4.1024,8.1409 -7.2947,14.95507 -7.0939,15.14261 0.3209,0.29978 9.9125,2.35165 44.365,9.49075 4.95,1.02572 10.6066,1.90996 12.5703,1.96497 3.5572,0.0997 3.5873,0.0641 8.1805,-9.64997 z"
     style="fill:#000000" />
</svg>
