<?xml version="1.0" encoding="UTF-8" standalone="no"?>
<svg
   xmlns:dc="http://purl.org/dc/elements/1.1/"
   xmlns:cc="http://creativecommons.org/ns#"
   xmlns:rdf="http://www.w3.org/1999/02/22-rdf-syntax-ns#"
   xmlns:svg="http://www.w3.org/2000/svg"
   xmlns="http://www.w3.org/2000/svg"
   viewBox="0 0 2864.2874 2098.5798"
   height="2098.5798"
   width="2864.2874"
   id="svg1022"
   version="1.1">
  <metadata
     id="metadata1028">
    <rdf:RDF>
      <cc:Work
         rdf:about="">
        <dc:format>image/svg+xml</dc:format>
        <dc:type
           rdf:resource="http://purl.org/dc/dcmitype/StillImage" />
        <dc:title></dc:title>
      </cc:Work>
    </rdf:RDF>
  </metadata>
  <defs
     id="defs1026" />
  <path
     id="path1585"
     d="m 1001.482,2097.6887 c -0.3417,-0.553 -0.7616,-7.6405 -0.9329,-15.75 -0.2791,-13.2063 -0.64458,-15.8401 -3.50338,-25.2446 -8.3739,-27.5474 -16.3207,-40.6869 -46.3957,-76.7123 -30.60392,-36.6589 -55.05357,-56.4817 -104.6646,-84.8577 -34.70366,-19.8494 -56.00352,-29.8351 -105.00204,-49.2266 -49.50323,-19.5912 -85.17949,-37.8624 -181.64741,-93.0286 -88.37745,-50.5396 -105.71345,-60.7567 -125.85055,-74.1709 -34.29306,-22.8441 -85.83133,-57.9621 -102.11342,-69.5796 -9.96238,-7.1084 -24.73174,-17.5672 -32.82081,-23.2418 -16.13119,-11.3164 -37.98403,-28.673 -55.06577,-43.7361 -6.05,-5.335 -20.225,-17.6086 -31.5,-27.2747 -36.33975,-31.154 -43.93404,-38.3746 -95.6727,-90.9656 -64.559153,-65.6228 -74.811303,-78.3253 -70.856073,-87.7915 0.78469,-1.878 2.02809,-3.4146 2.76311,-3.4146 0.73502,0 2.82882,-3.0375 4.6529,-6.75 12.89523,-26.2453 29.20129,-47.1458 50.980153,-65.3442 20.88143,-17.4486 44.8474,-31.6077 102.13261,-60.3401 43.37381,-21.7549 58.15774,-28.8165 96.5,-46.0934 27.32568,-12.3128 70.82403,-33.9827 82.71995,-41.2091 13.68402,-8.3127 61.4834,-41.2231 80.32109,-55.3021 26.96304,-20.1516 66.52191,-57.1359 99.96732,-93.46108 45.74232,-49.681 60.95327,-62.155 113.19651,-92.8292 27.58007,-16.1935 35.99201,-21.6553 77.0999,-50.0605 32.94037,-22.7616 42.33063,-29.6488 77.19523,-56.6185 11.825,-9.14728 31.4,-24.24861 43.5,-33.55852 27.26763,-20.98009 43.92781,-34.78385 48.91733,-40.53035 3.27249,-3.76898 5.07369,-8.07453 12.50967,-29.90293 14.2497,-41.82986 31.7585,-83.8893 43.2938,-104 6.954,-12.12362 16.7611,-26.66285 24.28288,-36 15.2874,-18.977 43.7618,-46.76447 58.1625,-56.75927 l 8.2713,-5.74073 3.1152,-9.5 c 2.1467,-6.54659 3.1732,-11.74477 3.3018,-16.72058 0.2046,-7.91312 1.4384,-10.44245 3.7379,-7.66229 2.503,3.02626 1.0175,18.11512 -2.75,27.93308 -0.453,1.18038 1.2328,0.68484 6.269,-1.84284 28.9399,-14.52485 84.7424,-35.70737 94.0663,-35.70737 2.5047,0 3.1246,2.14342 1.0723,3.70819 -0.6875,0.5242 -6.425,2.41705 -12.75,4.20635 -14.7673,4.17754 -25.5813,8.22431 -51.5,19.27205 -35.9367,15.31785 -48.9295,23.21781 -69.458,42.23212 -30.981,28.69591 -52.42608,56.13366 -67.67118,86.58129 -11.7542,23.47565 -27.7696,63.88674 -40.0274,101 l -6.4405,19.5 -9.20145,8.15077 c -11.1579,9.88382 -23.81341,20.05657 -50.20145,40.3529 -11,8.46064 -30.575,23.56169 -43.5,33.5579 -27.08419,20.94693 -43.56084,33.03773 -64,46.96413 -7.975,5.4338 -21.09976,14.4772 -29.16613,20.0965 -19.31518,13.4555 -31.50337,21.1637 -59.83387,37.8407 -28.35371,16.6906 -40.92231,25.0246 -53.21344,35.2849 -12.01565,10.0304 -41.48799,39.3887 -60.0438,59.8116 -8.02519,8.8327 -23.51284,24.6038 -34.417,35.04698 -41.22785,39.485 -50.6753,47.065 -107.82576,86.5124 -31.58191,21.7991 -38.47098,25.8715 -70,41.3801 -29.48713,14.5043 -37.13483,18.0959 -73.5,34.5182 -24.69129,11.1504 -106.3114,51.81 -121,60.2769 -53.11126,30.6149 -77.834383,54.3919 -98.437323,94.6704 -3.13768,6.1341 -6.34789,11.3997 -7.13378,11.7013 -6.98912,2.6819 8.6019,22.1257 58.397513,72.8281 54.81827,55.8166 65.88161,66.4607 95.67359,92.0483 14.85,12.7543 33.25139,28.6992 40.89197,35.433 18.39972,16.2162 40.13649,33.5018 56.01773,44.5467 7.10034,4.938 21.05034,14.7939 31,21.9019 16.37954,11.7015 58.04002,40.161 98.44801,67.2528 21.94132,14.7106 46.71587,29.3642 131.64229,77.8635 79.79319,45.5678 92.48534,52.4362 127.65699,69.0813 24.989,11.8262 39.98433,18.2763 65.18227,28.0374 54.67009,21.178 115.14142,54.2586 150.66074,82.4183 20.34442,16.1291 46.6083,44.6217 70.7584,76.7628 14.9185,19.8549 28.24158,53.4559 28.24158,71.2256 0,2.714 0.2869,4.9346 0.6375,4.9346 0.7338,0 10.2016,-10.1015 29.5241,-31.5 25.0025,-27.6889 44.4969,-45.4429 68.8384,-62.6926 43.0888,-30.5351 83.5803,-53.6759 125.5,-71.723 9.35,-4.0253 31.3154,-13.8112 48.8119,-21.7463 47.1973,-21.4053 64.6983,-28.1817 103.8009,-40.1921 34.4763,-10.5894 59.8961,-16.6944 135.8872,-32.6354 17.325,-3.6343 38.475,-8.2069 47,-10.1612 48.0097,-11.0062 98.0084,-30.6005 146.8693,-57.5577 43.896,-24.218 65.1054,-38.6123 82.1351,-55.7428 6.4166,-6.4547 8.6501,-9.7232 15.4077,-22.5489 16.1832,-30.7152 32.6937,-58.1888 61.8784,-102.9664 18.853,-28.9257 28.3535,-44.7949 47.9142,-80.0336 31.1302,-56.081 34.8612,-64.3814 59.2387,-131.788 14.0449,-38.8357 18.3508,-49.0567 41.6712,-98.9148 26.5342,-56.7289 28.6365,-62.4798 42.5153,-116.2972 4.6806,-18.15 9.3787,-36.141 10.4401,-39.9799 1.0775,-3.8969 1.93,-10.1443 1.93,-14.144 0,-16.9488 4.2214,-44.7508 10.9235,-71.9424 7.3696,-29.89958 14.4791,-49.13308 29.1771,-78.93368 10.5255,-21.3408 12.3803,-24.5 14.3847,-24.5 2.8454,0 1.517,3.9524 -6.799,20.2284 -18.9035,36.998 -29.42,67.43168 -37.0683,107.27158 -2.3806,12.4004 -5.945,39.5064 -5.2821,40.1692 0.1727,0.1728 3.1072,-5.9058 6.521,-13.5079 11.2782,-25.1151 26.9373,-50.8214 45.7762,-75.14688 11.74,-15.1592 30.1145,-34.0369 33.1169,-34.0241 1.2375,0.01 2.25,0.5236 2.25,1.1518 0,0.6282 -5.0625,6.3732 -11.25,12.7667 -26.5569,27.44128 -50.8158,63.97028 -67.1347,101.09118 -7.7375,17.6006 -12.4855,32.5157 -21.044,66.1058 -8.9714,35.2107 -14.6985,54.815 -19.8971,68.1096 -2.4269,6.2065 -13.2028,30.1894 -23.9464,53.2953 -23.2883,50.0854 -28.2215,61.8265 -42.2217,100.4893 -23.1614,63.962 -29.6164,78.3007 -58.7932,130.6 -21.669,38.8415 -29.0705,51.1149 -53.9129,89.4 -27.678,42.655 -42.8802,68.3908 -62.0239,105 -3.595,6.875 -11.1209,20.825 -16.7242,31 -12.9323,23.484 -29.8218,57.2992 -37.9592,76 -3.4703,7.975 -7.1166,16.3 -8.103,18.5 -0.9863,2.2 -3.676,8.5 -5.977,14 -2.301,5.5 -10.2395,21.3102 -17.6412,35.1338 -7.4016,13.8235 -18.3374,35.7451 -24.3017,48.7145 -12.4222,27.012 -14.0398,30.0222 -16.3739,30.4718 -2.7402,0.5277 -2.0761,-3.5891 1.9114,-11.8483 1.9841,-4.1095 6.9736,-14.8968 11.0879,-23.9718 4.1143,-9.075 13.9488,-28.65 21.8546,-43.5 7.9057,-14.85 16.6749,-32.3783 19.487,-38.9517 2.812,-6.5735 6.3695,-14.6735 7.9054,-18 1.5359,-3.3266 4.7322,-10.5483 7.1029,-16.0483 2.3708,-5.5 10.978,-23.2097 19.1273,-39.3549 8.4976,-16.8354 14.1525,-29.1 13.2592,-28.7572 -1.171,0.4493 -1.0321,-0.1402 0.5598,-2.3759 1.1646,-1.6354 2.7214,-3.3197 3.4596,-3.7427 0.7382,-0.4231 2.3966,-2.5693 3.6853,-4.7693 l 2.3431,-4 -3.4897,2.8091 c -23.0109,18.5231 -43.3989,31.3892 -85.4897,53.9494 -37.6949,20.2041 -84.9221,38.8429 -124.5,49.1357 -7.425,1.931 -27.675,6.4883 -45,10.1273 -105.6922,22.2003 -130.2177,28.3604 -178.6732,44.8775 -23.4088,7.9795 -35.8564,13.0721 -72.3065,29.5828 -17.8862,8.1019 -40.1703,18.0399 -49.5203,22.0845 -38.3561,16.5919 -73.8303,36.149 -109.814,60.5411 -41.6899,28.2601 -53.6557,39.0056 -97.8739,87.8926 -7.4621,8.25 -15.1975,16.5508 -17.1898,18.4462 -2.1744,2.0686 -3.6223,4.3933 -3.6223,5.8157 0,4.4211 -2.913,7.8059 -4.5034,5.2327 z m 1205.5034,-72.686 c 0,-1.4802 6.7166,-17.7927 14.9257,-36.25 8.2091,-18.4572 18.2814,-41.4336 22.3827,-51.0586 4.1014,-9.625 11.6112,-26.5 16.6886,-37.5 10.6202,-23.0086 17.0696,-37.5897 31.183,-70.5 5.5428,-12.925 14.7079,-34.3 20.3669,-47.5 13.8098,-32.2128 26.6319,-59.8942 41.6882,-90 6.8766,-13.75 17.7941,-37.15 24.2612,-52 25.2534,-57.9878 57.2393,-121.6196 91.989,-183 29.5821,-52.2525 53.3289,-99.5738 72.2622,-144 6.6065,-15.5019 47.2558,-118.2076 53.1323,-134.2456 8.9536,-24.4359 15.1637,-54.5296 17.0772,-82.7544 2.3096,-34.0668 -2.7268,-68.585 -15.7785,-108.14188 -12.685,-38.4453 -23.8126,-59.1753 -51.9924,-96.8581 -18.234,-24.3831 -30.1045,-37.8078 -51.1861,-57.8878 -21.7321,-20.6997 -43.816,-37.5963 -65.5,-50.1147 -26.4393,-15.26377 -83.3493,-41.97458 -112.5987,-52.84844 -12.2326,-4.54762 -36.4341,-11.84361 -39.8136,-12.00252 -1.4232,-0.0669 -2.8529,-0.48688 -3.1771,-0.93323 -0.3241,-0.44635 -10.4081,-2.83827 -22.4088,-5.31537 -12.0007,-2.4771 -23.323,-5.13203 -25.1606,-5.89985 -3.4797,-1.45391 -4.3179,-3.18605 -1.9766,-4.08449 1.3201,-0.50658 25.1905,4.20886 46.5494,9.19551 10.2175,2.38548 10.4534,2.3958 12.5,0.54695 7.9328,-7.16622 53.2128,-33.39237 65.213,-37.77131 19.2526,-7.02542 24.9144,-8.7838 36.873,-11.45165 13.7984,-3.07829 19.9584,-3.61839 21.0539,-1.84597 1.314,2.12624 -1.6736,3.29087 -15.6671,6.10726 -16.0703,3.23437 -28.767,7.21443 -40.3154,12.63777 l -7.9286,3.7234 11.9286,7.39189 c 6.5607,4.06554 16.6536,10.62175 22.4286,14.56935 13.7815,9.42063 22.2299,14.24868 35,20.00163 22.7327,10.24116 52.5652,18.06888 78.3757,20.56499 18.7799,1.81617 73.2605,0.63617 92.6243,-2.00615 26.0729,-3.55783 44.7834,-8.66101 74.3162,-20.26933 47.1233,-18.52249 81.0507,-40.87798 116.5564,-76.8015 27.2944,-27.6155 44.5827,-51.59163 60.9347,-84.50644 12.0355,-24.22635 17.3177,-40.67433 21.0671,-65.59956 3.8361,-25.50233 4.4465,-39.53669 3.8177,-87.78557 -1.1454,-87.90019 -7.674,-121.33071 -35.0225,-179.33824 -11.3944,-24.16815 -22.5195,-42.26734 -41.3534,-67.27663 -27.3703,-36.34477 -48.3253,-57.12239 -77.4823,-76.826558 -23.0056,-15.5471 -35.3711,-22.144 -67.8743,-36.21053 -52.9193,-22.9021 -71.9967,-28.62776 -116.4596,-34.95262 -9.9,-1.40828 -23.4,-3.54428 -30,-4.7466596 -10.0718,-1.83487 -15.776,-2.19236 -35.5,-2.22488 -25.0747,-0.0413 -31.8839,0.81639 -46.7961,5.8947796 -7.5726,2.57889 -20.7231,8.97946 -21.7015,10.56253 -0.3638,0.58871 1.0242,1.73325 3.1756,2.6185 2.1021,0.86496 6.522,2.83414 9.822,4.37596 8.0846,3.7773 25.201,10.08671 29.0643,10.71364 4.1579,0.67472 7.8773,-1.38804 13.7976,-7.65203 4.8525,-5.13419 6.8514,-5.8645 7.4602,-2.72556 0.4415,2.27622 -5.811,9.63439 -10.7573,12.6595 -2.2356,1.36734 -4.0648,2.82984 -4.0648,3.25 0,1.91447 -7.0806,0.35497 -19.7398,-4.34772 -16.331,-6.06665 -26.4571,-10.64373 -51.2602,-23.16999 -22.4367,-11.3311596 -29.2897,-13.2183596 -48,-13.2183596 -10.385,0 -13.09,0.32116 -15.9867,1.89808 -6.1267,3.3352496 -11.9973,8.9103996 -16.8207,15.9741196 -3.4697,5.08126 -6.7774,8.35188 -12.6926,12.55007 -10.7253,7.6121 -14.9781,14.67042 -18.0321,29.92728 -0.7093,3.54316 -0.5298,3.59071 5.2934,1.40188 0.8211,-0.30863 1.0456,0.0883 0.6431,1.13723 -0.3401,0.88624 -0.1202,1.61134 0.4886,1.61134 1.5379,0 1.3988,3.97873 -0.143,4.0911 -0.6875,0.0501 -5.75,0.0652 -11.25,0.0336 -8.3518,-0.048 -9.5055,0.12256 -7,1.03504 13.4755,4.90759 28.8546,13.62813 35.75,20.27167 2.897,2.79122 3.695,6.568608 1.3875,6.568608 -0.7494,0 -3.1119,-1.4128 -5.25,-3.139548 -7.9312,-6.40528 -18.4709,-12.68386 -27.0536,-16.11604 -22.8944,-9.15539 -56.7599,-11.85341 -73.7242,-5.87349 -3.2396,1.14198 -6.0669,2.25293 -6.2827,2.46879 -0.2159,0.21586 7.8347,0.1731 17.8902,-0.095 14.5192,-0.38712 20.1355,-0.14037 27.2828,1.1987 34.2979,6.42581 64.8551,26.347118 80.5494,52.512998 2.5952,4.32669 4.9575,6.96668 7.1616,8.00338 2.3073,1.08525 3.3804,2.33528 3.5952,4.18804 0.2641,2.27745 -0.4635,3.08148 -5.2851,5.84012 -7.718,4.41575 -8.8107,3.7693 -7.9958,-4.73009 0.6418,-6.69386 0.608,-6.8194 -3.5721,-13.25785 -5.7228,-8.81449 -18.8764,-22.11631 -27.747,-28.05969 -14.2509,-9.548098 -31.763,-16.464138 -49.5705,-19.576778 -11.0573,-1.93274 -34.096,-1.38965 -45.6357,1.07577 -22.8367,4.87898 -33.2234,11.07976 -43.0515,25.701388 -7.3399,10.91982 -9.9627,13.85931 -12.3659,13.85931 -3.6533,0 -3.6928,-1.02349 -0.2074,-5.3784 1.8142,-2.26688 5.698,-7.63778 8.6307,-11.93534 8.2964,-12.157798 17.0159,-18.705038 31.5882,-23.718638 2.8067,-0.96564 6.2418,-2.89446 7.6336,-4.28626 3.238,-3.23796 12.6978,-8.01541 20.3246,-10.26441 6.1774,-1.8216 16.2762,-2.12856 45.4477,-1.38144 7.425,0.19016 16.453,0.008 20.0622,-0.40436 l 6.5622,-0.75012 1.2681,-6.13964 c 1.6908,-8.18597 6.0455,-17.56012 10.3927,-22.37198 1.9483,-2.15649 6.4224,-5.87393 9.9424,-8.261 4.2901,-2.90923 7.775,-6.36245 10.5704,-10.47426 12.2815,-18.0656296 23.8425,-23.3203696 45.5256,-20.69242957 14.6716,1.77817997 25.4871,5.30298997 40.9309,13.33954957 l 13.7544,7.15749 9.7456,-5.15749 c 11.7733,-6.2306296 24.3244,-10.5122496 37.7455,-12.8763696 12.7705,-2.24951997 43.4817,-2.21658997 57.5,0.0617 5.225,0.84916 19.85,3.11005 32.5,5.02419 40.2915,6.0967296 53.5497,9.1672696 78.2849,18.1304496 14.7684,5.35155 55.1901,22.42024 69.7151,29.43829 21.8606,10.56239 45.7419,25.65314 64,40.44201 24.6929,20.000998 59.6717,61.440188 81.0067,95.968098 13.6332,22.06357 32.197,62.66027 39.7967,87.0304 9.5203,30.52857 13.4451,63.04973 14.6633,121.5 1.1721,56.24024 -0.6238,85.28869 -7.0788,114.5 -6.5141,29.47893 -25.4027,67.89212 -48.3459,98.31979 -28.8194,38.22083 -65.5717,71.16206 -104.042,93.25333 -27.7264,15.92167 -71.1898,32.59942 -101.1046,38.79581 -42.2662,8.7548 -104.7464,9.1871 -143.3954,0.99214 -32.0487,-6.79546 -57.978,-17.71152 -85,-35.78449 -20.0698,-13.42319 -37.3711,-24.07889 -39.0726,-24.06453 -0.7851,0.007 -3.4524,1.18154 -5.9274,2.61092 -2.475,1.42939 -8.325,4.63615 -13,7.12613 -8.7842,4.6786 -21.3805,12.76021 -26.3283,16.89182 -1.9519,1.62994 -2.4167,2.51143 -1.5,2.8448 0.7306,0.26568 8.0796,2.71366 16.3312,5.43996 19.0039,6.27884 40.8099,15.26427 45.9971,18.95363 5.551,3.94808 9.0065,5.61191 17.0496,8.20926 14.2103,4.58896 45.5103,20.06037 69.2824,34.24596 11.2895,6.7368 27.888,18.8491 41.142,30.022 13.8127,11.6439 39.5468,37.2678 50.3036,50.0882 21.067,25.1084 42.777,56.011 53.0799,75.5553 14.0132,26.5826 27.9074,69.69538 33.3556,103.49998 2.5495,15.819 2.5265,61.1698 -0.039,77.5 -5.9849,38.0906 -9.3075,47.8958 -55.4047,163.5 -24.8404,62.2959 -46.1073,106.2035 -85.2467,176 -39.149,69.8139 -67.3277,126.1156 -95.3666,190.5449 -4.6781,10.7497 -14.9697,32.5747 -22.8701,48.5 -17.7359,35.7511 -25.3162,52.2592 -42.4542,92.4551 -7.3867,17.325 -17.0081,39.71 -21.3809,49.7444 -4.3728,10.0344 -7.9506,18.6335 -7.9506,19.1091 0,0.4757 -1.5316,4.1907 -3.4035,8.2557 -19.5147,42.377 -27.6486,60.4117 -33.2451,73.7119 -11.4887,27.3027 -36.4324,82.6087 -38.0787,84.4289 -2.2369,2.4734 -3.2727,2.1755 -3.2727,-0.9414 z m -634,-360.3418 c -16.3832,-1.0797 -24.6756,-2.1711 -45.5,-5.989 -8.8,-1.6133 -23.425,-4.0843 -32.5,-5.4911 -49.0279,-7.5999 -78.8063,-14.4174 -107,-24.4966 -37.2983,-13.3341 -69.3752,-28.795 -94,-45.3074 -23.0776,-15.4749 -74.9171,-62.7252 -108.8975,-99.2572 -53.8018,-57.8417 -64.5933,-70.7039 -84.6017,-100.8356 -11.1438,-16.782 -27.0025,-43.7242 -34.5265,-58.657 -8.2565,-16.3866 -22.4149,-49.0304 -26.0363,-60.0298 -7.873,-23.9128 -15.3223,-59.0624 -17.8877,-84.4031 -0.6124,-6.05 -1.7254,-21.125 -2.4732,-33.5 -1.5144,-25.0587 -1.2462,-23.9832 -13.5633,-54.4007 -5.4578,-13.4783 -12.11098,-33.6887 -16.77318,-50.9515 -2.6105,-9.666 -2.7375,-11.1923 -2.6747,-32.1478 0.064,-21.46968 0.1429,-22.28928 3.2608,-33.99998 8.6973,-32.6677 32.07278,-65.6262 59.21018,-83.4843 34.4224,-22.6521 70.5746,-32.6491 140.9631,-38.9798 55.5582,-4.9969 65.0808,-5.3968 133.5,-5.6059 73.7959,-0.2255 71.8726,-0.069 92,-7.5109 63.6449,-23.5338 84.2899,-30.0585 104.2806,-32.9573 13.2585,-1.9227 55.6777,-0.7518 70.7194,1.952 37.4759,6.7364 59.8989,13.8481 98,31.0819 21.0126,9.5044 32.348,16.0666 48.062,27.824 17.047,12.7547 25.8526,21.2916 41.7258,40.4529 29.6894,35.8394 37.5404,46.995 48.8015,69.3425 19.6044,38.90468 26.5472,64.95388 32.6187,122.38488 2.3983,22.6864 2.4058,104.6955 0.014,151 -0.9234,17.875 -2.1424,43.3 -2.7089,56.5 -0.5665,13.2 -1.4777,29.625 -2.025,36.5 -1.1537,14.4945 -3.4469,51.3134 -5.5121,88.5 -3.046,54.8485 -4.3713,66.9644 -9.1221,83.3913 -5.3962,18.6589 -16.09,43.4546 -26.1179,60.5595 -14.7378,25.1386 -43.6733,52.2288 -69.7357,65.2882 -20.3531,10.1985 -32.6577,12.8813 -95.5,20.8215 -23.1683,2.9273 -53.5134,3.8881 -76,2.4063 z m 0.9056,-9.6172 c 1.9769,-1.4577 5.4549,-4.4253 7.7289,-6.5948 l 4.1344,-3.9445 -1.2628,-4.6551 c -0.6946,-2.5604 -2.2236,-7.0496 -3.3978,-9.976 -2.0246,-5.0459 -2.0505,-5.4987 -0.5012,-8.7637 1.9072,-4.0191 13.6965,-15.3149 21.8319,-20.918 l 5.6607,-3.8986 3.3782,1.8193 c 1.858,1.0006 4.789,3.5748 6.5133,5.7205 1.7243,2.1457 3.546,3.6473 4.0481,3.337 2.5847,-1.5974 28.8445,-33.902 44.6887,-54.9757 19.0466,-25.3331 33.3707,-42.9217 51.7141,-63.5 24.7702,-27.7883 40.1184,-46.9288 60.5408,-75.5 7.8627,-11 20.6786,-28.55 28.4798,-39 19.2045,-25.7253 25.8797,-35.6081 34.8102,-51.5378 l 7.5896,-13.5379 2.0422,-29.0349 c 3.9001,-55.4514 4.525,-80.7659 3.2682,-132.3894 -0.9276,-38.0965 -2.4065,-66.4432 -3.5299,-67.6542 -0.079,-0.085 -5.2132,0.5552 -11.4102,1.4222 -7.7978,1.0909 -12.4166,1.2924 -15,0.6542 -3.641,-0.8995 -3.7401,-1.0471 -4.0291,-5.9991 -0.4653,-7.9739 3.2237,-31.1329 5.3299,-33.4602 1.4776,-1.6328 3.0958,-1.9629 9.6214,-1.9629 9.4631,0 9.2828,0.6214 4.2399,-14.6107 -7.3954,-22.3382 -25.0717,-58.83858 -37.4621,-77.35678 -9.4657,-14.1473 -31.0943,-40.2103 -44.1068,-53.1501 -23.0847,-22.9558 -48.5486,-39.6907 -85.9107,-56.4607 -41.2676,-18.523 -85.197,-28.3765 -126.6653,-28.4114 l -12.25,-0.0103 v 5.5 c 0,6.6843 -1.8632,8.9727 -8.1442,10.0029 -2.3957,0.393 -9.2829,1.8168 -15.305,3.1642 -6.0221,1.3473 -11.9272,2.2043 -13.1224,1.9043 -2.1729,-0.5454 -3.4284,-3.9131 -3.4284,-9.1964 0,-1.3062 -0.5676,-2.375 -1.2614,-2.375 -1.5399,0 -27.5237,9.3158 -41.2386,14.785 -34.5633,13.7831 -60.5968,19.215 -92.0925,19.215 h -13.3807 l -1.4287,3.4195 c -0.7858,1.8807 -2.3373,3.9057 -3.4477,4.5 -2.1237,1.1366 -25.8173,1.5293 -28.5686,0.4735 -1.1442,-0.439 -1.5818,-1.9607 -1.5818,-5.5 v -4.893 h -4.2529 c -3.6028,0 -5.399,0.8547 -11.75,5.5908 -4.1234,3.0749 -10.0647,7.4011 -13.2029,9.6139 -6.3484,4.4762 -6.119,3.8218 -7.2904,20.7953 -0.374,5.4194 -1.1133,9.0288 -2.0399,9.959 -1.0655,1.0696 -5.339,1.6499 -16.0154,2.1747 -9.5059,0.4672 -15.15,1.1717 -16.2553,2.0289 -6.3747,4.9441 -20.8712,17.5659 -33.2502,28.9502 -22.1404,20.3611 -39.8333,39.1841 -70.5744,75.08178 -27.3768,31.9691 -44.8818,51.1657 -73.2226,80.2987 -21.4387,22.0379 -37.146,39.3238 -37.146,40.8793 0,0.3451 3.623,0.6274 8.051,0.6274 h 8.0511 l 1.5912,3.75 c 1.035,2.4392 1.7638,8.0394 2.0848,16.0212 0.5866,14.5842 0.047,15.6961 -8.1081,16.6989 -2.8435,0.3497 -6.4721,0.8869 -8.0635,1.1938 l -2.8936,0.5581 0.609,9.2707 c 0.8967,13.6505 4.5327,37.5168 7.5425,49.5073 l 2.6356,10.5 13.431,0.1373 c 15.2981,0.1565 15.3923,0.2041 16.4683,8.3149 0.7246,5.4622 -1.1225,27.5829 -2.5262,30.254 -0.9192,1.7491 -6.6094,3.7783 -10.6231,3.7882 -1.2375,0 -2.25,0.1963 -2.25,0.4294 0,1.5988 12.5596,29.8344 19.0094,42.7355 16.6418,33.2874 44.4744,74.9477 68.0395,101.8426 14.4523,16.4946 72.1281,78.1619 87.4511,93.5035 24.4785,24.5081 65.7549,59.0781 82.9151,69.4433 10.4187,6.2932 47.604,24.4073 63.8773,31.1167 20.7673,8.5621 56.9888,19.0534 58.9638,17.0784 1.3262,-1.3262 3.5737,-10.6935 5.2395,-21.8372 1.7835,-11.9319 2.1368,-13.0396 4.5759,-14.3449 5.5201,-2.9543 33.2175,-1.6543 35.6507,1.6732 2.0267,2.7717 1.4944,12.312 -1.2836,23.0056 -2.9391,11.314 -4.6161,13.5837 -11.8323,16.0138 l -5.1064,1.7196 6,1.2599 c 6.359,1.3352 90.5522,14.9953 96.5,15.6568 7.3229,0.8145 8.4087,0.6375 11.9056,-1.941 z m -44.0516,-82.0565 c -1.4554,-0.2232 -3.4415,-1.2848 -4.4137,-2.3591 -1.6822,-1.8587 -1.6865,-2.618 -0.09,-15.6936 0.9229,-7.5572 1.6715,-15.2259 1.6637,-17.0414 -0.021,-4.8716 4.2969,-6.3645 18.9493,-6.5517 12.1188,-0.1547 16.9753,1.1452 18.4288,4.9329 0.6712,1.7491 -0.8378,15.9378 -2.4751,23.2719 -1.2915,5.7855 -3.4966,9.8886 -5.6563,10.5252 -5.8607,1.7272 -22.3128,3.5438 -26.407,2.9158 z m -67.5493,-60.3129 c -14.496,-3.2745 -15.0222,-4.4105 -6.7292,-14.5279 10.6243,-12.9614 22.8838,-26.4523 24.0379,-26.4523 1.6969,0 2.022,4.1403 1.2983,16.5342 -0.9477,16.2299 -4.4181,26.614 -8.8167,26.3815 -0.8772,-0.046 -5.2829,-0.9174 -9.7903,-1.9355 z m 143.3042,-1.5141 c -1.3055,-1.3056 -1.4467,-4.0232 -0.9482,-18.25 0.6732,-19.2113 -0.075,-17.7233 11.9139,-23.6933 7.3497,-3.6598 13.9443,-4.6039 16.2254,-2.3228 1.5461,1.5461 1.5985,18.8478 0.083,27.5478 -0.6865,3.9418 -1.9384,7.3 -3.25,8.7179 -1.8873,2.0401 -18.7484,9.5343 -21.4512,9.5343 -0.5717,0 -1.7297,-0.6903 -2.5734,-1.5339 z m 73.3911,-62.7604 c -2.9374,-1.4861 -2.8777,-0.4989 -1.0906,-18.0371 1.2286,-12.0572 1.6775,-14.006 3.5,-15.1929 1.1591,-0.7549 7.4376,-1.8324 14.0906,-2.4182 11.3213,-0.9969 12.0903,-0.948 13.5956,0.8631 2.9989,3.608 3.2065,22.7218 0.332,30.5794 -1.8707,5.1138 -2.9881,5.5009 -15.8326,5.4853 -7.7391,-0.01 -12.9954,-0.4703 -14.595,-1.2796 z m -137.7261,-4.091 c -11.7393,-1.5908 -11.7026,-1.5321 -11.5641,-18.503 0.074,-9.0168 0.5541,-14.7399 1.3654,-16.2624 2.8191,-5.2908 7.568,-10.87 9.7637,-11.4708 3.4313,-0.9388 21.279,1.3108 22.8481,2.8799 0.7385,0.7385 1.8272,4.0935 2.4194,7.4555 1.3682,7.7674 -0.09,33.3568 -2.0347,35.6997 -1.5564,1.8753 -9.9003,1.9489 -22.7978,0.2011 z m 215.7261,-53.2898 c -15.4614,-1.4675 -15.3769,-1.3532 -13.964,-18.9027 1.2514,-15.5416 2.3289,-20.0119 5.1931,-21.5448 2.6119,-1.3978 21.6331,-0.5567 24.7155,1.0929 2.8578,1.5295 3.5082,4.8766 3.5035,18.0297 0,11.2823 -1.241,17.8093 -3.7493,19.7837 -1.4069,1.1075 -10.6787,2.0177 -15.6988,1.5412 z m -141,-9.3416 c -7.3603,-1.0097 -8.9052,-1.7575 -9.6346,-4.6635 -1.1218,-4.4697 0.1672,-29.6465 1.6371,-31.9752 2.1901,-3.4698 21.6006,-5.8178 25.3613,-3.0678 2.5496,1.8642 3.5878,7.4865 4.2951,23.2577 0.7726,17.2302 0.6073,17.5324 -9.4803,17.3344 -3.6732,-0.072 -9.1536,-0.4706 -12.1786,-0.8856 z m 204.6924,-49.0263 c -7.895,-1.3264 -8.024,-1.6009 -7.2475,-15.4253 1.0855,-19.3254 2.3433,-28.7485 4.0676,-30.4728 2.1461,-2.146 15.1465,-1.6775 17.7052,0.6381 4.2662,3.8609 0.4434,39.499 -4.7992,44.7417 -1.6928,1.6927 -2.4849,1.7349 -9.7261,0.5183 z m -690.0257,-6.6237 c -1.6116,-1.6116 0.3354,-33.5785 2.3713,-38.9333 0.8824,-2.3208 9.7662,-5.5582 23.3091,-8.4941 l 5.8472,-1.2676 -0.6689,-6.5692 c -2.6234,-25.7632 -8.5227,-62.8287 -10.5121,-66.0477 -0.6866,-1.1108 -2.6021,-0.8892 -10.675,1.2351 -14.8289,3.902 -17.5985,4.1851 -20.0574,2.0507 -2.7554,-2.3917 -9.2382,-30.566 -7.6225,-33.1274 0.7972,-1.2639 15.5153,-8.0662 24.8366,-11.4788 1.3151,-0.4815 -7.3872,-26.6938 -12.9986,-39.1536 -2.421,-5.3755 -6.7536,-13.5076 -9.628,-18.0715 l -5.2262,-8.2979 -6.0564,0.161 -6.0563,0.161 -1.2675,-5 c -2.8696,-11.3198 -4.4509,-23.2786 -3.3501,-25.3355 3.1948,-5.9695 33.2252,-13.8989 38.9347,-10.2805 1.7505,1.1094 3.9371,11.3319 4.7817,22.3548 l 0.6696,8.7388 -3.399,1.4134 c -1.8694,0.7773 -7.1114,2.428 -11.6489,3.668 -4.5375,1.2401 -8.25,2.6254 -8.25,3.0785 0,0.453 1.6403,3.3878 3.6451,6.5218 6.1003,9.5364 13.9774,27.0218 19.435,43.1415 l 5.1804,15.3009 2.804,-0.6159 c 3.9405,-0.8654 8.8367,-0.9179 9.6512,-0.1034 1.1165,1.1165 4.1644,22.5564 4.2268,29.7327 0.046,5.248 -0.3733,7.1628 -2.0267,9.2648 l -2.0843,2.6497 2.6002,13.2352 c 1.4301,7.2794 3.7264,21.1102 5.1028,30.7352 4.4708,31.2629 4.085,29.8424 8.3135,30.6035 4.9015,0.8822 6.153,2.0568 6.1467,5.7689 -0.01,3.2238 -3.0311,22.1022 -5.0269,31.3661 -1.7773,8.2495 -2.8991,9.0552 -14.9678,10.7502 -10.947,1.5374 -25.1839,1.9941 -26.3333,0.8446 z m 545.585,-1.1419 c -3.0491,-0.4476 -3.323,-2.0829 -3.5533,-21.2152 l -0.1984,-16.4762 6.5,-2.2146 c 7.6322,-2.6003 15.1944,-2.961 16.9797,-0.8099 1.3717,1.6529 2.756,32.457 1.6556,36.8415 -0.4929,1.9637 -1.4405,2.7184 -3.8934,3.1008 -4.5725,0.7128 -14.8177,1.1659 -17.4902,0.7736 z m -171.7545,-24.1621 c -15.6768,-2.2302 -41.4197,-9.9644 -53.8603,-16.1817 -11.2249,-5.6098 -22.0894,-13.5755 -30.7042,-22.5119 -10.7919,-11.1949 -15.5534,-18.2356 -23.45,-34.6746 -18.3272,-38.1534 -22.2531,-72.9599 -11.7925,-104.5506 7.5557,-22.8181 24.5391,-44.5571 39.994,-51.1929 26.42,-11.3438 65.7461,-7.6247 100.8158,9.5343 35.6695,17.4525 58.6638,43.2795 74.8332,84.052 10.1111,25.4961 8.7446,62.5432 -3.2827,88.9961 -7.2223,15.8849 -23.9608,31.9078 -40.6235,38.8868 -16.5981,6.952 -36.3502,9.8589 -51.9298,7.6425 z m 23.3571,-3.0703 c 20.1979,-2.5326 41.1538,-12.5652 52.9288,-25.3395 15.5291,-16.8471 22.4614,-37.5718 22.6181,-67.6195 0.098,-18.7419 -1.175,-26.0904 -7.0367,-40.6273 -17.9241,-44.4511 -48.5781,-73.8751 -91.8645,-88.1786 -16.8441,-5.566 -24.2459,-6.6716 -44.5,-6.6468 -17.4568,0.021 -18.96,0.1764 -26.6574,2.7519 -15.0732,5.0432 -25.729,14.2743 -35.9904,31.1784 -10.5867,17.4399 -14.8755,34.2862 -14.7718,58.0224 0.064,14.682 0.3299,16.9672 3.225,27.7408 9.241,34.3886 24.7207,62.2782 43.0712,77.6009 19.2784,16.0974 49.5831,27.7966 81.6234,31.5109 6.0293,0.6989 9.2184,0.6266 17.3543,-0.3936 z m -24.3543,-35.3618 c -26.227,-7.0037 -41.084,-14.9739 -58.7147,-31.4983 -13.4416,-12.5981 -21.2698,-24.7728 -24.7261,-38.4554 -8.3315,-32.9815 4.0618,-73.871 26.7981,-88.4152 6.4429,-4.1215 14.9707,-5.8744 33.1427,-6.8127 16.0973,-0.8311 25.4508,0.5276 38.327,5.5676 15.3238,5.998 24.6897,11.9597 35.9898,22.9083 11.351,10.9978 17.142,18.6385 22.1291,29.1973 5.1423,10.8871 6.3814,17.316 7.4032,38.4112 0.8538,17.6278 0.777,19.4694 -1.0631,25.5 -6.1145,20.039 -21.7184,36.6879 -40.6595,43.3824 -9.0456,3.1971 -27.0828,3.2974 -38.6265,0.2148 z m 38.6464,-3.8367 c 12.0753,-4.4277 25.3139,-15.707 31.9779,-27.2453 6.771,-11.7237 8.0037,-21.8416 5.9272,-48.6485 -1.4498,-18.7155 -6.8824,-31.201 -20.5167,-47.1523 -12.5361,-14.6666 -28.358,-24.9946 -48.8388,-31.8805 -8.4199,-2.8309 -10.3353,-3.0964 -22.696,-3.1459 -13.2769,-0.053 -30.0621,1.6247 -34.9878,3.4975 -4.9432,1.8794 -12.9939,9.0997 -17.4479,15.6481 -9.1305,13.4241 -13.495,27.8937 -14.2695,47.3071 -1.0019,25.1148 3.9973,38.6647 20.7322,56.1926 15.5384,16.2747 26.9666,23.9463 46.473,31.1965 21.4547,7.9744 39.5454,9.4011 53.6464,4.2307 z m -31.3155,-45.7289 c -8.5807,-1.5486 -15.2792,-3.9194 -21.3309,-7.5496 -18.0439,-10.8239 -27.4597,-28.6436 -24.8194,-46.9711 1.3461,-9.3432 5.7696,-18.6203 11.7975,-24.7418 5.7933,-5.8834 14.3833,-8.9568 25.2778,-9.0442 6.9574,-0.056 7.7727,0.2006 19.8144,6.2313 15.3644,7.6948 23.5053,13.5984 25.1948,18.2707 0.678,1.8749 3.0586,5.8533 5.2904,8.841 2.2317,2.9876 5.4322,8.2207 7.1122,11.6289 2.5734,5.2209 3.0545,7.3636 3.0545,13.6047 0,15.1754 -7.2936,24.1816 -22.7222,28.0575 -7.5687,1.9014 -22.5564,2.7758 -28.6691,1.6726 z m 30.915,-5.5665 c 6.5349,-2.2003 12.9524,-7.5911 15.368,-12.9093 2.9349,-6.4615 2.5594,-16.8255 -0.8554,-23.6095 l -2.7414,-5.4463 -0.7987,6 c -0.4393,3.3 -0.9396,8.475 -1.112,11.5 -0.4154,7.2931 -2.1645,13.2901 -4.49,15.3946 -3.6972,3.346 -11.7607,5.6054 -20.0047,5.6054 -9.4939,0 -11.1242,-1.1413 -8.6008,-6.0211 0.9001,-1.7406 1.3632,-3.4382 1.029,-3.7724 -0.5934,-0.5933 -11.3996,-4.1626 -12.6911,-4.1918 -0.3582,-0.01 -1.5805,1.5603 -2.7163,3.4853 -2.5092,4.2527 -4.3627,4.3741 -10.2064,0.6681 -5.3218,-3.375 -9.1859,-7.7739 -12.3996,-14.1159 -4.9754,-9.8184 -4.1547,-15.0964 2.5772,-16.575 2.7803,-0.6106 2.8963,-0.8635 2.8963,-6.3139 v -5.6777 l -4.5,0.3579 c -3.6601,0.2911 -4.5,0.05 -4.5,-1.2925 0,-4.526 7.9926,-14.4862 14.1419,-17.6234 2.878,-1.4682 5.8613,-1.9276 12.5183,-1.9276 10.1763,0 10.4847,-1.8138 0.4629,-2.7226 -15.2931,-1.3867 -27.4271,5.247 -33.7465,18.4492 -12.0364,25.1458 3.3609,53.2018 33.9171,61.8021 7.197,2.0257 29.1825,1.3842 36.4522,-1.0636 z m -0.4504,-9.3661 c 3.7717,-1.8259 4.8461,-2.948 5.6731,-5.9257 1.5195,-5.4709 1.3928,-5.5571 -3.2578,-2.2173 -4.3851,3.1491 -13.5194,5.4298 -17.538,4.3789 -1.5165,-0.3965 -2.4148,0.2325 -3.5971,2.5186 -0.8666,1.676 -1.5757,3.3523 -1.5757,3.7253 0,1.6304 15.7904,-0.2989 20.2955,-2.4798 z m -38.3177,-9.8804 c 0.012,-0.7047 -0.683,-1.552 -1.545,-1.8828 -2.0829,-0.7992 -11.0492,-13.6435 -12.4166,-17.7867 l -1.0811,-3.2758 -3.4064,1.544 c -3.0548,1.3846 -3.3462,1.8608 -2.8232,4.6133 1.3121,6.9052 6.716,14.689 13.7205,19.7631 l 3.9978,2.8959 1.7659,-2.2948 c 0.9712,-1.2621 1.7758,-2.8714 1.7881,-3.5762 z m 34.7677,1.2433 c 4.7111,-1.9685 7.0337,-4.0987 9.2257,-8.4619 3.8586,-7.6804 3.3425,-16.0943 -1.6727,-27.2697 -4.9538,-11.0384 -18.9815,-18.9839 -33.7985,-19.1439 -10.4373,-0.1127 -13.833,1.7559 -17.9947,9.902 -3.908,7.6494 -4.2124,17.5238 -0.7556,24.5116 3.2934,6.6576 9.287,14.1177 13.1591,16.3789 8.6348,5.0426 24.6304,7.0939 31.8367,4.083 z m -19.2455,-6.5202 c -1.65,-0.4828 -5.4331,-2.3548 -8.4069,-4.1598 -17.0087,-10.324 -14.7655,-36.7729 3.1194,-36.7803 4.5662,0 13.3943,3.2816 16.87,6.2745 9.4514,8.139 12.8537,21.5005 7.8537,30.8431 -2.2959,4.2899 -11.5916,6.1181 -19.4362,3.8225 z m 15.7222,-4.7195 c 2.5385,-2.5385 3.4872,-10.5427 1.8408,-15.5312 -3.2276,-9.7799 -12.6719,-16.9041 -22.5992,-17.0476 -6.3548,-0.092 -8.6049,1.5407 -11.0893,8.0461 -1.587,4.1555 -1.5895,4.7872 -0.038,9.7084 0.9126,2.895 3.1227,6.9318 4.9115,8.9706 6.7369,7.6786 21.8663,10.9618 26.9744,5.8537 z m -45.1837,-32.4722 c 0.7046,-1.7875 2.3797,-4.7421 3.7223,-6.5657 1.3427,-1.8236 2.2587,-3.4982 2.0356,-3.7212 -1.2283,-1.2283 -12.7964,10.4197 -12.7964,12.8848 0,0.3586 1.2954,0.6521 2.8787,0.6521 2.3183,0 3.1281,-0.6327 4.1598,-3.25 z m 262.1921,120.5671 c -5.4555,-0.7454 -6.0739,-2.8687 -5.7327,-19.6812 0.2236,-11.0186 0.6606,-15.2229 1.6889,-16.2513 2.2848,-2.2848 20.267,-5.9623 23.5409,-4.8143 3.3708,1.1821 4.575,5.2892 6.3829,21.7703 1.9913,18.1539 1.3769,19.1157 -12.3226,19.2913 -5.6584,0.073 -11.7592,-0.069 -13.5574,-0.3148 z m -523.5484,-25.7029 c -0.9716,-2.5318 -1.0254,-25.1784 -0.064,-26.8964 0.6802,-1.2156 4.5752,-2.3719 13.8889,-4.1233 7.1189,-1.3387 13.2921,-2.2186 13.7182,-1.9552 1.846,1.1408 0.2419,3.7252 -8.3373,13.4327 -5.0116,5.6708 -10.9156,12.6994 -13.1201,15.6192 -4.1982,5.5604 -5.2077,6.2112 -6.0857,3.923 z m 456.8178,-35.1503 c -1.65,-0.7555 -3.9859,-1.394 -5.191,-1.4188 -3.9937,-0.082 -3.4999,-1.9884 2.6698,-10.3064 10.6528,-14.362 10.469,-14.1646 12.4705,-13.3965 1.6897,0.6484 1.7859,1.5754 1.1634,11.2039 -0.8518,13.1757 -1.6521,15.4806 -5.3379,15.3727 -1.5262,-0.045 -4.1248,-0.6994 -5.7748,-1.4549 z m 131.8891,-0.4436 c -1.161,-0.4691 -2.4231,-1.6664 -2.8046,-2.6607 -1.0402,-2.7108 0.5332,-32.143 1.8099,-33.8541 1.6058,-2.1524 29.091,-5.4201 30.844,-3.6671 0.8725,0.8725 1.2454,5.4743 1.2521,15.4521 0.01,15.2622 -1.6363,22.6468 -5.5118,24.7209 -2.2382,1.1978 -22.6296,1.2049 -25.5896,0.01 z m -82.6726,-60.6371 c -1.0252,-1.0252 -0.8844,-11.225 0.2366,-17.136 0.6732,-3.5498 2.9203,-7.9657 7.6512,-15.0362 l 6.698,-10.0104 6.0988,-0.5689 c 8.7621,-0.8174 13.8079,0.3175 15.3057,3.4425 1.3836,2.8867 0.3039,21.0265 -1.7331,29.1158 -1.729,6.8667 -3.7684,8.5433 -11.1846,9.1954 -15.5164,1.3642 -22.4081,1.6622 -23.0726,0.9978 z m -522.8441,-13.0345 c -1.0416,-1.2533 -1.3724,-5.6472 -1.3724,-18.2324 v -16.5812 l 2.6741,-1.2857 c 3.3257,-1.5991 33.8141,-3.6612 35.1011,-2.3742 0.5032,0.5032 0.8528,7.8104 0.777,16.2383 -0.1544,17.1771 -0.3661,17.7651 -7.1243,19.79 -3.6678,1.0989 -23.1174,4.0297 -27.0555,4.077 -0.8951,0.011 -2.2451,-0.7236 -3,-1.6318 z m 470.2987,-15.851 c -17.6941,-7.6568 -68.03,-32.7367 -81.9712,-40.8423 -30.8799,-17.954 -46.9729,-29.5247 -74.6999,-53.7083 -6.05,-5.2768 -15.1924,-13.107 -20.3165,-17.4005 -5.124,-4.29348 -10.9015,-9.30118 -12.8388,-11.12828 -3.4685,-3.2712 -3.7309,-5.4183 -0.6622,-5.4183 1.5481,0 14.8465,10.8756 37.5321,30.69428 36.0488,31.4929 61.1863,47.6863 115.2854,74.266 18.7,9.1876 37.6,18.2091 42,20.0479 7.9487,3.3218 11.5,5.5287 11.5,7.1468 0,1.9511 -6.1545,0.5291 -15.8289,-3.6573 z m -379.1636,-44.3482 c -7.115,-0.8414 -7.683,-2.0516 -8.5854,-18.2919 l -0.7016,-12.6284 2.6602,-1.743 c 2.4288,-1.5914 3.9346,-1.647 17.3148,-0.6395 8.0601,0.6069 15.0708,1.5196 15.5794,2.0282 1.1925,1.1925 3.1721,24.2081 2.3604,27.4422 -0.3399,1.3543 -1.2763,2.7149 -2.0809,3.0237 -2.456,0.9424 -20.7124,1.4986 -26.5469,0.8087 z m -118.6714,-39.2838 c -1.9427,-2.4099 -10.4868,-24.8441 -10.1445,-26.6363 0.4457,-2.3342 21.8796,-8.28278 30.7763,-8.54138 l 6.4679,-0.188 5.3155,6.99998 c 2.9235,3.85 6.7237,9.8357 8.4448,13.3016 2.8891,5.8179 3.0045,6.4264 1.5036,7.9273 -1.6558,1.6557 -23.7342,6.5666 -35.2312,7.8364 -4.5314,0.5004 -6.3054,0.3265 -7.1324,-0.6996 z m 187.8036,-6.6157 c -0.5118,-0.9625 -1.0901,-7.77 -1.2852,-15.1277 -0.3311,-12.49528 -0.2226,-13.46168 1.6455,-14.64978 4.6206,-2.9387 32.4512,-5.9213 34.6582,-3.7143 1.3332,1.3332 3.2088,21.47178 2.4009,25.77838 -0.3726,1.9864 -1.5977,4.0753 -2.8558,4.8696 -1.887,1.1914 -25.2306,4.5938 -31.5173,4.5938 -1.1636,0 -2.5344,-0.7875 -3.0463,-1.75 z m -106.6097,-48.37468 c -2.324,-6.3494 -6.272,-21.4907 -5.7213,-21.9425 1.8221,-1.4948 23.355,-10.9309 24.9135,-10.9175 0.9778,0.01 2.3019,0.3488 2.9426,0.7563 2.2441,1.4277 11.8718,17.8208 13.803,23.5024 2.9655,8.7241 2.5859,8.9202 -18.3885,9.503 -13.8742,0.3856 -17.1395,0.2178 -17.5493,-0.9017 z m 181.1125,-9.022 c -1.2463,-11.9233 -0.7945,-23.4822 0.9751,-24.9509 1.0356,-0.8595 6.6231,-1.6839 15.5308,-2.2916 14.6189,-0.9972 16.6602,-0.5949 15.4171,3.0385 -0.9649,2.8203 -27.9114,30.3507 -29.7069,30.3507 -1.1912,0 -1.7298,-1.494 -2.2161,-6.1467 z m -102.5003,-34.7443 c -0.7468,-0.4731 -2.4158,-5.9735 -3.7089,-12.2229 -3.1994,-15.4628 -3.6256,-14.9468 14.1942,-17.1809 15.4103,-1.9319 21.1679,-2.1204 23.313,-0.7631 1.4267,0.9027 2.9011,10.0665 3.0081,18.6971 0.09,7.2212 -1.4237,8.0984 -17.8877,10.3693 -16.3038,2.2487 -17.0391,2.2915 -18.9187,1.1005 z m 81.0032,-44.859 c -0.5087,-0.9625 -2.3729,-6.4566 -4.1427,-12.2092 l -3.2177,-10.4591 2.5584,-2.2006 c 4.8524,-4.1739 13.3949,-6.7133 22.8775,-6.8007 11.6813,-0.1077 12.2724,0.4962 14.1122,14.4203 1.8739,14.1823 2.0818,13.9143 -12.9528,16.7026 -14.7744,2.74 -18.0267,2.8325 -19.2349,0.5467 z m 291.1557,758.28518 c 23.6321,-6.4768 36.8122,-13.3582 55.64,-29.0497 18.0292,-15.0259 29.8406,-30.7164 46.2845,-61.4855 7.4996,-14.0328 14.0611,-30.3027 17.1399,-42.5 2.8474,-11.2808 6.0027,-28.8955 5.4649,-30.5089 -0.1955,-0.5865 -5.0749,4.8974 -10.8429,12.1866 -13.5251,17.0916 -55.1664,68.3967 -69.9875,86.2297 -23.2421,27.9653 -44.4542,53.2209 -48.7128,57.9984 -4.5598,5.1155 -8.7102,10.5942 -8.0258,10.5942 0.2187,0 6.0866,-1.5592 13.0397,-3.4648 z M 1008.9217,995.31992 c 28.6032,-33.9343 94.4348,-101.9273 113.4621,-117.1873 5.4441,-4.3662 11.2941,-9.1774 13,-10.6917 l 3.1016,-2.7532 -4.5,0.6255 c -9.1475,1.2716 -31.4111,7.4757 -44.755,12.4717 -26.422,9.8926 -39.8822,18.1349 -55.245,33.8292 -14.4433,14.755 -27.1145,33.0263 -33.7636,48.6859 -5.27998,12.4351 -9.24548,33.7337 -9.19648,49.39408 l 0.024,7.5 2.1546,-2.8912 c 1.185,-1.5902 8.25828,-10.1326 15.71828,-18.98298 z M 347.98542,1554.7485 c 0,-3.791 22.24093,-29.4556 45.42032,-52.4122 44.54989,-44.1215 66.62909,-62.037 81.57968,-66.1953 l 2.5,-0.6953 -2.5,2.7433 c -1.375,1.5089 -7.09605,5.8388 -12.71344,9.6221 -5.61739,3.7833 -14.19497,10.2192 -19.0613,14.3022 -17.07409,14.3254 -60.59029,57.0158 -72.50422,71.1282 -20.47415,24.2523 -22.72104,26.3792 -22.72104,21.507 z m 218.25116,-168.5709 c -7.60608,-1.6523 -15.70694,-5.9105 -18.37655,-9.6596 -2.58415,-3.6291 -7.03207,-21.202 -6.66291,-26.3239 0.23332,-3.2372 0.66968,-4 2.2883,-4 1.70525,0 2.09802,0.8884 2.66509,6.028 0.84857,7.6909 3.53287,18.0814 5.41218,20.9496 1.97843,3.0195 9.78183,7.0669 16.22195,8.414 8.09687,1.6936 34.12232,1.4764 34.80031,-0.2904 0.91066,-2.3731 -4.57966,-11.7584 -9.97201,-17.0464 -3.3523,-3.2874 -6.5093,-5.3791 -9.11863,-6.0415 -2.62535,-0.6666 -4.11349,-1.6573 -4.34875,-2.8953 -0.32477,-1.7091 0.17209,-1.8381 5.40724,-1.404 4.24011,0.3517 6.20869,1.0262 7.44285,2.5503 1.64856,2.0359 1.93911,1.8107 16.57137,-12.846 13.9367,-13.96 18.4184,-17.1971 18.4184,-13.3034 0,0.8882 -6.59035,8.2975 -14.64522,16.4652 l -14.64522,14.8503 2.72527,3.573 c 1.49889,1.9652 4.03979,6.4722 5.64642,10.0155 l 2.92116,6.4425 4.7488,-0.6938 c 7.97834,-1.1655 10.66443,-0.9399 11.03643,0.927 0.44902,2.2534 -4.10067,3.4029 -18.78764,4.7465 -15.32693,1.4022 -32.07539,1.2094 -39.74884,-0.4576 z M 725.9908,1232.9441 c 0.003,-0.9625 3.43063,-5.575 7.61705,-10.25 15.45151,-17.2548 36.41736,-42.0536 52.41706,-62 23.34599,-29.1048 33.16815,-40.3844 50.35663,-57.8287 24.64235,-25.0093 38.22324,-36.1572 75.10388,-61.6496 11,-7.6033 24.162,-17.1451 29.2489,-21.2039 10.1992,-8.1379 11.7106,-9.0013 12.7666,-7.2928 0.4318,0.6988 -1.8214,3.6138 -5.6569,7.3182 -6.1732,5.9623 -12.6183,10.7143 -44.3586,32.7055 -41.43119,28.7056 -70.2876,56.9522 -114.25675,111.8424 -16.47231,20.5638 -43.06392,51.8849 -53.79161,63.3589 -6.24975,6.6845 -9.45666,8.382 -9.44626,5 z M 2.9371415e-4,1153.4441 C 0.02569371,1151.3099 5.9429787,1145.364 20.485417,1132.8599 c 7.7,-6.6207 19.85,-17.2914 27,-23.7125 18.11477,-16.2683 26.60292,-22.6838 58.833053,-44.4667 15.49182,-10.4703 33.88494,-23.0444 40.87358,-27.9425 38.69458,-27.1197 72.87859,-45.52428 120.79337,-65.03518 36.82301,-14.9943 96.58334,-45.1401 114.69846,-57.859 16.48914,-11.5773 38.69194,-31.3384 65.30154,-58.1201 32.39617,-32.6057 40.20927,-39.2288 78.32922,-66.3991 43.30623,-30.86673 80.7456,-54.4034 120.17078,-75.54666 19.00791,-10.19371 37.66825,-22.27402 70.48145,-45.62821 37.13511,-26.43023 46.12982,-35.77956 74.99903,-77.95583 20.62106,-30.1262 35.03732,-47.8409 65.62674,-80.64216 33.77686,-36.21918 93.89258,-87.14565 122.41398,-103.70174 32.57638,-18.91002 78.56598,-33.16721 138.97878,-43.0847 77.2254,-12.67748 133.9663,-11.61771 211,3.94091 57.0962,11.53183 88.3026,21.23771 169.5,52.71828 22,8.5295 48.1,18.40467 58,21.94483 24.9354,8.91672 91.1448,35.09097 126.2521,49.91063 l 29.2521,12.34806 39.2479,-6.41656 c 47.2963,-7.73237 58.4938,-9.93435 86.0314,-16.91804 45.1189,-11.44242 71.2167,-24.16553 94.3715,-46.00768 8.5463,-8.06186 11.345,-12.52973 11.345,-18.11126 0,-0.85302 0.6507,-2.5476 1.4461,-3.76575 1.981,-3.03423 19.1235,-42.25192 28.0689,-64.21482 7.9358,-19.48406 15.183,-38.6199 27.6469,-73 12.0829,-33.32884 26.5108,-70.60698 32.4403,-83.81726 11.6514,-25.95847 25.9622,-41.39222 49.2434,-53.10772 14.3919,-7.2423 37.9878,-13.13089 49.6544,-12.39178 4.2222,0.26749 5,0.62691 5,2.31054 0,1.80356 -1.0972,2.11319 -11.5,3.24545 -39.2946,4.27687 -68.3694,23.19993 -84.3056,54.86937 -4.2973,8.53974 -19.6293,47.06647 -30.0026,75.3914 -20.0728,54.80969 -23.4599,63.8544 -30.7078,82 -4.2839,10.725 -12.6099,30.525 -18.5021,44 -13.9393,31.87787 -13.6194,30.7387 -6.4588,23 12.2331,-13.2207 29.8556,-37.02394 38.6119,-52.15445 5.1898,-8.96769 6.889,-10.72392 8.6574,-8.94809 2.5368,2.54745 -12.8407,27.20641 -32.1182,51.50426 -10.523,13.26334 -36.3396,39.44382 -46.1742,46.82491 -24.3935,18.30792 -46.919,27.96391 -90.074,38.61204 -27.55,6.79771 -37.8605,8.74942 -98.926,18.72615 -56.4879,9.22885 -63.2128,9.99232 -63.7775,7.24059 -0.4297,-2.09364 2.8378,-3.02175 19.0557,-5.4127 6.4779,-0.95502 11.4279,-2.04281 11,-2.41731 -2.9442,-2.57618 -117.2143,-48.34108 -146.8186,-58.80049 -7.6778,-2.7126 -24.0846,-8.85403 -36.4596,-13.64761 -93.3655,-36.16605 -110.0914,-41.86514 -155.5106,-52.98788 -88.8432,-21.75687 -153.8975,-25.33473 -235.4894,-12.95148 -62.4064,9.47147 -112.0199,24.44906 -145.62048,43.96066 -28.6726,16.64997 -87.81626,66.77414 -121.34936,102.8434 -31.25047,33.61399 -46.3411,52.28074 -67.99483,84.108 -18.69264,27.47497 -31.45714,42.57163 -46.34215,54.80917 -9.66586,7.94667 -52.50321,38.66282 -68.69316,49.25583 -5.225,3.41869 -18.05,10.82568 -28.5,16.45997 -39.17639,21.12261 -78.08652,45.50841 -118.249,74.10913 -42.42445,30.2116 -45.77628,33.0598 -82.251,69.8934 -26.50608,26.767 -46.89191,44.615 -65.22832,57.1083 -21.61645,14.7281 -73.38841,40.7134 -117.79324,59.1225 -11.28685,4.6792 -25.68685,10.8581 -32,13.7308 -27.60725,12.56238 -60.09983,31.91148 -93.97844,55.96348 -9.075,6.4427 -25.5,17.7077 -36.5,25.0333 -28.393343,18.9089 -35.670393,24.5851 -61.591553,48.0426 -5.82536,5.2716 -16.125154,14.0593 -22.888439,19.5282 -6.763285,5.4688 -13.4720863,10.9396 -14.9084463,12.1573 -2.990016,2.5349 -4.11792199,2.8201 -4.09668798585,1.036 z M 1912.5247,1148.7576 c -1.4991,-2.4255 1.3798,-3.2132 15.0795,-4.1256 26.1791,-1.7437 37.5173,-3.761 59.5497,-10.5951 12.2971,-3.8144 16.9775,-3.9627 13.2648,-0.4203 -3.4752,3.3157 -28.4186,10.5938 -46.4333,13.5484 -13.3213,2.1848 -40.4507,3.227 -41.4607,1.5926 z M 703.98542,995.43282 c 0,-2.104 0.75499,-2.3065 19.19912,-5.1496 36.15514,-5.5731 84.1564,-8.0275 136.30088,-6.9693 30.18823,0.6127 35.3749,1.1556 33.89628,3.548 -0.35926,0.5813 -15.74598,0.6803 -40.23899,0.2589 -54.16376,-0.9319 -92.93535,1.0813 -128.65729,6.6806 -21.87222,3.4283 -20.5,3.3191 -20.5,1.6314 z m 1085.76188,-98.6198 c -12.3315,-4.0726 -22.5644,-13.2841 -28.3943,-25.5601 -6.25,-13.1608 -4.5826,-25.7858 4.7552,-36.0028 8.8139,-9.6438 20.9955,-11.2184 34.6782,-4.4824 3.6815,1.8124 7.6672,3.3378 8.8572,3.3899 2.8264,0.1238 5.5457,3.4442 9.8572,12.0365 6.3826,12.7199 7.9631,27.6222 3.9499,37.2439 -5.0808,12.1814 -19.723,17.9921 -33.7034,13.375 z m 18.7467,-4.9839 c 7.765,-3.5276 12.4958,-11.3569 12.4685,-20.635 -0.019,-6.5107 -2.6067,-16.8233 -5.8165,-23.1818 -3.2774,-6.4925 -5.4655,-8.8658 -7.1908,-7.7995 -0.6148,0.38 -2.097,-0.2055 -3.2938,-1.3011 -6.2426,-5.7145 -19.3703,-8.7937 -26.8983,-6.3092 -8.1176,2.679 -15.0299,13.43 -15.1681,23.5916 -0.2968,21.8232 27.9789,43.7759 45.899,35.635 z m -18.2392,-18.3468 c -3.1398,-1.5153 -6.651,-9.1168 -5.8035,-12.5643 1.1321,-4.6058 3.3551,-7.09 7.4395,-8.3137 7.7512,-2.3223 12.0946,0.62 12.0946,8.1933 0,11.0668 -5.8618,16.4821 -13.7306,12.6847 z m 7.6954,-5.7225 c 0.5694,-1.0638 1.0352,-3.9888 1.0352,-6.5 0,-4.1622 -0.2137,-4.5657 -2.4182,-4.5657 -5.6638,0 -8.41,3.6914 -6.4945,8.7296 1.739,4.5739 6.0031,5.8385 7.8775,2.3361 z m -383.6382,-36.2655 c -1.2146,-1.5769 -7.3266,-20.9188 -7.3266,-23.1859 0,-2.3614 2.7216,-1.9702 4.4224,0.6357 0.8077,1.2375 2.6726,6.4544 4.1442,11.5931 2.3433,8.1826 2.4947,9.5242 1.2186,10.8002 -1.1852,1.1852 -1.6439,1.2145 -2.4586,0.1569 z m -144.8266,-98.84469 c -16.9257,-0.96829 -26.8136,-2.18093 -56.5,-6.92902 -13.475,-2.15522 -33.725,-5.32528 -45,-7.0446 -11.275,-1.71931 -27.7155,-4.44394 -36.5344,-6.05474 -29.2435,-5.3414 -43.2095,-6.96953 -64.9656,-7.57357 -23.2496,-0.64551 -32.6914,0.22823 -60.9848,5.64351 -8.62918,1.6516 -16.56428,3.00291 -17.63368,3.00291 -1.89,0 -3.6845,-2.53035 -2.5786,-3.63618 0.8251,-0.82517 33.49178,-6.99712 47.19708,-8.9173 9.6139,-1.34696 16.3745,-1.56557 34,-1.09941 23.5925,0.62396 30.8727,1.47832 65,7.62793 12.1,2.18037 31.225,5.31112 42.5,6.95722 11.275,1.6461 31.3,4.77082 44.5,6.94383 25.4203,4.18472 40.9567,5.86166 64.4192,6.95313 10.1097,0.47031 14.5423,1.04253 14.8313,1.91463 0.2266,0.68411 -0.7788,1.69661 -2.2343,2.25 -2.8769,1.09377 -6.3155,1.08871 -26.0162,-0.0383 z m 154.9729,-25.99931 c -0.9364,-1.51513 0.9604,-3.4485 10.9964,-11.20829 21.9591,-16.97883 60.8776,-37.33282 99.0307,-51.79209 33.5548,-12.71663 57.1117,-22.29181 72.2414,-29.36398 8.9327,-4.17551 17.1452,-7.59184 18.25,-7.59184 2.2385,0 2.6866,2.21521 0.7586,3.75055 -4.85,3.86232 -50.1328,23.08096 -84.25,35.75682 -41.6562,15.47691 -79.2874,34.99936 -103.9442,53.92457 -9.7824,7.50843 -11.8404,8.53469 -13.0829,6.52426 z m 663.5271,-66.55768 c -28.5646,-13.73786 -59.6099,-26.61969 -82.8934,-34.39546 -18.3749,-6.13649 -31.3947,-9.33169 -49.0155,-12.02895 -14.4251,-2.20807 -15.0911,-2.4034 -15.0911,-4.42614 0,-2.3886 2.6729,-2.4667 15.6859,-0.45833 35.5639,5.48876 71.3402,17.86832 128.3141,44.40012 14.9482,6.96111 18,8.85414 18,11.16523 0,2.33296 -3.1681,1.43396 -15,-4.25647 z m -1049.5,-59.84312 c -8.3237,-3.06544 -13.6153,-11.79659 -12.087,-19.94343 1.3449,-7.1688 11.9122,-17.43121 25.8221,-25.07704 3.6271,-1.9937 7.1282,-4.26775 7.7803,-5.05346 1.7513,-2.11016 7.6453,-2.8997 11.9712,-1.60362 8.1445,2.44015 15.0029,14.88608 13.6485,24.76784 -1.3808,10.07386 -8.6407,19.2287 -19.5083,24.60012 -5.3789,2.65861 -7.7189,3.19936 -15,3.46636 -5.8294,0.21376 -9.9239,-0.16134 -12.6268,-1.15677 z m 23.5632,-5.97272 c 7.9126,-3.12808 12.554,-7.19514 15.9683,-13.9924 4.3747,-8.70917 3.6361,-16.48251 -2.1975,-23.12653 -4.7397,-5.39829 -6.3944,-5.34787 -17.649,0.53778 -17.2794,9.0363 -26.0104,17.26979 -26.9258,25.39156 -0.442,3.92102 -0.1369,4.76971 2.9094,8.09385 6.0798,6.63421 16.1241,7.74893 27.8946,3.09574 z m -9.0632,-14.84643 c -3.2329,-1.65858 -3.7735,-5.72624 -1.0846,-8.15971 2.7487,-2.48755 5.3288,-1.39752 4.5008,1.9015 -0.6695,2.66734 0.117,3.12597 2.5838,1.50665 1.2699,-0.83364 1.2859,-1.12261 0.1043,-1.88377 -2.5487,-1.64178 -0.449,-4.26056 3.1388,-3.91479 2.9741,0.28661 3.2569,0.60843 3.2569,3.70595 0,5.49552 -7.3183,9.50255 -12.5,6.84417 z m 772.5,11.39681 c -5.3732,-2.44885 -16.1057,-14.04548 -17.4267,-18.82985 -0.8331,-3.01708 -0.6989,-4.41523 0.6976,-7.26938 1.7569,-3.59068 4.6318,-5.03109 6.4375,-3.22538 0.6614,0.66134 0.2189,2.04722 -1.317,4.12457 -2.3003,3.11137 -2.3028,3.14759 -0.447,6.59362 3.1345,5.82044 12.7035,14.22233 17.154,15.06177 2.1459,0.40474 13.0629,0.1717 24.26,-0.51786 14.792,-0.91096 20.6588,-0.95334 21.4571,-0.15501 2.6139,2.61384 -1.7097,3.85782 -17.3155,4.98209 -21.806,1.57094 -28.7218,1.4131 -33.5,-0.76457 z m 596.7673,-70.65811 c -28.8387,-5.05137 -47.2511,-18.59154 -60.8187,-44.72495 l -4.5428,-8.75 h 3.0327 c 2.7173,0 3.3604,0.64999 6.184,6.25 10.6353,21.09342 25.9241,34.02883 46.8775,39.66176 28.6727,7.70811 68.9688,4.3515 113.6398,-9.46602 13.3009,-4.11423 14.6121,-4.22795 14.1798,-1.22985 -0.2735,1.89605 -2.2097,2.822 -13.4141,6.41495 -14.2999,4.58559 -30.3468,8.40356 -45.9055,10.9221 -14.0792,2.27905 -48.4324,2.81379 -59.2327,0.92201 z m 220.7327,-5.22196 c -14.5955,-3.96608 -20.9796,-10.73754 -21.1794,-22.4646 -0.1336,-7.83862 1.475,-14.89939 5.666,-24.87092 5.1109,-12.16032 15.5946,-25.86778 18.8334,-24.6249 2.8461,1.09214 1.8923,4.11511 -3.3654,10.66629 -12.267,15.28507 -18.5302,37.66525 -13.0539,46.64591 6.0272,9.88414 28.1113,13.13327 46.7465,6.87762 3.9961,-1.34145 13.9228,-5.52619 22.0592,-9.29943 17.0417,-7.90297 21.2993,-9.18803 41.7936,-12.61438 24.3864,-4.07707 34.1099,-9.13291 40.3616,-20.98655 7.2815,-13.8063 3.9895,-30.81246 -8.1955,-42.33652 -10.0451,-9.50022 -18.649,-12.07881 -43.6546,-13.08321 -15.0558,-0.60475 -16.5197,-0.82567 -16.8484,-2.54247 -0.5801,-3.0304 1.6451,-3.58873 14.3369,-3.59745 13.9426,-0.01 27.6672,1.867 35.5424,4.85973 11.5301,4.38167 23.9731,17.69633 27.4363,29.35816 4.0014,13.47397 -0.078,29.41182 -10.0914,39.42501 -8.1104,8.11046 -20.9811,12.73598 -45.3873,16.31145 -10.8028,1.5826 -19.7479,4.61697 -35.3528,11.99244 -17.7181,8.37429 -26.9788,11.12629 -39.1472,11.63337 -7.4919,0.3122 -11.6302,-0.0263 -16.5,-1.34955 z m 52.3012,-31.91057 c -0.6213,-1.61909 2.8585,-5.52377 5.8817,-6.5998 1.6101,-0.57308 1.7218,-0.47669 -5.8336,-5.03322 -3.3829,-2.04017 -7.1132,-3.7094 -8.2896,-3.7094 -1.256,0 -4.9958,2.68318 -9.0597,6.5 -8.1635,7.6671 -11.2909,8.36292 -16.0769,3.57692 -3.5828,-3.5828 -3.7589,-7.10759 -0.6574,-13.15744 2.8493,-5.55774 16.0095,-22.21455 19.2062,-24.30908 2.2078,-1.44663 2.7393,-1.41597 6.7129,0.38733 5.4924,2.49258 11.9701,2.6089 14.0489,0.25227 0.8491,-0.9625 1.863,-3.325 2.2532,-5.25 1.1034,-5.44341 3.0845,-7.75487 9.3634,-10.92444 14.8107,-7.47643 31.9651,-7.99047 45.9678,-1.37745 6.5677,3.1017 13.4888,9.46991 13.0076,11.9685 -0.5978,3.10431 -3.3179,2.57319 -8.4154,-1.6432 -12.4593,-10.30565 -32.1727,-11.64787 -47.804,-3.25481 -2.7979,1.50227 -5.2062,3.4064 -5.3519,4.2314 -0.1789,1.01385 2.8969,3.00886 9.4904,6.15555 10.6578,5.08631 18.2552,10.89354 18.2552,13.95376 0,3.56249 -2.8622,3.24025 -8.2688,-0.93096 -2.884,-2.22494 -8.7522,-5.71157 -13.0405,-7.74808 l -7.7969,-3.70274 -2.6969,2.57262 c -4.0459,3.85944 -7.2827,4.74379 -13.5996,3.71568 -3.0276,-0.49275 -6.5154,-1.43682 -7.7507,-2.09793 -1.9513,-1.04432 -2.4449,-0.9024 -3.7624,1.08175 -0.834,1.25608 -4.1229,5.54923 -7.3088,9.54034 -7.2475,9.07943 -9.562,14.10203 -7.4647,16.1993 1.8626,1.8626 3.8798,0.81117 9.1041,-4.74539 8.1712,-8.69078 11.9008,-9.2232 22.2242,-3.17262 3.7735,2.21171 7.6764,4.75962 8.673,5.66204 1.6845,1.52522 2.5998,1.46563 13,-0.84636 6.1534,-1.36791 14.563,-3.15464 18.688,-3.97051 12.0518,-2.38369 22.9076,-7.19988 31.2609,-13.86899 2.5612,-2.04481 2.8798,-2.08537 4.4043,-0.56082 1.5021,1.50205 1.5078,1.85033 0.067,4.04903 -4.3975,6.71147 -20.0633,13.47989 -40.9689,17.70063 -17.355,3.50391 -23.1951,5.23207 -29.1084,8.61355 -4.8959,2.79967 -7.4765,3.02906 -8.3539,0.74257 z m -359.1933,-76.09242 c -3.174,-9.1987 -18.7094,-38.88246 -26.3956,-50.4344 -12.1295,-18.22998 -42.1162,-56.10157 -60.6851,-76.642 -14.0528,-15.54482 -34.1305,-32.27343 -52.7118,-43.91894 -14.6217,-9.16391 -32.4676,-18.59125 -40.7326,-21.51752 -19.9989,-7.0807 -34.2555,-11.6862 -36.251,-11.71062 -3.4619,-0.0423 -5.3318,-1.10375 -5.3318,-3.02652 0,-4.22651 5.6752,-3.23877 31.1463,5.42091 15.1041,5.13507 21.9539,8.10704 33.6585,14.60368 45.1815,25.07798 64.4118,42.39675 107.6791,96.97541 8.9383,11.275 18.7846,24.03285 21.8807,28.35077 15.482,21.59187 33.7113,57.22656 32.251,63.0445 -0.9376,3.73573 -3.0048,3.21051 -4.5077,-1.14527 z m 242.6192,-242.5 c -1.8948,-3.4375 -6.2435,-11.7064 -9.6639,-18.37533 -7.1192,-13.88093 -15.0533,-24.3562 -23.2429,-30.687678 -6.717,-5.19291 -19.5602,-12.03044 -25.6408,-13.65074 -6.5422,-1.74332 -15.1165,-1.54117 -19.6795,0.46395 -5.0771,2.23107 -9.5349,2.03578 -11.6603,-0.51083 -0.9132,-1.09415 -1.971,-1.98937 -2.3507,-1.98937 -0.7406,0 -0.1186,6.73498 1.0391,11.25 0.5939,2.31636 0.3906,2.75 -1.2891,2.75 -2.4611,0 -3.6275,-1.41086 -5.1991,-6.28893 -2.3387,-7.2589 2.0071,-17.52806 6.3492,-15.00334 0.7494,0.43575 2.5784,2.24874 4.0644,4.02887 l 2.7017,3.23659 7.1724,-3.72906 c 6.9463,-3.61149 7.4877,-3.72592 17.1724,-3.62908 13.8514,0.13849 32.3739,5.0081 33.869,8.9042 1.1118,2.89726 -1.8733,3.47696 -7.2953,1.41675 -5.5098,-2.09354 -17.0737,-5.04937 -17.0737,-4.36416 0,0.21696 2.3625,1.58934 5.25,3.04975 19.6075,9.91686 29.6689,20.881278 42.7832,46.623358 5.1547,10.11816 8.0861,14.81319 9.4668,15.16238 1.1,0.2782 2.883,1.15166 3.9623,1.94103 1.6935,1.23865 1.7742,1.66171 0.5897,3.08894 -0.7548,0.90954 -1.9609,1.42789 -2.6802,1.15188 -0.7193,-0.27601 -1.5737,-0.0715 -1.8988,0.45449 -1.3836,2.23865 -3.5167,0.56469 -6.7459,-5.29367 z m -373.2271,-28.82858 c -11.5732,-3.65741 -26.6378,-5.2269 -43.5,-4.53201 -8.525,0.35132 -18.306,0.91104 -21.7357,1.24383 -5.3208,0.5163 -6.3325,0.35273 -6.8957,-1.11501 -1.1905,-3.10252 1.5476,-3.75074 23.1238,-5.47433 14.3778,-1.14855 32.2449,0.24789 45.5076,3.55672 11.7933,2.94225 16,4.76297 16,6.92506 0,2.02002 -4.9537,1.78056 -12.5,-0.60426 z m 151.5,-11.48384 c 0,-0.93583 0.8571,-3.10463 1.9047,-4.819548 4.7673,-7.80442 6.3303,-20.39413 3.7392,-30.11803 -2.0467,-7.6807 -4.271,-11.23522 -12.3155,-19.68011 -7.4917,-7.86469 -10.8052,-13.41382 -9.7115,-16.26399 1.031,-2.6868 3.2667,-1.70448 5.3313,2.34253 1.0938,2.14414 5.5678,7.76161 9.9422,12.48326 10.752,11.60563 12.55,16.12654 12.5842,31.64201 0.025,11.19763 -0.074,11.72111 -3.4746,18.5 -2.5786,5.139738 -4.0923,7.060418 -5.75,7.295848 -1.577,0.22397 -2.25,-0.18941 -2.25,-1.38197 z m -38.725,-25.399448 c -2.3237,-1.05486 -6.9362,-4.55456 -10.25,-7.7771 l -6.025,-5.85916 0.062,-6.45093 c 0.034,-3.54802 0.6065,-9.30531 1.2724,-12.79399 0.9595,-5.02649 1.7251,-6.62771 3.6884,-7.71456 5.1331,-2.8416 8.6706,-1.04443 12.3757,6.28738 0.8978,1.77638 3.6097,5.65761 6.0267,8.62496 5.8597,7.1941 7.5751,10.73709 7.5751,15.64527 0,5.15073 -2.0812,9.26034 -5.4721,10.80531 -3.4441,1.56928 -4.2539,1.50215 -9.2529,-0.76718 z m -49.875,-12.43813 c -2.874,-2.87401 -3.4,-4.10651 -3.4,-7.96689 0,-4.21615 0.5016,-5.1238 6.5312,-11.81848 7.7654,-8.62191 10.4174,-10.42244 16.7095,-11.34434 4.3687,-0.64009 4.8108,-0.50921 5.6326,1.66756 0.4905,1.29918 0.724,2.64969 0.5189,3.00112 -0.2052,0.35143 -1.0301,3.76259 -1.8332,7.58035 -3.5779,17.00877 -7.4527,22.26925 -16.409,22.27694 -3.6163,0.003 -4.9234,-0.5697 -7.75,-3.39626 z m 231.1128,-13.57933 c -1.1462,-1.85455 1.3174,-4.55249 7.4933,-8.20598 5.0491,-2.98691 7.589,-3.79353 13.7687,-4.3726 15.778,-1.47853 36.4414,2.38106 42.967,8.02552 2.5134,2.17403 2.5952,2.44912 0.9214,3.0994 -1.087,0.4223 -5.9856,-0.54615 -12,-2.37241 -12.0066,-3.64578 -20.2038,-4.52049 -31.2848,-3.33836 -6.8757,0.7335 -8.9626,1.42464 -13.6035,4.50509 -5.725,3.80001 -7.2532,4.29189 -8.2621,2.65934 z"
     style="fill:#000000" />
</svg>
